%!PS-Adobe-2.0 EPSF-1.2
%%Creator: MATLAB, The MathWorks, Inc. Version 8.1.0.604 (R2013a). Operating System: Linux 3.13.0-40-generic #69-Ubuntu SMP Thu Nov 13 17:53:56 UTC 2014 x86_64.
%%Title: /home/xiaolin/Documents/model_selection/model_selection_log003new/YHD/data_figures/sampleHist.eps
%%CreationDate: 10/25/2015  06:40:35
%%DocumentNeededFonts: Helvetica
%%DocumentProcessColors: Cyan Magenta Yellow Black
%%Pages: 1
%%BoundingBox:    64   194   549   589
%%EndComments

%%BeginProlog
% MathWorks dictionary
/MathWorks 160 dict begin
% definition operators
/bdef {bind def} bind def
/ldef {load def} bind def
/xdef {exch def} bdef
/xstore {exch store} bdef
% operator abbreviations
/c  /clip ldef
/cc /concat ldef
/cp /closepath ldef
/gr /grestore ldef
/gs /gsave ldef
/mt /moveto ldef
/np /newpath ldef
/cm /currentmatrix ldef
/sm /setmatrix ldef
/rm /rmoveto ldef
/rl /rlineto ldef
/s {show newpath} bdef
/sc {setcmykcolor} bdef
/sr /setrgbcolor ldef
/sg /setgray ldef
/w /setlinewidth ldef
/j /setlinejoin ldef
/cap /setlinecap ldef
/rc {rectclip} bdef
/rf {rectfill} bdef
% page state control
/pgsv () def
/bpage {/pgsv save def} bdef
/epage {pgsv restore} bdef
/bplot /gsave ldef
/eplot {stroke grestore} bdef
% orientation switch
/portraitMode 0 def /landscapeMode 1 def /rotateMode 2 def
% coordinate system mappings
/dpi2point 0 def
% font control
/FontSize 0 def
/FMS {/FontSize xstore findfont [FontSize 0 0 FontSize neg 0 0]
  makefont setfont} bdef
/reencode {exch dup where {pop load} {pop StandardEncoding} ifelse
  exch dup 3 1 roll findfont dup length dict begin
  { 1 index /FID ne {def}{pop pop} ifelse } forall
  /Encoding exch def currentdict end definefont pop} bdef
/isroman {findfont /CharStrings get /Agrave known} bdef
/FMSR {3 1 roll 1 index dup isroman {reencode} {pop pop} ifelse
  exch FMS} bdef
/csm {1 dpi2point div -1 dpi2point div scale neg translate
 dup landscapeMode eq {pop -90 rotate}
  {rotateMode eq {90 rotate} if} ifelse} bdef
% line types: solid, dotted, dashed, dotdash
/SO { [] 0 setdash } bdef
/DO { [.5 dpi2point mul 4 dpi2point mul] 0 setdash } bdef
/DA { [6 dpi2point mul] 0 setdash } bdef
/DD { [.5 dpi2point mul 4 dpi2point mul 6 dpi2point mul 4
  dpi2point mul] 0 setdash } bdef
% macros for lines and objects
/L {lineto stroke} bdef
/MP {3 1 roll moveto 1 sub {rlineto} repeat} bdef
/AP {{rlineto} repeat} bdef
/PDlw -1 def
/W {/PDlw currentlinewidth def setlinewidth} def
/PP {closepath eofill} bdef
/DP {closepath stroke} bdef
/MR {4 -2 roll moveto dup  0 exch rlineto exch 0 rlineto
  neg 0 exch rlineto closepath} bdef
/FR {MR stroke} bdef
/PR {MR fill} bdef
/L1i {{currentfile picstr readhexstring pop} image} bdef
/tMatrix matrix def
/MakeOval {newpath tMatrix currentmatrix pop translate scale
0 0 1 0 360 arc tMatrix setmatrix} bdef
/FO {MakeOval stroke} bdef
/PO {MakeOval fill} bdef
/PD {currentlinewidth 2 div 0 360 arc fill
   PDlw -1 eq not {PDlw w /PDlw -1 def} if} def
/FA {newpath tMatrix currentmatrix pop translate scale
  0 0 1 5 -2 roll arc tMatrix setmatrix stroke} bdef
/PA {newpath tMatrix currentmatrix pop	translate 0 0 moveto scale
  0 0 1 5 -2 roll arc closepath tMatrix setmatrix fill} bdef
/FAn {newpath tMatrix currentmatrix pop translate scale
  0 0 1 5 -2 roll arcn tMatrix setmatrix stroke} bdef
/PAn {newpath tMatrix currentmatrix pop translate 0 0 moveto scale
  0 0 1 5 -2 roll arcn closepath tMatrix setmatrix fill} bdef
/vradius 0 def /hradius 0 def /lry 0 def
/lrx 0 def /uly 0 def /ulx 0 def /rad 0 def
/MRR {/vradius xdef /hradius xdef /lry xdef /lrx xdef /uly xdef
  /ulx xdef newpath tMatrix currentmatrix pop ulx hradius add uly
  vradius add translate hradius vradius scale 0 0 1 180 270 arc 
  tMatrix setmatrix lrx hradius sub uly vradius add translate
  hradius vradius scale 0 0 1 270 360 arc tMatrix setmatrix
  lrx hradius sub lry vradius sub translate hradius vradius scale
  0 0 1 0 90 arc tMatrix setmatrix ulx hradius add lry vradius sub
  translate hradius vradius scale 0 0 1 90 180 arc tMatrix setmatrix
  closepath} bdef
/FRR {MRR stroke } bdef
/PRR {MRR fill } bdef
/MlrRR {/lry xdef /lrx xdef /uly xdef /ulx xdef /rad lry uly sub 2 div def
  newpath tMatrix currentmatrix pop ulx rad add uly rad add translate
  rad rad scale 0 0 1 90 270 arc tMatrix setmatrix lrx rad sub lry rad
  sub translate rad rad scale 0 0 1 270 90 arc tMatrix setmatrix
  closepath} bdef
/FlrRR {MlrRR stroke } bdef
/PlrRR {MlrRR fill } bdef
/MtbRR {/lry xdef /lrx xdef /uly xdef /ulx xdef /rad lrx ulx sub 2 div def
  newpath tMatrix currentmatrix pop ulx rad add uly rad add translate
  rad rad scale 0 0 1 180 360 arc tMatrix setmatrix lrx rad sub lry rad
  sub translate rad rad scale 0 0 1 0 180 arc tMatrix setmatrix
  closepath} bdef
/FtbRR {MtbRR stroke } bdef
/PtbRR {MtbRR fill } bdef
/stri 6 array def /dtri 6 array def
/smat 6 array def /dmat 6 array def
/tmat1 6 array def /tmat2 6 array def /dif 3 array def
/asub {/ind2 exch def /ind1 exch def dup dup
  ind1 get exch ind2 get sub exch } bdef
/tri_to_matrix {
  2 0 asub 3 1 asub 4 0 asub 5 1 asub
  dup 0 get exch 1 get 7 -1 roll astore } bdef
/compute_transform {
  dmat dtri tri_to_matrix tmat1 invertmatrix 
  smat stri tri_to_matrix tmat2 concatmatrix } bdef
/ds {stri astore pop} bdef
/dt {dtri astore pop} bdef
/db {2 copy /cols xdef /rows xdef mul dup string
  currentfile exch readhexstring pop
  /bmap xdef pop pop} bdef
/it {gs np dtri aload pop moveto lineto lineto cp c
  cols rows 8 compute_transform 
  {bmap} image gr}bdef
/il {newpath moveto lineto stroke}bdef
currentdict end def
%%EndProlog

%%BeginSetup
MathWorks begin

0 cap

end
%%EndSetup

%%Page: 1 1
%%BeginPageSetup
%%PageBoundingBox:    64   194   549   589
MathWorks begin
bpage
%%EndPageSetup

%%BeginObject: obj1
bplot

/dpi2point 12 def
portraitMode 0216 7344 csm

  554   274  5827  4731 MR c np
85 dict begin %Colortable dictionary
/c0 { 0.000000 0.000000 0.000000 sr} bdef
/c1 { 1.000000 1.000000 1.000000 sr} bdef
/c2 { 0.900000 0.000000 0.000000 sr} bdef
/c3 { 0.000000 0.820000 0.000000 sr} bdef
/c4 { 0.000000 0.000000 0.800000 sr} bdef
/c5 { 0.910000 0.820000 0.320000 sr} bdef
/c6 { 1.000000 0.260000 0.820000 sr} bdef
/c7 { 0.000000 0.820000 0.820000 sr} bdef
c0
1 j
1 sg
   0    0 6913 5186 PR
6 w
0 1770 1326 0 0 -1770 1007 2158 4 MP
PP
-1326 0 0 1770 1326 0 0 -1770 1007 2158 5 MP stroke
4 w
DO
SO
6 w
0 sg
1007 2158 mt 2333 2158 L
1007  388 mt 2333  388 L
1007 2158 mt 1007  388 L
2333 2158 mt 2333  388 L
1007 2158 mt 2333 2158 L
1007 2158 mt 1007  388 L
1007 2158 mt 1007 2140 L
1007  389 mt 1007  406 L
%%IncludeResource: font Helvetica
/Helvetica /ISOLatin1Encoding 120 FMSR

 891 2303 mt 
(0.78) s
1670 2158 mt 1670 2140 L
1670  389 mt 1670  406 L
1587 2303 mt 
(0.8) s
2333 2158 mt 2333 2140 L
2333  389 mt 2333  406 L
2217 2303 mt 
(0.82) s
1007 2158 mt 1024 2158 L
2333 2158 mt 2315 2158 L
 906 2202 mt 
(0) s
1007 1863 mt 1024 1863 L
2333 1863 mt 2315 1863 L
 772 1907 mt 
(100) s
1007 1568 mt 1024 1568 L
2333 1568 mt 2315 1568 L
 772 1612 mt 
(200) s
1007 1273 mt 1024 1273 L
2333 1273 mt 2315 1273 L
 772 1317 mt 
(300) s
1007  978 mt 1024  978 L
2333  978 mt 2315  978 L
 772 1022 mt 
(400) s
1007  683 mt 1024  683 L
2333  683 mt 2315  683 L
 772  727 mt 
(500) s
1007  389 mt 1024  389 L
2333  389 mt 2315  389 L
 772  433 mt 
(600) s
1007 2158 mt 2333 2158 L
1007  388 mt 2333  388 L
1007 2158 mt 1007  388 L
2333 2158 mt 2333  388 L
gs 1007 389 1327 1770 MR c np
/c8 { 0.000000 0.000000 0.562500 sr} bdef
c8
0 12 16 0 0 -12 1211 2158 4 MP
PP
0 sg
-16 0 0 12 16 0 0 -12 1211 2158 5 MP stroke
c8
0 9 16 0 0 -9 1227 2158 4 MP
PP
0 sg
-16 0 0 9 16 0 0 -9 1227 2158 5 MP stroke
c8
0 15 16 0 0 -15 1243 2158 4 MP
PP
0 sg
-16 0 0 15 16 0 0 -15 1243 2158 5 MP stroke
c8
0 45 15 0 0 -45 1259 2158 4 MP
PP
0 sg
-15 0 0 45 15 0 0 -45 1259 2158 5 MP stroke
c8
0 77 16 0 0 -77 1274 2158 4 MP
PP
0 sg
-16 0 0 77 16 0 0 -77 1274 2158 5 MP stroke
c8
0 68 16 0 0 -68 1290 2158 4 MP
PP
0 sg
-16 0 0 68 16 0 0 -68 1290 2158 5 MP stroke
c8
0 136 15 0 0 -136 1306 2158 4 MP
PP
0 sg
-15 0 0 136 15 0 0 -136 1306 2158 5 MP stroke
c8
0 207 16 0 0 -207 1321 2158 4 MP
PP
0 sg
-16 0 0 207 16 0 0 -207 1321 2158 5 MP stroke
c8
0 304 16 0 0 -304 1337 2158 4 MP
PP
0 sg
-16 0 0 304 16 0 0 -304 1337 2158 5 MP stroke
c8
0 558 16 0 0 -558 1353 2158 4 MP
PP
0 sg
-16 0 0 558 16 0 0 -558 1353 2158 5 MP stroke
c8
0 823 15 0 0 -823 1369 2158 4 MP
PP
0 sg
-15 0 0 823 15 0 0 -823 1369 2158 5 MP stroke
c8
0 906 16 0 0 -906 1384 2158 4 MP
PP
0 sg
-16 0 0 906 16 0 0 -906 1384 2158 5 MP stroke
c8
0 976 16 0 0 -976 1400 2158 4 MP
PP
0 sg
-16 0 0 976 16 0 0 -976 1400 2158 5 MP stroke
c8
0 1342 15 0 0 -1342 1416 2158 4 MP
PP
0 sg
-15 0 0 1342 15 0 0 -1342 1416 2158 5 MP stroke
c8
0 1501 16 0 0 -1501 1431 2158 4 MP
PP
0 sg
-16 0 0 1501 16 0 0 -1501 1431 2158 5 MP stroke
c8
0 1451 16 0 0 -1451 1447 2158 4 MP
PP
0 sg
-16 0 0 1451 16 0 0 -1451 1447 2158 5 MP stroke
c8
0 1321 16 0 0 -1321 1463 2158 4 MP
PP
0 sg
-16 0 0 1321 16 0 0 -1321 1463 2158 5 MP stroke
c8
0 1186 15 0 0 -1186 1479 2158 4 MP
PP
0 sg
-15 0 0 1186 15 0 0 -1186 1479 2158 5 MP stroke
c8
0 1015 16 0 0 -1015 1494 2158 4 MP
PP
0 sg
-16 0 0 1015 16 0 0 -1015 1494 2158 5 MP stroke
c8
0 879 16 0 0 -879 1510 2158 4 MP
PP
0 sg
-16 0 0 879 16 0 0 -879 1510 2158 5 MP stroke
c8
0 646 15 0 0 -646 1526 2158 4 MP
PP
0 sg
-15 0 0 646 15 0 0 -646 1526 2158 5 MP stroke
c8
0 422 16 0 0 -422 1541 2158 4 MP
PP
0 sg
-16 0 0 422 16 0 0 -422 1541 2158 5 MP stroke
c8
0 343 16 0 0 -343 1557 2158 4 MP
PP
0 sg
-16 0 0 343 16 0 0 -343 1557 2158 5 MP stroke
c8
0 207 15 0 0 -207 1573 2158 4 MP
PP
0 sg
-15 0 0 207 15 0 0 -207 1573 2158 5 MP stroke
c8
0 113 16 0 0 -113 1588 2158 4 MP
PP
0 sg
-16 0 0 113 16 0 0 -113 1588 2158 5 MP stroke
c8
0 77 16 0 0 -77 1604 2158 4 MP
PP
0 sg
-16 0 0 77 16 0 0 -77 1604 2158 5 MP stroke
c8
0 42 16 0 0 -42 1620 2158 4 MP
PP
0 sg
-16 0 0 42 16 0 0 -42 1620 2158 5 MP stroke
c8
0 24 15 0 0 -24 1636 2158 4 MP
PP
0 sg
-15 0 0 24 15 0 0 -24 1636 2158 5 MP stroke
c8
0 33 16 0 0 -33 1651 2158 4 MP
PP
0 sg
-16 0 0 33 16 0 0 -33 1651 2158 5 MP stroke
c8
0 18 16 0 0 -18 1667 2158 4 MP
PP
0 sg
-16 0 0 18 16 0 0 -18 1667 2158 5 MP stroke
gr

%%IncludeResource: font Symbol
/Symbol /ISOLatin1Encoding 120 FMSR

1634 2440 mt 
(u) s
%%IncludeResource: font Helvetica
/Helvetica /ISOLatin1Encoding 120 FMSR

 690 1537 mt  -90 rotate
(frequency) s
90 rotate
1 sg
0 1770 1326 0 0 -1770 2948 2158 4 MP
PP
-1326 0 0 1770 1326 0 0 -1770 2948 2158 5 MP stroke
4 w
DO
SO
6 w
0 sg
2948 2158 mt 4274 2158 L
2948  388 mt 4274  388 L
2948 2158 mt 2948  388 L
4274 2158 mt 4274  388 L
2948 2158 mt 4274 2158 L
2948 2158 mt 2948  388 L
2948 2158 mt 2948 2140 L
2948  389 mt 2948  406 L
2915 2303 mt 
(0) s
3390 2158 mt 3390 2140 L
3390  389 mt 3390  406 L
3274 2303 mt 
(0.02) s
3832 2158 mt 3832 2140 L
3832  389 mt 3832  406 L
3716 2303 mt 
(0.04) s
4274 2158 mt 4274 2140 L
4274  389 mt 4274  406 L
4158 2303 mt 
(0.06) s
2948 2158 mt 2965 2158 L
4274 2158 mt 4256 2158 L
2847 2202 mt 
(0) s
2948 1863 mt 2965 1863 L
4274 1863 mt 4256 1863 L
2713 1907 mt 
(100) s
2948 1568 mt 2965 1568 L
4274 1568 mt 4256 1568 L
2713 1612 mt 
(200) s
2948 1273 mt 2965 1273 L
4274 1273 mt 4256 1273 L
2713 1317 mt 
(300) s
2948  978 mt 2965  978 L
4274  978 mt 4256  978 L
2713 1022 mt 
(400) s
2948  683 mt 2965  683 L
4274  683 mt 4256  683 L
2713  727 mt 
(500) s
2948  389 mt 2965  389 L
4274  389 mt 4256  389 L
2713  433 mt 
(600) s
2948 2158 mt 4274 2158 L
2948  388 mt 4274  388 L
2948 2158 mt 2948  388 L
4274 2158 mt 4274  388 L
gs 2948 389 1327 1770 MR c np
c8
0 15 40 0 0 -15 2956 2158 4 MP
PP
0 sg
-40 0 0 15 40 0 0 -15 2956 2158 5 MP stroke
c8
0 33 40 0 0 -33 2996 2158 4 MP
PP
0 sg
-40 0 0 33 40 0 0 -33 2996 2158 5 MP stroke
c8
0 45 41 0 0 -45 3036 2158 4 MP
PP
0 sg
-41 0 0 45 41 0 0 -45 3036 2158 5 MP stroke
c8
0 107 40 0 0 -107 3077 2158 4 MP
PP
0 sg
-40 0 0 107 40 0 0 -107 3077 2158 5 MP stroke
c8
0 160 40 0 0 -160 3117 2158 4 MP
PP
0 sg
-40 0 0 160 40 0 0 -160 3117 2158 5 MP stroke
c8
0 263 40 0 0 -263 3157 2158 4 MP
PP
0 sg
-40 0 0 263 40 0 0 -263 3157 2158 5 MP stroke
c8
0 393 40 0 0 -393 3197 2158 4 MP
PP
0 sg
-40 0 0 393 40 0 0 -393 3197 2158 5 MP stroke
c8
0 685 41 0 0 -685 3237 2158 4 MP
PP
0 sg
-41 0 0 685 41 0 0 -685 3237 2158 5 MP stroke
c8
0 838 40 0 0 -838 3278 2158 4 MP
PP
0 sg
-40 0 0 838 40 0 0 -838 3278 2158 5 MP stroke
c8
0 841 40 0 0 -841 3318 2158 4 MP
PP
0 sg
-40 0 0 841 40 0 0 -841 3318 2158 5 MP stroke
c8
0 926 40 0 0 -926 3358 2158 4 MP
PP
0 sg
-40 0 0 926 40 0 0 -926 3358 2158 5 MP stroke
c8
0 1280 40 0 0 -1280 3398 2158 4 MP
PP
0 sg
-40 0 0 1280 40 0 0 -1280 3398 2158 5 MP stroke
c8
0 1256 41 0 0 -1256 3438 2158 4 MP
PP
0 sg
-41 0 0 1256 41 0 0 -1256 3438 2158 5 MP stroke
c8
0 1339 40 0 0 -1339 3479 2158 4 MP
PP
0 sg
-40 0 0 1339 40 0 0 -1339 3479 2158 5 MP stroke
c8
0 1557 40 0 0 -1557 3519 2158 4 MP
PP
0 sg
-40 0 0 1557 40 0 0 -1557 3519 2158 5 MP stroke
c8
0 1000 40 0 0 -1000 3559 2158 4 MP
PP
0 sg
-40 0 0 1000 40 0 0 -1000 3559 2158 5 MP stroke
c8
0 944 40 0 0 -944 3599 2158 4 MP
PP
0 sg
-40 0 0 944 40 0 0 -944 3599 2158 5 MP stroke
c8
0 979 41 0 0 -979 3639 2158 4 MP
PP
0 sg
-41 0 0 979 41 0 0 -979 3639 2158 5 MP stroke
c8
0 682 40 0 0 -682 3680 2158 4 MP
PP
0 sg
-40 0 0 682 40 0 0 -682 3680 2158 5 MP stroke
c8
0 431 40 0 0 -431 3720 2158 4 MP
PP
0 sg
-40 0 0 431 40 0 0 -431 3720 2158 5 MP stroke
c8
0 334 40 0 0 -334 3760 2158 4 MP
PP
0 sg
-40 0 0 334 40 0 0 -334 3760 2158 5 MP stroke
c8
0 260 40 0 0 -260 3800 2158 4 MP
PP
0 sg
-40 0 0 260 40 0 0 -260 3800 2158 5 MP stroke
c8
0 180 41 0 0 -180 3840 2158 4 MP
PP
0 sg
-41 0 0 180 41 0 0 -180 3840 2158 5 MP stroke
c8
0 98 40 0 0 -98 3881 2158 4 MP
PP
0 sg
-40 0 0 98 40 0 0 -98 3881 2158 5 MP stroke
c8
0 54 40 0 0 -54 3921 2158 4 MP
PP
0 sg
-40 0 0 54 40 0 0 -54 3921 2158 5 MP stroke
c8
0 18 40 0 0 -18 3961 2158 4 MP
PP
0 sg
-40 0 0 18 40 0 0 -18 3961 2158 5 MP stroke
c8
0 24 40 0 0 -24 4001 2158 4 MP
PP
0 sg
-40 0 0 24 40 0 0 -24 4001 2158 5 MP stroke
c8
0 3 41 0 0 -3 4041 2158 4 MP
PP
0 sg
-41 0 0 3 41 0 0 -3 4041 2158 5 MP stroke
c8
0 3 40 0 0 -3 4082 2158 4 MP
PP
0 sg
-40 0 0 3 40 0 0 -3 4082 2158 5 MP stroke
c8
0 9 40 0 0 -9 4122 2158 4 MP
PP
0 sg
-40 0 0 9 40 0 0 -9 4122 2158 5 MP stroke
gr

%%IncludeResource: font Symbol
/Symbol /ISOLatin1Encoding 120 FMSR

3559 2408 mt 
(g) s
%%IncludeResource: font Helvetica
/Helvetica /ISOLatin1Encoding 96 FMSR

3608 2468 mt 
(1) s
%%IncludeResource: font Helvetica
/Helvetica /ISOLatin1Encoding 120 FMSR

2631 1537 mt  -90 rotate
(frequency) s
90 rotate
1 sg
0 1770 1326 0 0 -1770 4889 2158 4 MP
PP
-1326 0 0 1770 1326 0 0 -1770 4889 2158 5 MP stroke
4 w
DO
SO
6 w
0 sg
4889 2158 mt 6215 2158 L
4889  388 mt 6215  388 L
4889 2158 mt 4889  388 L
6215 2158 mt 6215  388 L
4889 2158 mt 6215 2158 L
4889 2158 mt 4889  388 L
4889 2158 mt 4889 2140 L
4889  389 mt 4889  406 L
4773 2303 mt 
(0.05) s
5552 2158 mt 5552 2140 L
5552  389 mt 5552  406 L
5469 2303 mt 
(0.1) s
6215 2158 mt 6215 2140 L
6215  389 mt 6215  406 L
6099 2303 mt 
(0.15) s
4889 2158 mt 4906 2158 L
6215 2158 mt 6197 2158 L
4788 2202 mt 
(0) s
4889 1863 mt 4906 1863 L
6215 1863 mt 6197 1863 L
4654 1907 mt 
(100) s
4889 1568 mt 4906 1568 L
6215 1568 mt 6197 1568 L
4654 1612 mt 
(200) s
4889 1273 mt 4906 1273 L
6215 1273 mt 6197 1273 L
4654 1317 mt 
(300) s
4889  978 mt 4906  978 L
6215  978 mt 6197  978 L
4654 1022 mt 
(400) s
4889  683 mt 4906  683 L
6215  683 mt 6197  683 L
4654  727 mt 
(500) s
4889  389 mt 4906  389 L
6215  389 mt 6197  389 L
4654  433 mt 
(600) s
4889 2158 mt 6215 2158 L
4889  388 mt 6215  388 L
4889 2158 mt 4889  388 L
6215 2158 mt 6215  388 L
gs 4889 389 1327 1770 MR c np
c8
0 15 13 0 0 -15 5467 2158 4 MP
PP
0 sg
-13 0 0 15 13 0 0 -15 5467 2158 5 MP stroke
c8
0 36 13 0 0 -36 5480 2158 4 MP
PP
0 sg
-13 0 0 36 13 0 0 -36 5480 2158 5 MP stroke
c8
0 39 13 0 0 -39 5493 2158 4 MP
PP
0 sg
-13 0 0 39 13 0 0 -39 5493 2158 5 MP stroke
c8
0 92 13 0 0 -92 5506 2158 4 MP
PP
0 sg
-13 0 0 92 13 0 0 -92 5506 2158 5 MP stroke
c8
0 142 13 0 0 -142 5519 2158 4 MP
PP
0 sg
-13 0 0 142 13 0 0 -142 5519 2158 5 MP stroke
c8
0 210 13 0 0 -210 5532 2158 4 MP
PP
0 sg
-13 0 0 210 13 0 0 -210 5532 2158 5 MP stroke
c8
0 313 13 0 0 -313 5545 2158 4 MP
PP
0 sg
-13 0 0 313 13 0 0 -313 5545 2158 5 MP stroke
c8
0 440 13 0 0 -440 5558 2158 4 MP
PP
0 sg
-13 0 0 440 13 0 0 -440 5558 2158 5 MP stroke
c8
0 696 13 0 0 -696 5571 2158 4 MP
PP
0 sg
-13 0 0 696 13 0 0 -696 5571 2158 5 MP stroke
c8
0 988 14 0 0 -988 5584 2158 4 MP
PP
0 sg
-14 0 0 988 14 0 0 -988 5584 2158 5 MP stroke
c8
0 965 13 0 0 -965 5598 2158 4 MP
PP
0 sg
-13 0 0 965 13 0 0 -965 5598 2158 5 MP stroke
c8
0 1251 13 0 0 -1251 5611 2158 4 MP
PP
0 sg
-13 0 0 1251 13 0 0 -1251 5611 2158 5 MP stroke
c8
0 1445 13 0 0 -1445 5624 2158 4 MP
PP
0 sg
-13 0 0 1445 13 0 0 -1445 5624 2158 5 MP stroke
c8
0 1436 13 0 0 -1436 5637 2158 4 MP
PP
0 sg
-13 0 0 1436 13 0 0 -1436 5637 2158 5 MP stroke
c8
0 1501 13 0 0 -1501 5650 2158 4 MP
PP
0 sg
-13 0 0 1501 13 0 0 -1501 5650 2158 5 MP stroke
c8
0 1209 13 0 0 -1209 5663 2158 4 MP
PP
0 sg
-13 0 0 1209 13 0 0 -1209 5663 2158 5 MP stroke
c8
0 1015 13 0 0 -1015 5676 2158 4 MP
PP
0 sg
-13 0 0 1015 13 0 0 -1015 5676 2158 5 MP stroke
c8
0 826 13 0 0 -826 5689 2158 4 MP
PP
0 sg
-13 0 0 826 13 0 0 -826 5689 2158 5 MP stroke
c8
0 687 13 0 0 -687 5702 2158 4 MP
PP
0 sg
-13 0 0 687 13 0 0 -687 5702 2158 5 MP stroke
c8
0 540 13 0 0 -540 5715 2158 4 MP
PP
0 sg
-13 0 0 540 13 0 0 -540 5715 2158 5 MP stroke
c8
0 328 13 0 0 -328 5728 2158 4 MP
PP
0 sg
-13 0 0 328 13 0 0 -328 5728 2158 5 MP stroke
c8
0 195 13 0 0 -195 5741 2158 4 MP
PP
0 sg
-13 0 0 195 13 0 0 -195 5741 2158 5 MP stroke
c8
0 133 13 0 0 -133 5754 2158 4 MP
PP
0 sg
-13 0 0 133 13 0 0 -133 5754 2158 5 MP stroke
c8
0 74 13 0 0 -74 5767 2158 4 MP
PP
0 sg
-13 0 0 74 13 0 0 -74 5767 2158 5 MP stroke
c8
0 95 13 0 0 -95 5780 2158 4 MP
PP
0 sg
-13 0 0 95 13 0 0 -95 5780 2158 5 MP stroke
c8
0 21 13 0 0 -21 5793 2158 4 MP
PP
0 sg
-13 0 0 21 13 0 0 -21 5793 2158 5 MP stroke
c8
0 45 13 0 0 -45 5806 2158 4 MP
PP
0 sg
-13 0 0 45 13 0 0 -45 5806 2158 5 MP stroke
c8
0 3 13 0 0 -3 5819 2158 4 MP
PP
0 sg
-13 0 0 3 13 0 0 -3 5819 2158 5 MP stroke
c8
0 12 13 0 0 -12 5832 2158 4 MP
PP
0 sg
-13 0 0 12 13 0 0 -12 5832 2158 5 MP stroke
c8
0 3 13 0 0 -3 5845 2158 4 MP
PP
0 sg
-13 0 0 3 13 0 0 -3 5845 2158 5 MP stroke
gr

%%IncludeResource: font Symbol
/Symbol /ISOLatin1Encoding 120 FMSR

5487 2408 mt 
(a) s
%%IncludeResource: font Helvetica
/Helvetica /ISOLatin1Encoding 96 FMSR

5562 2468 mt 
(1) s
%%IncludeResource: font Helvetica
/Helvetica /ISOLatin1Encoding 120 FMSR

4572 1537 mt  -90 rotate
(frequency) s
90 rotate
1 sg
0 1769 1327 0 0 -1769 1006 4615 4 MP
PP
-1327 0 0 1769 1327 0 0 -1769 1006 4615 5 MP stroke
4 w
DO
SO
6 w
0 sg
1006 4615 mt 2333 4615 L
1006 2846 mt 2333 2846 L
1006 4615 mt 1006 2846 L
2333 4615 mt 2333 2846 L
1006 4615 mt 2333 4615 L
1006 4615 mt 1006 2846 L
1006 4615 mt 1006 4597 L
1006 2846 mt 1006 2863 L
 923 4760 mt 
(0.2) s
1670 4615 mt 1670 4597 L
1670 2846 mt 1670 2863 L
1587 4760 mt 
(0.3) s
2333 4615 mt 2333 4597 L
2333 2846 mt 2333 2863 L
2250 4760 mt 
(0.4) s
1006 4615 mt 1024 4615 L
2333 4615 mt 2315 4615 L
 906 4659 mt 
(0) s
1006 4172 mt 1024 4172 L
2333 4172 mt 2315 4172 L
 772 4216 mt 
(200) s
1006 3730 mt 1024 3730 L
2333 3730 mt 2315 3730 L
 772 3774 mt 
(400) s
1006 3288 mt 1024 3288 L
2333 3288 mt 2315 3288 L
 772 3332 mt 
(600) s
1006 2846 mt 1024 2846 L
2333 2846 mt 2315 2846 L
 772 2890 mt 
(800) s
1006 4615 mt 2333 4615 L
1006 2846 mt 2333 2846 L
1006 4615 mt 1006 2846 L
2333 4615 mt 2333 2846 L
gs 1006 2846 1328 1770 MR c np
c8
0 7 18 0 0 -7 1626 4615 4 MP
PP
0 sg
-18 0 0 7 18 0 0 -7 1626 4615 5 MP stroke
c8
0 12 18 0 0 -12 1644 4615 4 MP
PP
0 sg
-18 0 0 12 18 0 0 -12 1644 4615 5 MP stroke
c8
0 43 18 0 0 -43 1662 4615 4 MP
PP
0 sg
-18 0 0 43 18 0 0 -43 1662 4615 5 MP stroke
c8
0 71 18 0 0 -71 1680 4615 4 MP
PP
0 sg
-18 0 0 71 18 0 0 -71 1680 4615 5 MP stroke
c8
0 140 17 0 0 -140 1698 4615 4 MP
PP
0 sg
-17 0 0 140 17 0 0 -140 1698 4615 5 MP stroke
c8
0 290 18 0 0 -290 1715 4615 4 MP
PP
0 sg
-18 0 0 290 18 0 0 -290 1715 4615 5 MP stroke
c8
0 536 18 0 0 -536 1733 4615 4 MP
PP
0 sg
-18 0 0 536 18 0 0 -536 1733 4615 5 MP stroke
c8
0 845 18 0 0 -845 1751 4615 4 MP
PP
0 sg
-18 0 0 845 18 0 0 -845 1751 4615 5 MP stroke
c8
0 929 18 0 0 -929 1769 4615 4 MP
PP
0 sg
-18 0 0 929 18 0 0 -929 1769 4615 5 MP stroke
c8
0 1239 18 0 0 -1239 1787 4615 4 MP
PP
0 sg
-18 0 0 1239 18 0 0 -1239 1787 4615 5 MP stroke
c8
0 1564 18 0 0 -1564 1805 4615 4 MP
PP
0 sg
-18 0 0 1564 18 0 0 -1564 1805 4615 5 MP stroke
c8
0 1396 17 0 0 -1396 1823 4615 4 MP
PP
0 sg
-17 0 0 1396 17 0 0 -1396 1823 4615 5 MP stroke
c8
0 1119 18 0 0 -1119 1840 4615 4 MP
PP
0 sg
-18 0 0 1119 18 0 0 -1119 1840 4615 5 MP stroke
c8
0 909 18 0 0 -909 1858 4615 4 MP
PP
0 sg
-18 0 0 909 18 0 0 -909 1858 4615 5 MP stroke
c8
0 772 18 0 0 -772 1876 4615 4 MP
PP
0 sg
-18 0 0 772 18 0 0 -772 1876 4615 5 MP stroke
c8
0 500 18 0 0 -500 1894 4615 4 MP
PP
0 sg
-18 0 0 500 18 0 0 -500 1894 4615 5 MP stroke
c8
0 337 18 0 0 -337 1912 4615 4 MP
PP
0 sg
-18 0 0 337 18 0 0 -337 1912 4615 5 MP stroke
c8
0 144 18 0 0 -144 1930 4615 4 MP
PP
0 sg
-18 0 0 144 18 0 0 -144 1930 4615 5 MP stroke
c8
0 115 17 0 0 -115 1948 4615 4 MP
PP
0 sg
-17 0 0 115 17 0 0 -115 1948 4615 5 MP stroke
c8
0 34 18 0 0 -34 1965 4615 4 MP
PP
0 sg
-18 0 0 34 18 0 0 -34 1965 4615 5 MP stroke
c8
0 34 18 0 0 -34 1983 4615 4 MP
PP
0 sg
-18 0 0 34 18 0 0 -34 1983 4615 5 MP stroke
c8
0 23 18 0 0 -23 2001 4615 4 MP
PP
0 sg
-18 0 0 23 18 0 0 -23 2001 4615 5 MP stroke
c8
0 7 18 0 0 -7 2019 4615 4 MP
PP
0 sg
-18 0 0 7 18 0 0 -7 2019 4615 5 MP stroke
c8
0 0 18 0 0 0 2037 4615 4 MP
PP
0 sg
-18 0 0 0 18 0 0 0 2037 4615 5 MP stroke
c8
0 0 17 0 0 0 2055 4615 4 MP
PP
0 sg
-17 0 0 0 17 0 0 0 2055 4615 5 MP stroke
c8
0 0 18 0 0 0 2072 4615 4 MP
PP
0 sg
-18 0 0 0 18 0 0 0 2072 4615 5 MP stroke
c8
0 0 18 0 0 0 2090 4615 4 MP
PP
0 sg
-18 0 0 0 18 0 0 0 2090 4615 5 MP stroke
c8
0 0 18 0 0 0 2108 4615 4 MP
PP
0 sg
-18 0 0 0 18 0 0 0 2108 4615 5 MP stroke
c8
0 0 18 0 0 0 2126 4615 4 MP
PP
0 sg
-18 0 0 0 18 0 0 0 2126 4615 5 MP stroke
c8
0 3 18 0 0 -3 2144 4615 4 MP
PP
0 sg
-18 0 0 3 18 0 0 -3 2144 4615 5 MP stroke
gr

%%IncludeResource: font Symbol
/Symbol /ISOLatin1Encoding 120 FMSR

1610 4865 mt 
(b) s
%%IncludeResource: font Helvetica
/Helvetica /ISOLatin1Encoding 96 FMSR

1675 4925 mt 
(2) s
%%IncludeResource: font Helvetica
/Helvetica /ISOLatin1Encoding 120 FMSR

 690 3994 mt  -90 rotate
(frequency) s
90 rotate
1 sg
0 1769 1326 0 0 -1769 2948 4615 4 MP
PP
-1326 0 0 1769 1326 0 0 -1769 2948 4615 5 MP stroke
4 w
DO
SO
6 w
0 sg
2948 4615 mt 4274 4615 L
2948 2846 mt 4274 2846 L
2948 4615 mt 2948 2846 L
4274 4615 mt 4274 2846 L
2948 4615 mt 4274 4615 L
2948 4615 mt 2948 2846 L
2948 4615 mt 2948 4597 L
2948 2846 mt 2948 2863 L
2915 4760 mt 
(0) s
3390 4615 mt 3390 4597 L
3390 2846 mt 3390 2863 L
3240 4760 mt 
(0.005) s
3832 4615 mt 3832 4597 L
3832 2846 mt 3832 2863 L
3716 4760 mt 
(0.01) s
4274 4615 mt 4274 4597 L
4274 2846 mt 4274 2863 L
4124 4760 mt 
(0.015) s
2948 4615 mt 2965 4615 L
4274 4615 mt 4256 4615 L
2847 4659 mt 
(0) s
2948 4320 mt 2965 4320 L
4274 4320 mt 4256 4320 L
2713 4364 mt 
(100) s
2948 4025 mt 2965 4025 L
4274 4025 mt 4256 4025 L
2713 4069 mt 
(200) s
2948 3730 mt 2965 3730 L
4274 3730 mt 4256 3730 L
2713 3774 mt 
(300) s
2948 3435 mt 2965 3435 L
4274 3435 mt 4256 3435 L
2713 3479 mt 
(400) s
2948 3140 mt 2965 3140 L
4274 3140 mt 4256 3140 L
2713 3184 mt 
(500) s
2948 2846 mt 2965 2846 L
4274 2846 mt 4256 2846 L
2713 2890 mt 
(600) s
2948 4615 mt 4274 4615 L
2948 2846 mt 4274 2846 L
2948 4615 mt 2948 2846 L
4274 4615 mt 4274 2846 L
gs 2948 2846 1327 1770 MR c np
c8
0 15 25 0 0 -15 3138 4615 4 MP
PP
0 sg
-25 0 0 15 25 0 0 -15 3138 4615 5 MP stroke
c8
0 121 26 0 0 -121 3163 4615 4 MP
PP
0 sg
-26 0 0 121 26 0 0 -121 3163 4615 5 MP stroke
c8
0 292 26 0 0 -292 3189 4615 4 MP
PP
0 sg
-26 0 0 292 26 0 0 -292 3189 4615 5 MP stroke
c8
0 685 25 0 0 -685 3215 4615 4 MP
PP
0 sg
-25 0 0 685 25 0 0 -685 3215 4615 5 MP stroke
c8
0 1074 26 0 0 -1074 3240 4615 4 MP
PP
0 sg
-26 0 0 1074 26 0 0 -1074 3240 4615 5 MP stroke
c8
0 1324 26 0 0 -1324 3266 4615 4 MP
PP
0 sg
-26 0 0 1324 26 0 0 -1324 3266 4615 5 MP stroke
c8
0 1489 26 0 0 -1489 3292 4615 4 MP
PP
0 sg
-26 0 0 1489 26 0 0 -1489 3292 4615 5 MP stroke
c8
0 1596 25 0 0 -1596 3318 4615 4 MP
PP
0 sg
-25 0 0 1596 25 0 0 -1596 3318 4615 5 MP stroke
c8
0 1425 26 0 0 -1425 3343 4615 4 MP
PP
0 sg
-26 0 0 1425 26 0 0 -1425 3343 4615 5 MP stroke
c8
0 1245 26 0 0 -1245 3369 4615 4 MP
PP
0 sg
-26 0 0 1245 26 0 0 -1245 3369 4615 5 MP stroke
c8
0 1012 25 0 0 -1012 3395 4615 4 MP
PP
0 sg
-25 0 0 1012 25 0 0 -1012 3395 4615 5 MP stroke
c8
0 1038 26 0 0 -1038 3420 4615 4 MP
PP
0 sg
-26 0 0 1038 26 0 0 -1038 3420 4615 5 MP stroke
c8
0 847 26 0 0 -847 3446 4615 4 MP
PP
0 sg
-26 0 0 847 26 0 0 -847 3446 4615 5 MP stroke
c8
0 626 25 0 0 -626 3472 4615 4 MP
PP
0 sg
-25 0 0 626 25 0 0 -626 3472 4615 5 MP stroke
c8
0 561 26 0 0 -561 3497 4615 4 MP
PP
0 sg
-26 0 0 561 26 0 0 -561 3497 4615 5 MP stroke
c8
0 340 26 0 0 -340 3523 4615 4 MP
PP
0 sg
-26 0 0 340 26 0 0 -340 3523 4615 5 MP stroke
c8
0 295 25 0 0 -295 3549 4615 4 MP
PP
0 sg
-25 0 0 295 25 0 0 -295 3549 4615 5 MP stroke
c8
0 251 26 0 0 -251 3574 4615 4 MP
PP
0 sg
-26 0 0 251 26 0 0 -251 3574 4615 5 MP stroke
c8
0 142 26 0 0 -142 3600 4615 4 MP
PP
0 sg
-26 0 0 142 26 0 0 -142 3600 4615 5 MP stroke
c8
0 127 25 0 0 -127 3626 4615 4 MP
PP
0 sg
-25 0 0 127 25 0 0 -127 3626 4615 5 MP stroke
c8
0 77 26 0 0 -77 3651 4615 4 MP
PP
0 sg
-26 0 0 77 26 0 0 -77 3651 4615 5 MP stroke
c8
0 83 26 0 0 -83 3677 4615 4 MP
PP
0 sg
-26 0 0 83 26 0 0 -83 3677 4615 5 MP stroke
c8
0 27 25 0 0 -27 3703 4615 4 MP
PP
0 sg
-25 0 0 27 25 0 0 -27 3703 4615 5 MP stroke
c8
0 18 26 0 0 -18 3728 4615 4 MP
PP
0 sg
-26 0 0 18 26 0 0 -18 3728 4615 5 MP stroke
c8
0 9 26 0 0 -9 3754 4615 4 MP
PP
0 sg
-26 0 0 9 26 0 0 -9 3754 4615 5 MP stroke
c8
0 12 26 0 0 -12 3780 4615 4 MP
PP
0 sg
-26 0 0 12 26 0 0 -12 3780 4615 5 MP stroke
c8
0 15 25 0 0 -15 3806 4615 4 MP
PP
0 sg
-25 0 0 15 25 0 0 -15 3806 4615 5 MP stroke
c8
0 0 26 0 0 0 3831 4615 4 MP
PP
0 sg
-26 0 0 0 26 0 0 0 3831 4615 5 MP stroke
c8
0 6 26 0 0 -6 3857 4615 4 MP
PP
0 sg
-26 0 0 6 26 0 0 -6 3857 4615 5 MP stroke
c8
0 3 25 0 0 -3 3883 4615 4 MP
PP
0 sg
-25 0 0 3 25 0 0 -3 3883 4615 5 MP stroke
gr

%%IncludeResource: font Symbol
/Symbol /ISOLatin1Encoding 120 FMSR

3547 4892 mt 
(s) s
%%IncludeResource: font Symbol
/Symbol /ISOLatin1Encoding 96 FMSR

3619 4952 mt 
(r) s
%%IncludeResource: font Helvetica
/Helvetica /ISOLatin1Encoding 96 FMSR

3619 4832 mt 
(2) s
%%IncludeResource: font Helvetica
/Helvetica /ISOLatin1Encoding 120 FMSR

2631 3994 mt  -90 rotate
(frequency) s
90 rotate
1 sg
0 1769 1326 0 0 -1769 4889 4615 4 MP
PP
-1326 0 0 1769 1326 0 0 -1769 4889 4615 5 MP stroke
4 w
DO
SO
6 w
0 sg
4889 4615 mt 6215 4615 L
4889 2846 mt 6215 2846 L
4889 4615 mt 4889 2846 L
6215 4615 mt 6215 2846 L
4889 4615 mt 6215 4615 L
4889 4615 mt 4889 2846 L
4889 4615 mt 4889 4597 L
4889 2846 mt 4889 2863 L
4856 4760 mt 
(0) s
5552 4615 mt 5552 4597 L
5552 2846 mt 5552 2863 L
5469 4760 mt 
(0.5) s
6215 4615 mt 6215 4597 L
6215 2846 mt 6215 2863 L
6182 4760 mt 
(1) s
5898 4962 mt 
(x 10) s
%%IncludeResource: font Helvetica
/Helvetica /ISOLatin1Encoding 80 FMSR

6124 4888 mt 
(-3) s
4889 4615 mt 4906 4615 L
6215 4615 mt 6197 4615 L
%%IncludeResource: font Helvetica
/Helvetica /ISOLatin1Encoding 120 FMSR

4788 4659 mt 
(0) s
4889 4261 mt 4906 4261 L
6215 4261 mt 6197 4261 L
4654 4305 mt 
(200) s
4889 3907 mt 4906 3907 L
6215 3907 mt 6197 3907 L
4654 3951 mt 
(400) s
4889 3553 mt 4906 3553 L
6215 3553 mt 6197 3553 L
4654 3597 mt 
(600) s
4889 3199 mt 4906 3199 L
6215 3199 mt 6197 3199 L
4654 3243 mt 
(800) s
4889 2846 mt 4906 2846 L
6215 2846 mt 6197 2846 L
4588 2890 mt 
(1000) s
4889 4615 mt 6215 4615 L
4889 2846 mt 6215 2846 L
4889 4615 mt 4889 2846 L
6215 4615 mt 6215 2846 L
gs 4889 2846 1327 1770 MR c np
c8
0 13 23 0 0 -13 4997 4615 4 MP
PP
0 sg
-23 0 0 13 23 0 0 -13 4997 4615 5 MP stroke
c8
0 117 23 0 0 -117 5020 4615 4 MP
PP
0 sg
-23 0 0 117 23 0 0 -117 5020 4615 5 MP stroke
c8
0 384 23 0 0 -384 5043 4615 4 MP
PP
0 sg
-23 0 0 384 23 0 0 -384 5043 4615 5 MP stroke
c8
0 742 23 0 0 -742 5066 4615 4 MP
PP
0 sg
-23 0 0 742 23 0 0 -742 5066 4615 5 MP stroke
c8
0 1050 24 0 0 -1050 5089 4615 4 MP
PP
0 sg
-24 0 0 1050 24 0 0 -1050 5089 4615 5 MP stroke
c8
0 1460 23 0 0 -1460 5113 4615 4 MP
PP
0 sg
-23 0 0 1460 23 0 0 -1460 5113 4615 5 MP stroke
c8
0 1271 23 0 0 -1271 5136 4615 4 MP
PP
0 sg
-23 0 0 1271 23 0 0 -1271 5136 4615 5 MP stroke
c8
0 1058 23 0 0 -1058 5159 4615 4 MP
PP
0 sg
-23 0 0 1058 23 0 0 -1058 5159 4615 5 MP stroke
c8
0 782 23 0 0 -782 5182 4615 4 MP
PP
0 sg
-23 0 0 782 23 0 0 -782 5182 4615 5 MP stroke
c8
0 648 24 0 0 -648 5205 4615 4 MP
PP
0 sg
-24 0 0 648 24 0 0 -648 5205 4615 5 MP stroke
c8
0 390 23 0 0 -390 5229 4615 4 MP
PP
0 sg
-23 0 0 390 23 0 0 -390 5229 4615 5 MP stroke
c8
0 276 23 0 0 -276 5252 4615 4 MP
PP
0 sg
-23 0 0 276 23 0 0 -276 5252 4615 5 MP stroke
c8
0 197 23 0 0 -197 5275 4615 4 MP
PP
0 sg
-23 0 0 197 23 0 0 -197 5275 4615 5 MP stroke
c8
0 142 23 0 0 -142 5298 4615 4 MP
PP
0 sg
-23 0 0 142 23 0 0 -142 5298 4615 5 MP stroke
c8
0 114 23 0 0 -114 5321 4615 4 MP
PP
0 sg
-23 0 0 114 23 0 0 -114 5321 4615 5 MP stroke
c8
0 57 24 0 0 -57 5344 4615 4 MP
PP
0 sg
-24 0 0 57 24 0 0 -57 5344 4615 5 MP stroke
c8
0 66 23 0 0 -66 5368 4615 4 MP
PP
0 sg
-23 0 0 66 23 0 0 -66 5368 4615 5 MP stroke
c8
0 13 23 0 0 -13 5391 4615 4 MP
PP
0 sg
-23 0 0 13 23 0 0 -13 5391 4615 5 MP stroke
c8
0 22 23 0 0 -22 5414 4615 4 MP
PP
0 sg
-23 0 0 22 23 0 0 -22 5414 4615 5 MP stroke
c8
0 22 23 0 0 -22 5437 4615 4 MP
PP
0 sg
-23 0 0 22 23 0 0 -22 5437 4615 5 MP stroke
c8
0 6 23 0 0 -6 5460 4615 4 MP
PP
0 sg
-23 0 0 6 23 0 0 -6 5460 4615 5 MP stroke
c8
0 6 24 0 0 -6 5483 4615 4 MP
PP
0 sg
-24 0 0 6 24 0 0 -6 5483 4615 5 MP stroke
c8
0 4 23 0 0 -4 5507 4615 4 MP
PP
0 sg
-23 0 0 4 23 0 0 -4 5507 4615 5 MP stroke
c8
0 0 23 0 0 0 5530 4615 4 MP
PP
0 sg
-23 0 0 0 23 0 0 0 5530 4615 5 MP stroke
c8
0 0 23 0 0 0 5553 4615 4 MP
PP
0 sg
-23 0 0 0 23 0 0 0 5553 4615 5 MP stroke
c8
0 2 23 0 0 -2 5576 4615 4 MP
PP
0 sg
-23 0 0 2 23 0 0 -2 5576 4615 5 MP stroke
c8
0 2 24 0 0 -2 5599 4615 4 MP
PP
0 sg
-24 0 0 2 24 0 0 -2 5599 4615 5 MP stroke
c8
0 8 23 0 0 -8 5623 4615 4 MP
PP
0 sg
-23 0 0 8 23 0 0 -8 5623 4615 5 MP stroke
c8
0 6 23 0 0 -6 5646 4615 4 MP
PP
0 sg
-23 0 0 6 23 0 0 -6 5646 4615 5 MP stroke
c8
0 2 23 0 0 -2 5669 4615 4 MP
PP
0 sg
-23 0 0 2 23 0 0 -2 5669 4615 5 MP stroke
gr

%%IncludeResource: font Symbol
/Symbol /ISOLatin1Encoding 120 FMSR

5488 4885 mt 
(s) s
%%IncludeResource: font Helvetica
/Helvetica /ISOLatin1Encoding 96 FMSR

5560 4945 mt 
(n) s
5560 4825 mt 
(2) s
%%IncludeResource: font Helvetica
/Helvetica /ISOLatin1Encoding 120 FMSR

4506 3994 mt  -90 rotate
(frequency) s
90 rotate

end %%Color Dict

eplot
%%EndObject

epage
end

showpage

%%Trailer
%%EOF
