%!PS-Adobe-2.0 EPSF-1.2
%%Creator: MATLAB, The MathWorks, Inc. Version 8.1.0.604 (R2013a). Operating System: Linux 3.13.0-40-generic #69-Ubuntu SMP Thu Nov 13 17:53:56 UTC 2014 x86_64.
%%Title: truth_figures/observationpoints.eps
%%CreationDate: 12/12/2014  03:56:28
%%DocumentNeededFonts: Helvetica
%%DocumentProcessColors: Cyan Magenta Yellow Black
%%Pages: 1
%%BoundingBox:    58   199   548   602
%%EndComments

%%BeginProlog
% MathWorks dictionary
/MathWorks 160 dict begin
% definition operators
/bdef {bind def} bind def
/ldef {load def} bind def
/xdef {exch def} bdef
/xstore {exch store} bdef
% operator abbreviations
/c  /clip ldef
/cc /concat ldef
/cp /closepath ldef
/gr /grestore ldef
/gs /gsave ldef
/mt /moveto ldef
/np /newpath ldef
/cm /currentmatrix ldef
/sm /setmatrix ldef
/rm /rmoveto ldef
/rl /rlineto ldef
/s {show newpath} bdef
/sc {setcmykcolor} bdef
/sr /setrgbcolor ldef
/sg /setgray ldef
/w /setlinewidth ldef
/j /setlinejoin ldef
/cap /setlinecap ldef
/rc {rectclip} bdef
/rf {rectfill} bdef
% page state control
/pgsv () def
/bpage {/pgsv save def} bdef
/epage {pgsv restore} bdef
/bplot /gsave ldef
/eplot {stroke grestore} bdef
% orientation switch
/portraitMode 0 def /landscapeMode 1 def /rotateMode 2 def
% coordinate system mappings
/dpi2point 0 def
% font control
/FontSize 0 def
/FMS {/FontSize xstore findfont [FontSize 0 0 FontSize neg 0 0]
  makefont setfont} bdef
/reencode {exch dup where {pop load} {pop StandardEncoding} ifelse
  exch dup 3 1 roll findfont dup length dict begin
  { 1 index /FID ne {def}{pop pop} ifelse } forall
  /Encoding exch def currentdict end definefont pop} bdef
/isroman {findfont /CharStrings get /Agrave known} bdef
/FMSR {3 1 roll 1 index dup isroman {reencode} {pop pop} ifelse
  exch FMS} bdef
/csm {1 dpi2point div -1 dpi2point div scale neg translate
 dup landscapeMode eq {pop -90 rotate}
  {rotateMode eq {90 rotate} if} ifelse} bdef
% line types: solid, dotted, dashed, dotdash
/SO { [] 0 setdash } bdef
/DO { [.5 dpi2point mul 4 dpi2point mul] 0 setdash } bdef
/DA { [6 dpi2point mul] 0 setdash } bdef
/DD { [.5 dpi2point mul 4 dpi2point mul 6 dpi2point mul 4
  dpi2point mul] 0 setdash } bdef
% macros for lines and objects
/L {lineto stroke} bdef
/MP {3 1 roll moveto 1 sub {rlineto} repeat} bdef
/AP {{rlineto} repeat} bdef
/PDlw -1 def
/W {/PDlw currentlinewidth def setlinewidth} def
/PP {closepath eofill} bdef
/DP {closepath stroke} bdef
/MR {4 -2 roll moveto dup  0 exch rlineto exch 0 rlineto
  neg 0 exch rlineto closepath} bdef
/FR {MR stroke} bdef
/PR {MR fill} bdef
/L1i {{currentfile picstr readhexstring pop} image} bdef
/tMatrix matrix def
/MakeOval {newpath tMatrix currentmatrix pop translate scale
0 0 1 0 360 arc tMatrix setmatrix} bdef
/FO {MakeOval stroke} bdef
/PO {MakeOval fill} bdef
/PD {currentlinewidth 2 div 0 360 arc fill
   PDlw -1 eq not {PDlw w /PDlw -1 def} if} def
/FA {newpath tMatrix currentmatrix pop translate scale
  0 0 1 5 -2 roll arc tMatrix setmatrix stroke} bdef
/PA {newpath tMatrix currentmatrix pop	translate 0 0 moveto scale
  0 0 1 5 -2 roll arc closepath tMatrix setmatrix fill} bdef
/FAn {newpath tMatrix currentmatrix pop translate scale
  0 0 1 5 -2 roll arcn tMatrix setmatrix stroke} bdef
/PAn {newpath tMatrix currentmatrix pop translate 0 0 moveto scale
  0 0 1 5 -2 roll arcn closepath tMatrix setmatrix fill} bdef
/vradius 0 def /hradius 0 def /lry 0 def
/lrx 0 def /uly 0 def /ulx 0 def /rad 0 def
/MRR {/vradius xdef /hradius xdef /lry xdef /lrx xdef /uly xdef
  /ulx xdef newpath tMatrix currentmatrix pop ulx hradius add uly
  vradius add translate hradius vradius scale 0 0 1 180 270 arc 
  tMatrix setmatrix lrx hradius sub uly vradius add translate
  hradius vradius scale 0 0 1 270 360 arc tMatrix setmatrix
  lrx hradius sub lry vradius sub translate hradius vradius scale
  0 0 1 0 90 arc tMatrix setmatrix ulx hradius add lry vradius sub
  translate hradius vradius scale 0 0 1 90 180 arc tMatrix setmatrix
  closepath} bdef
/FRR {MRR stroke } bdef
/PRR {MRR fill } bdef
/MlrRR {/lry xdef /lrx xdef /uly xdef /ulx xdef /rad lry uly sub 2 div def
  newpath tMatrix currentmatrix pop ulx rad add uly rad add translate
  rad rad scale 0 0 1 90 270 arc tMatrix setmatrix lrx rad sub lry rad
  sub translate rad rad scale 0 0 1 270 90 arc tMatrix setmatrix
  closepath} bdef
/FlrRR {MlrRR stroke } bdef
/PlrRR {MlrRR fill } bdef
/MtbRR {/lry xdef /lrx xdef /uly xdef /ulx xdef /rad lrx ulx sub 2 div def
  newpath tMatrix currentmatrix pop ulx rad add uly rad add translate
  rad rad scale 0 0 1 180 360 arc tMatrix setmatrix lrx rad sub lry rad
  sub translate rad rad scale 0 0 1 0 180 arc tMatrix setmatrix
  closepath} bdef
/FtbRR {MtbRR stroke } bdef
/PtbRR {MtbRR fill } bdef
/stri 6 array def /dtri 6 array def
/smat 6 array def /dmat 6 array def
/tmat1 6 array def /tmat2 6 array def /dif 3 array def
/asub {/ind2 exch def /ind1 exch def dup dup
  ind1 get exch ind2 get sub exch } bdef
/tri_to_matrix {
  2 0 asub 3 1 asub 4 0 asub 5 1 asub
  dup 0 get exch 1 get 7 -1 roll astore } bdef
/compute_transform {
  dmat dtri tri_to_matrix tmat1 invertmatrix 
  smat stri tri_to_matrix tmat2 concatmatrix } bdef
/ds {stri astore pop} bdef
/dt {dtri astore pop} bdef
/db {2 copy /cols xdef /rows xdef mul dup string
  currentfile exch readhexstring pop
  /bmap xdef pop pop} bdef
/it {gs np dtri aload pop moveto lineto lineto cp c
  cols rows 8 compute_transform 
  {bmap} image gr}bdef
/il {newpath moveto lineto stroke}bdef
currentdict end def
%%EndProlog

%%BeginSetup
MathWorks begin

0 cap

end
%%EndSetup

%%Page: 1 1
%%BeginPageSetup
%%PageBoundingBox:    58   199   548   602
MathWorks begin
bpage
%%EndPageSetup

%%BeginObject: obj1
bplot

/dpi2point 12 def
portraitMode 0216 7344 csm

  480   110  5891  4845 MR c np
85 dict begin %Colortable dictionary
/c0 { 0.000000 0.000000 0.000000 sr} bdef
/c1 { 1.000000 1.000000 1.000000 sr} bdef
/c2 { 0.900000 0.000000 0.000000 sr} bdef
/c3 { 0.000000 0.820000 0.000000 sr} bdef
/c4 { 0.000000 0.000000 0.800000 sr} bdef
/c5 { 0.910000 0.820000 0.320000 sr} bdef
/c6 { 1.000000 0.260000 0.820000 sr} bdef
/c7 { 0.000000 0.820000 0.820000 sr} bdef
c0
1 j
1 sg
   0    0 6913 5186 PR
6 w
0 1769 2313 0 0 -1769 899 2158 4 MP
PP
-2313 0 0 1769 2313 0 0 -1769 899 2158 5 MP stroke
4 w
DO
SO
6 w
0 sg
 899 2158 mt 3212 2158 L
 899  389 mt 3212  389 L
 899 2158 mt  899  389 L
3212 2158 mt 3212  389 L
 899 2158 mt 3212 2158 L
 899 2158 mt  899  389 L
 899 2158 mt  899 2134 L
 899  389 mt  899  412 L
%%IncludeResource: font Helvetica
/Helvetica /ISOLatin1Encoding 120 FMSR

 866 2303 mt 
(0) s
1361 2158 mt 1361 2134 L
1361  389 mt 1361  412 L
1328 2303 mt 
(5) s
1824 2158 mt 1824 2134 L
1824  389 mt 1824  412 L
1758 2303 mt 
(10) s
2286 2158 mt 2286 2134 L
2286  389 mt 2286  412 L
2220 2303 mt 
(15) s
2749 2158 mt 2749 2134 L
2749  389 mt 2749  412 L
2683 2303 mt 
(20) s
3212 2158 mt 3212 2134 L
3212  389 mt 3212  412 L
3146 2303 mt 
(25) s
 899 2158 mt  922 2158 L
3212 2158 mt 3188 2158 L
 798 2202 mt 
(0) s
 899 1804 mt  922 1804 L
3212 1804 mt 3188 1804 L
 698 1848 mt 
(0.2) s
 899 1450 mt  922 1450 L
3212 1450 mt 3188 1450 L
 698 1494 mt 
(0.4) s
 899 1096 mt  922 1096 L
3212 1096 mt 3188 1096 L
 698 1140 mt 
(0.6) s
 899  742 mt  922  742 L
3212  742 mt 3188  742 L
 698  786 mt 
(0.8) s
 899  389 mt  922  389 L
3212  389 mt 3188  389 L
 798  433 mt 
(1) s
 899 2158 mt 3212 2158 L
 899  389 mt 3212  389 L
 899 2158 mt  899  389 L
3212 2158 mt 3212  389 L
gs 899 389 2314 1770 MR c np
DA
36 w
36 0 47 0 46 0 47 0 46 0 47 0 46 0 47 0 
46 0 47 0 46 0 47 0 46 0 47 0 46 0 47 0 
46 0 47 0 46 0 47 1 46 1 47 1 46 2 47 4 
46 6 47 10 46 16 47 24 46 34 47 48 46 62 47 77 
46 87 47 94 46 93 47 89 46 79 47 70 46 62 47 60 
46 62 47 68 46 74 47 80 46 81 47 76 46 67 47 52 
46 32 46 256 899 389 51 MP stroke
SO
6 w
gr

gs 778 268 2335 2011 MR c np
0 j
0 -94 -94 0 0 94 94 0 852 342 5 MP
gs
PP
gr
DP
0 -94 -94 0 0 94 94 0 1084 825 5 MP
gs
PP
gr
DP
0 -94 -94 0 0 94 94 0 1316 1190 5 MP
gs
PP
gr
DP
0 -94 -94 0 0 94 94 0 1549 1550 5 MP
gs
PP
gr
DP
0 -94 -94 0 0 94 94 0 1781 1963 5 MP
gs
PP
gr
DP
0 -94 -94 0 0 94 94 0 2014 2095 5 MP
gs
PP
gr
DP
0 -94 -94 0 0 94 94 0 2246 2109 5 MP
gs
PP
gr
DP
0 -94 -94 0 0 94 94 0 2479 2110 5 MP
gs
PP
gr
DP
0 -94 -94 0 0 94 94 0 2711 2110 5 MP
gs
PP
gr
DP
0 -94 -94 0 0 94 94 0 2944 2110 5 MP
gs
PP
gr
DP
gr

gs 899 389 2314 1770 MR c np
gr

1410 2446 mt 
(distance from the center) s
 616 1656 mt  -90 rotate
(hyphal density) s
90 rotate
1331  294 mt 
(\(a\) hyphal density at t = 0.5) s
 882 2201 mt 
( ) s
3196  431 mt 
( ) s
1 sg
0 334 1480 0 0 -334 1672 783 4 MP
PP
-1480 0 0 334 1480 0 0 -334 1672 783 5 MP stroke
4 w
DO
SO
6 w
0 sg
1672  783 mt 3152  783 L
1672  449 mt 3152  449 L
1672  783 mt 1672  449 L
3152  783 mt 3152  449 L
1672  783 mt 3152  783 L
1672  783 mt 1672  449 L
1672  783 mt 3152  783 L
1672  449 mt 3152  449 L
1672  783 mt 1672  449 L
3152  783 mt 3152  449 L
2116  585 mt 
( hyphal density) s
gs 1672 449 1481 335 MR c np
DA
36 w
341 0 1740 542 2 MP stroke
SO
gr

36 w
2116  732 mt 
(observation points) s
gs 1672 449 1481 335 MR c np
6 w
gr

6 w
gs 1790 568 243 243 MR c np
0 j
0 -94 -94 0 0 94 94 0 1864 642 5 MP
gs
PP
gr
DP
gr

gs 1672 449 1481 335 MR c np
gr

1 sg
0 1769 2313 0 0 -1769 3942 2158 4 MP
PP
-2313 0 0 1769 2313 0 0 -1769 3942 2158 5 MP stroke
4 w
DO
SO
6 w
0 sg
3942 2158 mt 6255 2158 L
3942  389 mt 6255  389 L
3942 2158 mt 3942  389 L
6255 2158 mt 6255  389 L
3942 2158 mt 6255 2158 L
3942 2158 mt 3942  389 L
3942 2158 mt 3942 2134 L
3942  389 mt 3942  412 L
3909 2303 mt 
(0) s
4404 2158 mt 4404 2134 L
4404  389 mt 4404  412 L
4371 2303 mt 
(5) s
4867 2158 mt 4867 2134 L
4867  389 mt 4867  412 L
4801 2303 mt 
(10) s
5329 2158 mt 5329 2134 L
5329  389 mt 5329  412 L
5263 2303 mt 
(15) s
5792 2158 mt 5792 2134 L
5792  389 mt 5792  412 L
5726 2303 mt 
(20) s
6255 2158 mt 6255 2134 L
6255  389 mt 6255  412 L
6189 2303 mt 
(25) s
3942 2158 mt 3965 2158 L
6255 2158 mt 6231 2158 L
3841 2202 mt 
(0) s
3942 1905 mt 3965 1905 L
6255 1905 mt 6231 1905 L
3741 1949 mt 
(0.1) s
3942 1652 mt 3965 1652 L
6255 1652 mt 6231 1652 L
3741 1696 mt 
(0.2) s
3942 1399 mt 3965 1399 L
6255 1399 mt 6231 1399 L
3741 1443 mt 
(0.3) s
3942 1147 mt 3965 1147 L
6255 1147 mt 6231 1147 L
3741 1191 mt 
(0.4) s
3942  894 mt 3965  894 L
6255  894 mt 6231  894 L
3741  938 mt 
(0.5) s
3942  641 mt 3965  641 L
6255  641 mt 6231  641 L
3741  685 mt 
(0.6) s
3942  389 mt 3965  389 L
6255  389 mt 6231  389 L
3741  433 mt 
(0.7) s
3942 2158 mt 6255 2158 L
3942  389 mt 6255  389 L
3942 2158 mt 3942  389 L
6255 2158 mt 6255  389 L
gs 3942 389 2314 1770 MR c np
DA
36 w
36 0 47 1 46 0 47 0 46 0 47 0 46 0 47 0 
46 0 47 0 46 0 47 0 46 0 47 0 46 0 47 0 
46 0 47 0 46 0 47 0 46 0 47 2 46 3 47 6 
46 13 47 24 46 40 47 65 46 95 47 131 46 163 47 187 
46 191 47 170 46 122 47 53 46 -26 47 -100 46 -156 47 -188 
46 -191 47 -175 46 -143 47 -107 46 -74 47 -48 46 -28 47 -15 
46 -10 46 -5 3942 2158 51 MP stroke
SO
6 w
gr

gs 3821 824 2335 1455 MR c np
0 j
0 -94 -94 0 0 94 94 0 3895 2110 5 MP
gs
PP
gr
DP
0 -94 -94 0 0 94 94 0 4127 2005 5 MP
gs
PP
gr
DP
0 -94 -94 0 0 94 94 0 4359 1315 5 MP
gs
PP
gr
DP
0 -94 -94 0 0 94 94 0 4592 898 5 MP
gs
PP
gr
DP
0 -94 -94 0 0 94 94 0 4824 1731 5 MP
gs
PP
gr
DP
0 -94 -94 0 0 94 94 0 5057 2086 5 MP
gs
PP
gr
DP
0 -94 -94 0 0 94 94 0 5289 2110 5 MP
gs
PP
gr
DP
0 -94 -94 0 0 94 94 0 5522 2110 5 MP
gs
PP
gr
DP
0 -94 -94 0 0 94 94 0 5754 2110 5 MP
gs
PP
gr
DP
0 -94 -94 0 0 94 94 0 5987 2110 5 MP
gs
PP
gr
DP
gr

gs 3942 389 2314 1770 MR c np
gr

4453 2446 mt 
(distance from the center) s
3659 1544 mt  -90 rotate
(tip density) s
90 rotate
4486  294 mt 
(\(b\) tip density at t = 0.5) s
3925 2201 mt 
( ) s
6239  431 mt 
( ) s
1 sg
0 334 1480 0 0 -334 4715 783 4 MP
PP
-1480 0 0 334 1480 0 0 -334 4715 783 5 MP stroke
4 w
DO
SO
6 w
0 sg
4715  783 mt 6195  783 L
4715  449 mt 6195  449 L
4715  783 mt 4715  449 L
6195  783 mt 6195  449 L
4715  783 mt 6195  783 L
4715  783 mt 4715  449 L
4715  783 mt 6195  783 L
4715  449 mt 6195  449 L
4715  783 mt 4715  449 L
6195  783 mt 6195  449 L
5159  585 mt 
(tip density) s
gs 4715 449 1481 335 MR c np
DA
36 w
341 0 4783 542 2 MP stroke
SO
gr

36 w
5159  732 mt 
(observation points) s
gs 4715 449 1481 335 MR c np
6 w
gr

6 w
gs 4833 568 243 243 MR c np
0 j
0 -94 -94 0 0 94 94 0 4907 642 5 MP
gs
PP
gr
DP
gr

gs 4715 449 1481 335 MR c np
gr

1 sg
0 1769 2313 0 0 -1769 899 4615 4 MP
PP
-2313 0 0 1769 2313 0 0 -1769 899 4615 5 MP stroke
4 w
DO
SO
6 w
0 sg
 899 4615 mt 3212 4615 L
 899 2846 mt 3212 2846 L
 899 4615 mt  899 2846 L
3212 4615 mt 3212 2846 L
 899 4615 mt 3212 4615 L
 899 4615 mt  899 2846 L
 899 4615 mt  899 4591 L
 899 2846 mt  899 2869 L
 866 4760 mt 
(0) s
1361 4615 mt 1361 4591 L
1361 2846 mt 1361 2869 L
1328 4760 mt 
(5) s
1824 4615 mt 1824 4591 L
1824 2846 mt 1824 2869 L
1758 4760 mt 
(10) s
2286 4615 mt 2286 4591 L
2286 2846 mt 2286 2869 L
2220 4760 mt 
(15) s
2749 4615 mt 2749 4591 L
2749 2846 mt 2749 2869 L
2683 4760 mt 
(20) s
3212 4615 mt 3212 4591 L
3212 2846 mt 3212 2869 L
3146 4760 mt 
(25) s
 899 4615 mt  922 4615 L
3212 4615 mt 3188 4615 L
 798 4659 mt 
(0) s
 899 4261 mt  922 4261 L
3212 4261 mt 3188 4261 L
 698 4305 mt 
(0.2) s
 899 3907 mt  922 3907 L
3212 3907 mt 3188 3907 L
 698 3951 mt 
(0.4) s
 899 3553 mt  922 3553 L
3212 3553 mt 3188 3553 L
 698 3597 mt 
(0.6) s
 899 3199 mt  922 3199 L
3212 3199 mt 3188 3199 L
 698 3243 mt 
(0.8) s
 899 2846 mt  922 2846 L
3212 2846 mt 3188 2846 L
 798 2890 mt 
(1) s
 899 4615 mt 3212 4615 L
 899 2846 mt 3212 2846 L
 899 4615 mt  899 2846 L
3212 4615 mt 3212 2846 L
gs 899 2846 2314 1770 MR c np
DA
36 w
36 0 47 0 46 0 47 0 46 0 47 0 46 0 47 0 
46 0 47 0 46 0 47 0 46 0 47 0 46 2 47 2 
46 5 47 9 46 17 47 30 46 47 47 71 46 99 47 128 
46 153 47 167 46 166 47 152 46 126 47 91 46 55 47 14 
46 -25 47 -63 46 -99 47 -126 46 -143 47 -144 46 -130 47 -107 
46 -77 47 -48 46 -24 47 -6 46 5 47 12 46 13 47 11 
46 8 46 1377 899 2846 51 MP stroke
SO
6 w
gr

gs 778 2725 2335 2011 MR c np
0 j
0 -94 -94 0 0 94 94 0 852 2799 5 MP
gs
PP
gr
DP
0 -94 -94 0 0 94 94 0 1084 4220 5 MP
gs
PP
gr
DP
0 -94 -94 0 0 94 94 0 1316 4070 5 MP
gs
PP
gr
DP
0 -94 -94 0 0 94 94 0 1549 3420 5 MP
gs
PP
gr
DP
0 -94 -94 0 0 94 94 0 1781 3302 5 MP
gs
PP
gr
DP
0 -94 -94 0 0 94 94 0 2014 4004 5 MP
gs
PP
gr
DP
0 -94 -94 0 0 94 94 0 2246 4502 5 MP
gs
PP
gr
DP
0 -94 -94 0 0 94 94 0 2479 4565 5 MP
gs
PP
gr
DP
0 -94 -94 0 0 94 94 0 2711 4567 5 MP
gs
PP
gr
DP
0 -94 -94 0 0 94 94 0 2944 4567 5 MP
gs
PP
gr
DP
gr

gs 899 2846 2314 1770 MR c np
gr

1410 4903 mt 
(distance from the center) s
 616 4113 mt  -90 rotate
(hyphal density) s
90 rotate
1385 2751 mt 
(\(c\) hyphal density at t = 5) s
 882 4658 mt 
( ) s
3196 2888 mt 
( ) s
1 sg
0 334 1480 0 0 -334 1672 3240 4 MP
PP
-1480 0 0 334 1480 0 0 -334 1672 3240 5 MP stroke
4 w
DO
SO
6 w
0 sg
1672 3240 mt 3152 3240 L
1672 2906 mt 3152 2906 L
1672 3240 mt 1672 2906 L
3152 3240 mt 3152 2906 L
1672 3240 mt 3152 3240 L
1672 3240 mt 1672 2906 L
1672 3240 mt 3152 3240 L
1672 2906 mt 3152 2906 L
1672 3240 mt 1672 2906 L
3152 3240 mt 3152 2906 L
2116 3042 mt 
(hyphal density) s
gs 1672 2906 1481 335 MR c np
DA
36 w
341 0 1740 2999 2 MP stroke
SO
gr

36 w
2116 3189 mt 
(observation points) s
gs 1672 2906 1481 335 MR c np
6 w
gr

6 w
gs 1790 3025 243 243 MR c np
0 j
0 -94 -94 0 0 94 94 0 1864 3099 5 MP
gs
PP
gr
DP
gr

gs 1672 2906 1481 335 MR c np
gr

1 sg
0 1769 2313 0 0 -1769 3942 4615 4 MP
PP
-2313 0 0 1769 2313 0 0 -1769 3942 4615 5 MP stroke
4 w
DO
SO
6 w
0 sg
3942 4615 mt 6255 4615 L
3942 2846 mt 6255 2846 L
3942 4615 mt 3942 2846 L
6255 4615 mt 6255 2846 L
3942 4615 mt 6255 4615 L
3942 4615 mt 3942 2846 L
3942 4615 mt 3942 4591 L
3942 2846 mt 3942 2869 L
3909 4760 mt 
(0) s
4404 4615 mt 4404 4591 L
4404 2846 mt 4404 2869 L
4371 4760 mt 
(5) s
4867 4615 mt 4867 4591 L
4867 2846 mt 4867 2869 L
4801 4760 mt 
(10) s
5329 4615 mt 5329 4591 L
5329 2846 mt 5329 2869 L
5263 4760 mt 
(15) s
5792 4615 mt 5792 4591 L
5792 2846 mt 5792 2869 L
5726 4760 mt 
(20) s
6255 4615 mt 6255 4591 L
6255 2846 mt 6255 2869 L
6189 4760 mt 
(25) s
3942 4615 mt 3965 4615 L
6255 4615 mt 6231 4615 L
3671 4659 mt 
(-0.1) s
3942 4261 mt 3965 4261 L
6255 4261 mt 6231 4261 L
3841 4305 mt 
(0) s
3942 3907 mt 3965 3907 L
6255 3907 mt 6231 3907 L
3741 3951 mt 
(0.1) s
3942 3553 mt 3965 3553 L
6255 3553 mt 6231 3553 L
3741 3597 mt 
(0.2) s
3942 3199 mt 3965 3199 L
6255 3199 mt 6231 3199 L
3741 3243 mt 
(0.3) s
3942 2846 mt 3965 2846 L
6255 2846 mt 6231 2846 L
3741 2890 mt 
(0.4) s
3942 4615 mt 6255 4615 L
3942 2846 mt 6255 2846 L
3942 4615 mt 3942 2846 L
6255 4615 mt 6255 2846 L
gs 3942 2846 2314 1770 MR c np
DA
36 w
36 0 47 0 46 0 47 0 46 0 47 0 46 0 47 0 
46 0 47 0 46 1 47 0 46 1 47 2 46 5 47 10 
46 19 47 33 46 56 47 88 46 128 47 169 46 201 47 212 
46 191 47 137 46 65 47 -11 46 -72 47 -113 46 -135 47 -145 
46 -149 47 -146 46 -139 47 -125 46 -104 47 -78 46 -50 47 -29 
46 -14 47 -6 46 -2 47 -1 46 0 47 1 46 1 47 0 
46 -1 46 0 3942 4261 51 MP stroke
SO
6 w
gr

gs 3821 3018 2335 1365 MR c np
0 j
0 -94 -94 0 0 94 94 0 3895 4214 5 MP
gs
PP
gr
DP
0 -94 -94 0 0 94 94 0 4127 4214 5 MP
gs
PP
gr
DP
0 -94 -94 0 0 94 94 0 4359 4192 5 MP
gs
PP
gr
DP
0 -94 -94 0 0 94 94 0 4592 3806 5 MP
gs
PP
gr
DP
0 -94 -94 0 0 94 94 0 4824 3092 5 MP
gs
PP
gr
DP
0 -94 -94 0 0 94 94 0 5057 3098 5 MP
gs
PP
gr
DP
0 -94 -94 0 0 94 94 0 5289 3999 5 MP
gs
PP
gr
DP
0 -94 -94 0 0 94 94 0 5522 4205 5 MP
gs
PP
gr
DP
0 -94 -94 0 0 94 94 0 5754 4214 5 MP
gs
PP
gr
DP
0 -94 -94 0 0 94 94 0 5987 4214 5 MP
gs
PP
gr
DP
gr

gs 3942 2846 2314 1770 MR c np
gr

4453 4903 mt 
(distance from the center) s
3589 4001 mt  -90 rotate
(tip density) s
90 rotate
4536 2751 mt 
(\(d\) tip density at t = 5) s
3925 4658 mt 
( ) s
6239 2888 mt 
( ) s
1 sg
0 334 1480 0 0 -334 4715 3240 4 MP
PP
-1480 0 0 334 1480 0 0 -334 4715 3240 5 MP stroke
4 w
DO
SO
6 w
0 sg
4715 3240 mt 6195 3240 L
4715 2906 mt 6195 2906 L
4715 3240 mt 4715 2906 L
6195 3240 mt 6195 2906 L
4715 3240 mt 6195 3240 L
4715 3240 mt 4715 2906 L
4715 3240 mt 6195 3240 L
4715 2906 mt 6195 2906 L
4715 3240 mt 4715 2906 L
6195 3240 mt 6195 2906 L
5159 3042 mt 
(tip density) s
gs 4715 2906 1481 335 MR c np
DA
36 w
341 0 4783 2999 2 MP stroke
SO
gr

36 w
5159 3189 mt 
(observation points) s
gs 4715 2906 1481 335 MR c np
6 w
gr

6 w
gs 4833 3025 243 243 MR c np
0 j
0 -94 -94 0 0 94 94 0 4907 3099 5 MP
gs
PP
gr
DP
gr

gs 4715 2906 1481 335 MR c np
gr


end %%Color Dict

eplot
%%EndObject

epage
end

showpage

%%Trailer
%%EOF
