%!PS-Adobe-2.0 EPSF-1.2
%%Creator: MATLAB, The MathWorks, Inc. Version 8.1.0.604 (R2013a). Operating System: Linux 3.13.0-40-generic #69-Ubuntu SMP Thu Nov 13 17:53:56 UTC 2014 x86_64.
%%Title: /home/xiaolin/Documents/model_selection/model_selection_log03new/YH/data_figures/sampleHist.eps
%%CreationDate: 10/25/2015  07:07:35
%%DocumentNeededFonts: Helvetica
%%DocumentProcessColors: Cyan Magenta Yellow Black
%%Pages: 1
%%BoundingBox:    58   194   549   589
%%EndComments

%%BeginProlog
% MathWorks dictionary
/MathWorks 160 dict begin
% definition operators
/bdef {bind def} bind def
/ldef {load def} bind def
/xdef {exch def} bdef
/xstore {exch store} bdef
% operator abbreviations
/c  /clip ldef
/cc /concat ldef
/cp /closepath ldef
/gr /grestore ldef
/gs /gsave ldef
/mt /moveto ldef
/np /newpath ldef
/cm /currentmatrix ldef
/sm /setmatrix ldef
/rm /rmoveto ldef
/rl /rlineto ldef
/s {show newpath} bdef
/sc {setcmykcolor} bdef
/sr /setrgbcolor ldef
/sg /setgray ldef
/w /setlinewidth ldef
/j /setlinejoin ldef
/cap /setlinecap ldef
/rc {rectclip} bdef
/rf {rectfill} bdef
% page state control
/pgsv () def
/bpage {/pgsv save def} bdef
/epage {pgsv restore} bdef
/bplot /gsave ldef
/eplot {stroke grestore} bdef
% orientation switch
/portraitMode 0 def /landscapeMode 1 def /rotateMode 2 def
% coordinate system mappings
/dpi2point 0 def
% font control
/FontSize 0 def
/FMS {/FontSize xstore findfont [FontSize 0 0 FontSize neg 0 0]
  makefont setfont} bdef
/reencode {exch dup where {pop load} {pop StandardEncoding} ifelse
  exch dup 3 1 roll findfont dup length dict begin
  { 1 index /FID ne {def}{pop pop} ifelse } forall
  /Encoding exch def currentdict end definefont pop} bdef
/isroman {findfont /CharStrings get /Agrave known} bdef
/FMSR {3 1 roll 1 index dup isroman {reencode} {pop pop} ifelse
  exch FMS} bdef
/csm {1 dpi2point div -1 dpi2point div scale neg translate
 dup landscapeMode eq {pop -90 rotate}
  {rotateMode eq {90 rotate} if} ifelse} bdef
% line types: solid, dotted, dashed, dotdash
/SO { [] 0 setdash } bdef
/DO { [.5 dpi2point mul 4 dpi2point mul] 0 setdash } bdef
/DA { [6 dpi2point mul] 0 setdash } bdef
/DD { [.5 dpi2point mul 4 dpi2point mul 6 dpi2point mul 4
  dpi2point mul] 0 setdash } bdef
% macros for lines and objects
/L {lineto stroke} bdef
/MP {3 1 roll moveto 1 sub {rlineto} repeat} bdef
/AP {{rlineto} repeat} bdef
/PDlw -1 def
/W {/PDlw currentlinewidth def setlinewidth} def
/PP {closepath eofill} bdef
/DP {closepath stroke} bdef
/MR {4 -2 roll moveto dup  0 exch rlineto exch 0 rlineto
  neg 0 exch rlineto closepath} bdef
/FR {MR stroke} bdef
/PR {MR fill} bdef
/L1i {{currentfile picstr readhexstring pop} image} bdef
/tMatrix matrix def
/MakeOval {newpath tMatrix currentmatrix pop translate scale
0 0 1 0 360 arc tMatrix setmatrix} bdef
/FO {MakeOval stroke} bdef
/PO {MakeOval fill} bdef
/PD {currentlinewidth 2 div 0 360 arc fill
   PDlw -1 eq not {PDlw w /PDlw -1 def} if} def
/FA {newpath tMatrix currentmatrix pop translate scale
  0 0 1 5 -2 roll arc tMatrix setmatrix stroke} bdef
/PA {newpath tMatrix currentmatrix pop	translate 0 0 moveto scale
  0 0 1 5 -2 roll arc closepath tMatrix setmatrix fill} bdef
/FAn {newpath tMatrix currentmatrix pop translate scale
  0 0 1 5 -2 roll arcn tMatrix setmatrix stroke} bdef
/PAn {newpath tMatrix currentmatrix pop translate 0 0 moveto scale
  0 0 1 5 -2 roll arcn closepath tMatrix setmatrix fill} bdef
/vradius 0 def /hradius 0 def /lry 0 def
/lrx 0 def /uly 0 def /ulx 0 def /rad 0 def
/MRR {/vradius xdef /hradius xdef /lry xdef /lrx xdef /uly xdef
  /ulx xdef newpath tMatrix currentmatrix pop ulx hradius add uly
  vradius add translate hradius vradius scale 0 0 1 180 270 arc 
  tMatrix setmatrix lrx hradius sub uly vradius add translate
  hradius vradius scale 0 0 1 270 360 arc tMatrix setmatrix
  lrx hradius sub lry vradius sub translate hradius vradius scale
  0 0 1 0 90 arc tMatrix setmatrix ulx hradius add lry vradius sub
  translate hradius vradius scale 0 0 1 90 180 arc tMatrix setmatrix
  closepath} bdef
/FRR {MRR stroke } bdef
/PRR {MRR fill } bdef
/MlrRR {/lry xdef /lrx xdef /uly xdef /ulx xdef /rad lry uly sub 2 div def
  newpath tMatrix currentmatrix pop ulx rad add uly rad add translate
  rad rad scale 0 0 1 90 270 arc tMatrix setmatrix lrx rad sub lry rad
  sub translate rad rad scale 0 0 1 270 90 arc tMatrix setmatrix
  closepath} bdef
/FlrRR {MlrRR stroke } bdef
/PlrRR {MlrRR fill } bdef
/MtbRR {/lry xdef /lrx xdef /uly xdef /ulx xdef /rad lrx ulx sub 2 div def
  newpath tMatrix currentmatrix pop ulx rad add uly rad add translate
  rad rad scale 0 0 1 180 360 arc tMatrix setmatrix lrx rad sub lry rad
  sub translate rad rad scale 0 0 1 0 180 arc tMatrix setmatrix
  closepath} bdef
/FtbRR {MtbRR stroke } bdef
/PtbRR {MtbRR fill } bdef
/stri 6 array def /dtri 6 array def
/smat 6 array def /dmat 6 array def
/tmat1 6 array def /tmat2 6 array def /dif 3 array def
/asub {/ind2 exch def /ind1 exch def dup dup
  ind1 get exch ind2 get sub exch } bdef
/tri_to_matrix {
  2 0 asub 3 1 asub 4 0 asub 5 1 asub
  dup 0 get exch 1 get 7 -1 roll astore } bdef
/compute_transform {
  dmat dtri tri_to_matrix tmat1 invertmatrix 
  smat stri tri_to_matrix tmat2 concatmatrix } bdef
/ds {stri astore pop} bdef
/dt {dtri astore pop} bdef
/db {2 copy /cols xdef /rows xdef mul dup string
  currentfile exch readhexstring pop
  /bmap xdef pop pop} bdef
/it {gs np dtri aload pop moveto lineto lineto cp c
  cols rows 8 compute_transform 
  {bmap} image gr}bdef
/il {newpath moveto lineto stroke}bdef
currentdict end def
%%EndProlog

%%BeginSetup
MathWorks begin

0 cap

end
%%EndSetup

%%Page: 1 1
%%BeginPageSetup
%%PageBoundingBox:    58   194   549   589
MathWorks begin
bpage
%%EndPageSetup

%%BeginObject: obj1
bplot

/dpi2point 12 def
portraitMode 0216 7344 csm

  488   274  5894  4731 MR c np
85 dict begin %Colortable dictionary
/c0 { 0.000000 0.000000 0.000000 sr} bdef
/c1 { 1.000000 1.000000 1.000000 sr} bdef
/c2 { 0.900000 0.000000 0.000000 sr} bdef
/c3 { 0.000000 0.820000 0.000000 sr} bdef
/c4 { 0.000000 0.000000 0.800000 sr} bdef
/c5 { 0.910000 0.820000 0.320000 sr} bdef
/c6 { 1.000000 0.260000 0.820000 sr} bdef
/c7 { 0.000000 0.820000 0.820000 sr} bdef
c0
1 j
1 sg
   0    0 6913 5186 PR
6 w
0 1770 1393 0 0 -1770 941 2158 4 MP
PP
-1393 0 0 1770 1393 0 0 -1770 941 2158 5 MP stroke
4 w
DO
SO
6 w
0 sg
 941 2158 mt 2334 2158 L
 941  388 mt 2334  388 L
 941 2158 mt  941  388 L
2334 2158 mt 2334  388 L
 941 2158 mt 2334 2158 L
 941 2158 mt  941  388 L
 941 2158 mt  941 2140 L
 941  389 mt  941  406 L
%%IncludeResource: font Helvetica
/Helvetica /ISOLatin1Encoding 120 FMSR

 825 2303 mt 
(0.78) s
1637 2158 mt 1637 2140 L
1637  389 mt 1637  406 L
1554 2303 mt 
(0.8) s
2334 2158 mt 2334 2140 L
2334  389 mt 2334  406 L
2218 2303 mt 
(0.82) s
 941 2158 mt  958 2158 L
2334 2158 mt 2316 2158 L
 840 2202 mt 
(0) s
 941 1863 mt  958 1863 L
2334 1863 mt 2316 1863 L
 706 1907 mt 
(100) s
 941 1568 mt  958 1568 L
2334 1568 mt 2316 1568 L
 706 1612 mt 
(200) s
 941 1273 mt  958 1273 L
2334 1273 mt 2316 1273 L
 706 1317 mt 
(300) s
 941  978 mt  958  978 L
2334  978 mt 2316  978 L
 706 1022 mt 
(400) s
 941  683 mt  958  683 L
2334  683 mt 2316  683 L
 706  727 mt 
(500) s
 941  389 mt  958  389 L
2334  389 mt 2316  389 L
 706  433 mt 
(600) s
 941 2158 mt 2334 2158 L
 941  388 mt 2334  388 L
 941 2158 mt  941  388 L
2334 2158 mt 2334  388 L
gs 941 389 1394 1770 MR c np
/c8 { 0.000000 0.000000 0.562500 sr} bdef
c8
0 9 29 0 0 -9 1012 2158 4 MP
PP
0 sg
-29 0 0 9 29 0 0 -9 1012 2158 5 MP stroke
c8
0 9 30 0 0 -9 1041 2158 4 MP
PP
0 sg
-30 0 0 9 30 0 0 -9 1041 2158 5 MP stroke
c8
0 36 30 0 0 -36 1071 2158 4 MP
PP
0 sg
-30 0 0 36 30 0 0 -36 1071 2158 5 MP stroke
c8
0 9 29 0 0 -9 1101 2158 4 MP
PP
0 sg
-29 0 0 9 29 0 0 -9 1101 2158 5 MP stroke
c8
0 104 30 0 0 -104 1130 2158 4 MP
PP
0 sg
-30 0 0 104 30 0 0 -104 1130 2158 5 MP stroke
c8
0 86 30 0 0 -86 1160 2158 4 MP
PP
0 sg
-30 0 0 86 30 0 0 -86 1160 2158 5 MP stroke
c8
0 239 29 0 0 -239 1190 2158 4 MP
PP
0 sg
-29 0 0 239 29 0 0 -239 1190 2158 5 MP stroke
c8
0 325 30 0 0 -325 1219 2158 4 MP
PP
0 sg
-30 0 0 325 30 0 0 -325 1219 2158 5 MP stroke
c8
0 404 30 0 0 -404 1249 2158 4 MP
PP
0 sg
-30 0 0 404 30 0 0 -404 1249 2158 5 MP stroke
c8
0 1027 30 0 0 -1027 1279 2158 4 MP
PP
0 sg
-30 0 0 1027 30 0 0 -1027 1279 2158 5 MP stroke
c8
0 1088 29 0 0 -1088 1309 2158 4 MP
PP
0 sg
-29 0 0 1088 29 0 0 -1088 1309 2158 5 MP stroke
c8
0 1613 30 0 0 -1613 1338 2158 4 MP
PP
0 sg
-30 0 0 1613 30 0 0 -1613 1338 2158 5 MP stroke
c8
0 1389 30 0 0 -1389 1368 2158 4 MP
PP
0 sg
-30 0 0 1389 30 0 0 -1389 1368 2158 5 MP stroke
c8
0 1616 29 0 0 -1616 1398 2158 4 MP
PP
0 sg
-29 0 0 1616 29 0 0 -1616 1398 2158 5 MP stroke
c8
0 1604 30 0 0 -1604 1427 2158 4 MP
PP
0 sg
-30 0 0 1604 30 0 0 -1604 1427 2158 5 MP stroke
c8
0 1280 30 0 0 -1280 1457 2158 4 MP
PP
0 sg
-30 0 0 1280 30 0 0 -1280 1457 2158 5 MP stroke
c8
0 1330 29 0 0 -1330 1487 2158 4 MP
PP
0 sg
-29 0 0 1330 29 0 0 -1330 1487 2158 5 MP stroke
c8
0 1106 30 0 0 -1106 1516 2158 4 MP
PP
0 sg
-30 0 0 1106 30 0 0 -1106 1516 2158 5 MP stroke
c8
0 564 30 0 0 -564 1546 2158 4 MP
PP
0 sg
-30 0 0 564 30 0 0 -564 1546 2158 5 MP stroke
c8
0 337 30 0 0 -337 1576 2158 4 MP
PP
0 sg
-30 0 0 337 30 0 0 -337 1576 2158 5 MP stroke
c8
0 266 29 0 0 -266 1606 2158 4 MP
PP
0 sg
-29 0 0 266 29 0 0 -266 1606 2158 5 MP stroke
c8
0 154 30 0 0 -154 1635 2158 4 MP
PP
0 sg
-30 0 0 154 30 0 0 -154 1635 2158 5 MP stroke
c8
0 57 30 0 0 -57 1665 2158 4 MP
PP
0 sg
-30 0 0 57 30 0 0 -57 1665 2158 5 MP stroke
c8
0 48 29 0 0 -48 1695 2158 4 MP
PP
0 sg
-29 0 0 48 29 0 0 -48 1695 2158 5 MP stroke
c8
0 12 30 0 0 -12 1724 2158 4 MP
PP
0 sg
-30 0 0 12 30 0 0 -12 1724 2158 5 MP stroke
c8
0 21 30 0 0 -21 1754 2158 4 MP
PP
0 sg
-30 0 0 21 30 0 0 -21 1754 2158 5 MP stroke
c8
0 3 29 0 0 -3 1784 2158 4 MP
PP
0 sg
-29 0 0 3 29 0 0 -3 1784 2158 5 MP stroke
c8
0 9 30 0 0 -9 1813 2158 4 MP
PP
0 sg
-30 0 0 9 30 0 0 -9 1813 2158 5 MP stroke
c8
0 3 30 0 0 -3 1843 2158 4 MP
PP
0 sg
-30 0 0 3 30 0 0 -3 1843 2158 5 MP stroke
c8
0 6 29 0 0 -6 1873 2158 4 MP
PP
0 sg
-29 0 0 6 29 0 0 -6 1873 2158 5 MP stroke
gr

%%IncludeResource: font Symbol
/Symbol /ISOLatin1Encoding 120 FMSR

1601 2440 mt 
(u) s
%%IncludeResource: font Helvetica
/Helvetica /ISOLatin1Encoding 120 FMSR

 624 1537 mt  -90 rotate
(frequency) s
90 rotate
1 sg
0 1770 1393 0 0 -1770 2882 2158 4 MP
PP
-1393 0 0 1770 1393 0 0 -1770 2882 2158 5 MP stroke
4 w
DO
SO
6 w
0 sg
2882 2158 mt 4275 2158 L
2882  388 mt 4275  388 L
2882 2158 mt 2882  388 L
4275 2158 mt 4275  388 L
2882 2158 mt 4275 2158 L
2882 2158 mt 2882  388 L
2882 2158 mt 2882 2140 L
2882  389 mt 2882  406 L
2766 2303 mt 
(0.05) s
3346 2158 mt 3346 2140 L
3346  389 mt 3346  406 L
3263 2303 mt 
(0.1) s
3810 2158 mt 3810 2140 L
3810  389 mt 3810  406 L
3694 2303 mt 
(0.15) s
4275 2158 mt 4275 2140 L
4275  389 mt 4275  406 L
4192 2303 mt 
(0.2) s
2882 2158 mt 2899 2158 L
4275 2158 mt 4257 2158 L
2781 2202 mt 
(0) s
2882 1863 mt 2899 1863 L
4275 1863 mt 4257 1863 L
2647 1907 mt 
(100) s
2882 1568 mt 2899 1568 L
4275 1568 mt 4257 1568 L
2647 1612 mt 
(200) s
2882 1273 mt 2899 1273 L
4275 1273 mt 4257 1273 L
2647 1317 mt 
(300) s
2882  978 mt 2899  978 L
4275  978 mt 4257  978 L
2647 1022 mt 
(400) s
2882  683 mt 2899  683 L
4275  683 mt 4257  683 L
2647  727 mt 
(500) s
2882  389 mt 2899  389 L
4275  389 mt 4257  389 L
2647  433 mt 
(600) s
2882 2158 mt 4275 2158 L
2882  388 mt 4275  388 L
2882 2158 mt 2882  388 L
4275 2158 mt 4275  388 L
gs 2882 389 1394 1770 MR c np
c8
0 6 17 0 0 -6 3093 2158 4 MP
PP
0 sg
-17 0 0 6 17 0 0 -6 3093 2158 5 MP stroke
c8
0 3 17 0 0 -3 3110 2158 4 MP
PP
0 sg
-17 0 0 3 17 0 0 -3 3110 2158 5 MP stroke
c8
0 0 16 0 0 0 3127 2158 4 MP
PP
0 sg
-16 0 0 0 16 0 0 0 3127 2158 5 MP stroke
c8
0 3 17 0 0 -3 3143 2158 4 MP
PP
0 sg
-17 0 0 3 17 0 0 -3 3143 2158 5 MP stroke
c8
0 3 17 0 0 -3 3160 2158 4 MP
PP
0 sg
-17 0 0 3 17 0 0 -3 3160 2158 5 MP stroke
c8
0 3 16 0 0 -3 3177 2158 4 MP
PP
0 sg
-16 0 0 3 16 0 0 -3 3177 2158 5 MP stroke
c8
0 21 17 0 0 -21 3193 2158 4 MP
PP
0 sg
-17 0 0 21 17 0 0 -21 3193 2158 5 MP stroke
c8
0 48 17 0 0 -48 3210 2158 4 MP
PP
0 sg
-17 0 0 48 17 0 0 -48 3210 2158 5 MP stroke
c8
0 65 16 0 0 -65 3227 2158 4 MP
PP
0 sg
-16 0 0 65 16 0 0 -65 3227 2158 5 MP stroke
c8
0 160 17 0 0 -160 3243 2158 4 MP
PP
0 sg
-17 0 0 160 17 0 0 -160 3243 2158 5 MP stroke
c8
0 272 17 0 0 -272 3260 2158 4 MP
PP
0 sg
-17 0 0 272 17 0 0 -272 3260 2158 5 MP stroke
c8
0 419 16 0 0 -419 3277 2158 4 MP
PP
0 sg
-16 0 0 419 16 0 0 -419 3277 2158 5 MP stroke
c8
0 685 17 0 0 -685 3293 2158 4 MP
PP
0 sg
-17 0 0 685 17 0 0 -685 3293 2158 5 MP stroke
c8
0 976 17 0 0 -976 3310 2158 4 MP
PP
0 sg
-17 0 0 976 17 0 0 -976 3310 2158 5 MP stroke
c8
0 923 16 0 0 -923 3327 2158 4 MP
PP
0 sg
-16 0 0 923 16 0 0 -923 3327 2158 5 MP stroke
c8
0 1684 17 0 0 -1684 3343 2158 4 MP
PP
0 sg
-17 0 0 1684 17 0 0 -1684 3343 2158 5 MP stroke
c8
0 1433 17 0 0 -1433 3360 2158 4 MP
PP
0 sg
-17 0 0 1433 17 0 0 -1433 3360 2158 5 MP stroke
c8
0 1684 16 0 0 -1684 3377 2158 4 MP
PP
0 sg
-16 0 0 1684 16 0 0 -1684 3377 2158 5 MP stroke
c8
0 1560 17 0 0 -1560 3393 2158 4 MP
PP
0 sg
-17 0 0 1560 17 0 0 -1560 3393 2158 5 MP stroke
c8
0 1336 17 0 0 -1336 3410 2158 4 MP
PP
0 sg
-17 0 0 1336 17 0 0 -1336 3410 2158 5 MP stroke
c8
0 1357 16 0 0 -1357 3427 2158 4 MP
PP
0 sg
-16 0 0 1357 16 0 0 -1357 3427 2158 5 MP stroke
c8
0 776 17 0 0 -776 3443 2158 4 MP
PP
0 sg
-17 0 0 776 17 0 0 -776 3443 2158 5 MP stroke
c8
0 567 17 0 0 -567 3460 2158 4 MP
PP
0 sg
-17 0 0 567 17 0 0 -567 3460 2158 5 MP stroke
c8
0 322 16 0 0 -322 3477 2158 4 MP
PP
0 sg
-16 0 0 322 16 0 0 -322 3477 2158 5 MP stroke
c8
0 154 17 0 0 -154 3493 2158 4 MP
PP
0 sg
-17 0 0 154 17 0 0 -154 3493 2158 5 MP stroke
c8
0 163 17 0 0 -163 3510 2158 4 MP
PP
0 sg
-17 0 0 163 17 0 0 -163 3510 2158 5 MP stroke
c8
0 83 16 0 0 -83 3527 2158 4 MP
PP
0 sg
-16 0 0 83 16 0 0 -83 3527 2158 5 MP stroke
c8
0 39 17 0 0 -39 3543 2158 4 MP
PP
0 sg
-17 0 0 39 17 0 0 -39 3543 2158 5 MP stroke
c8
0 0 17 0 0 0 3560 2158 4 MP
PP
0 sg
-17 0 0 0 17 0 0 0 3560 2158 5 MP stroke
c8
0 9 16 0 0 -9 3577 2158 4 MP
PP
0 sg
-16 0 0 9 16 0 0 -9 3577 2158 5 MP stroke
gr

%%IncludeResource: font Symbol
/Symbol /ISOLatin1Encoding 120 FMSR

3513 2408 mt 
(a) s
%%IncludeResource: font Helvetica
/Helvetica /ISOLatin1Encoding 96 FMSR

3588 2468 mt 
(1) s
%%IncludeResource: font Helvetica
/Helvetica /ISOLatin1Encoding 120 FMSR

2565 1537 mt  -90 rotate
(frequency) s
90 rotate
1 sg
0 1770 1393 0 0 -1770 4823 2158 4 MP
PP
-1393 0 0 1770 1393 0 0 -1770 4823 2158 5 MP stroke
4 w
DO
SO
6 w
0 sg
4823 2158 mt 6216 2158 L
4823  388 mt 6216  388 L
4823 2158 mt 4823  388 L
6216 2158 mt 6216  388 L
4823 2158 mt 6216 2158 L
4823 2158 mt 4823  388 L
4823 2158 mt 4823 2140 L
4823  389 mt 4823  406 L
4740 2303 mt 
(0.1) s
5287 2158 mt 5287 2140 L
5287  389 mt 5287  406 L
5171 2303 mt 
(0.15) s
5751 2158 mt 5751 2140 L
5751  389 mt 5751  406 L
5668 2303 mt 
(0.2) s
6216 2158 mt 6216 2140 L
6216  389 mt 6216  406 L
6100 2303 mt 
(0.25) s
4823 2158 mt 4840 2158 L
6216 2158 mt 6198 2158 L
4722 2202 mt 
(0) s
4823 1863 mt 4840 1863 L
6216 1863 mt 6198 1863 L
4588 1907 mt 
(100) s
4823 1568 mt 4840 1568 L
6216 1568 mt 6198 1568 L
4588 1612 mt 
(200) s
4823 1273 mt 4840 1273 L
6216 1273 mt 6198 1273 L
4588 1317 mt 
(300) s
4823  978 mt 4840  978 L
6216  978 mt 6198  978 L
4588 1022 mt 
(400) s
4823  683 mt 4840  683 L
6216  683 mt 6198  683 L
4588  727 mt 
(500) s
4823  389 mt 4840  389 L
6216  389 mt 6198  389 L
4588  433 mt 
(600) s
4823 2158 mt 6216 2158 L
4823  388 mt 6216  388 L
4823 2158 mt 4823  388 L
6216 2158 mt 6216  388 L
gs 4823 389 1394 1770 MR c np
c8
0 6 26 0 0 -6 5246 2158 4 MP
PP
0 sg
-26 0 0 6 26 0 0 -6 5246 2158 5 MP stroke
c8
0 0 27 0 0 0 5272 2158 4 MP
PP
0 sg
-27 0 0 0 27 0 0 0 5272 2158 5 MP stroke
c8
0 3 27 0 0 -3 5299 2158 4 MP
PP
0 sg
-27 0 0 3 27 0 0 -3 5299 2158 5 MP stroke
c8
0 3 27 0 0 -3 5326 2158 4 MP
PP
0 sg
-27 0 0 3 27 0 0 -3 5326 2158 5 MP stroke
c8
0 6 27 0 0 -6 5353 2158 4 MP
PP
0 sg
-27 0 0 6 27 0 0 -6 5353 2158 5 MP stroke
c8
0 9 27 0 0 -9 5380 2158 4 MP
PP
0 sg
-27 0 0 9 27 0 0 -9 5380 2158 5 MP stroke
c8
0 0 27 0 0 0 5407 2158 4 MP
PP
0 sg
-27 0 0 0 27 0 0 0 5407 2158 5 MP stroke
c8
0 27 27 0 0 -27 5434 2158 4 MP
PP
0 sg
-27 0 0 27 27 0 0 -27 5434 2158 5 MP stroke
c8
0 121 27 0 0 -121 5461 2158 4 MP
PP
0 sg
-27 0 0 121 27 0 0 -121 5461 2158 5 MP stroke
c8
0 163 27 0 0 -163 5488 2158 4 MP
PP
0 sg
-27 0 0 163 27 0 0 -163 5488 2158 5 MP stroke
c8
0 310 26 0 0 -310 5515 2158 4 MP
PP
0 sg
-26 0 0 310 26 0 0 -310 5515 2158 5 MP stroke
c8
0 422 27 0 0 -422 5541 2158 4 MP
PP
0 sg
-27 0 0 422 27 0 0 -422 5541 2158 5 MP stroke
c8
0 693 27 0 0 -693 5568 2158 4 MP
PP
0 sg
-27 0 0 693 27 0 0 -693 5568 2158 5 MP stroke
c8
0 1050 27 0 0 -1050 5595 2158 4 MP
PP
0 sg
-27 0 0 1050 27 0 0 -1050 5595 2158 5 MP stroke
c8
0 1268 27 0 0 -1268 5622 2158 4 MP
PP
0 sg
-27 0 0 1268 27 0 0 -1268 5622 2158 5 MP stroke
c8
0 1436 27 0 0 -1436 5649 2158 4 MP
PP
0 sg
-27 0 0 1436 27 0 0 -1436 5649 2158 5 MP stroke
c8
0 1770 27 0 0 -1770 5676 2158 4 MP
PP
0 sg
-27 0 0 1770 27 0 0 -1770 5676 2158 5 MP stroke
c8
0 1649 27 0 0 -1649 5703 2158 4 MP
PP
0 sg
-27 0 0 1649 27 0 0 -1649 5703 2158 5 MP stroke
c8
0 1354 27 0 0 -1354 5730 2158 4 MP
PP
0 sg
-27 0 0 1354 27 0 0 -1354 5730 2158 5 MP stroke
c8
0 1407 27 0 0 -1407 5757 2158 4 MP
PP
0 sg
-27 0 0 1407 27 0 0 -1407 5757 2158 5 MP stroke
c8
0 1189 27 0 0 -1189 5784 2158 4 MP
PP
0 sg
-27 0 0 1189 27 0 0 -1189 5784 2158 5 MP stroke
c8
0 894 26 0 0 -894 5811 2158 4 MP
PP
0 sg
-26 0 0 894 26 0 0 -894 5811 2158 5 MP stroke
c8
0 354 27 0 0 -354 5837 2158 4 MP
PP
0 sg
-27 0 0 354 27 0 0 -354 5837 2158 5 MP stroke
c8
0 228 27 0 0 -228 5864 2158 4 MP
PP
0 sg
-27 0 0 228 27 0 0 -228 5864 2158 5 MP stroke
c8
0 204 27 0 0 -204 5891 2158 4 MP
PP
0 sg
-27 0 0 204 27 0 0 -204 5891 2158 5 MP stroke
c8
0 45 27 0 0 -45 5918 2158 4 MP
PP
0 sg
-27 0 0 45 27 0 0 -45 5918 2158 5 MP stroke
c8
0 65 27 0 0 -65 5945 2158 4 MP
PP
0 sg
-27 0 0 65 27 0 0 -65 5945 2158 5 MP stroke
c8
0 51 27 0 0 -51 5972 2158 4 MP
PP
0 sg
-27 0 0 51 27 0 0 -51 5972 2158 5 MP stroke
c8
0 18 27 0 0 -18 5999 2158 4 MP
PP
0 sg
-27 0 0 18 27 0 0 -18 5999 2158 5 MP stroke
c8
0 9 27 0 0 -9 6026 2158 4 MP
PP
0 sg
-27 0 0 9 27 0 0 -9 6026 2158 5 MP stroke
gr

%%IncludeResource: font Symbol
/Symbol /ISOLatin1Encoding 120 FMSR

5459 2408 mt 
(b) s
%%IncludeResource: font Helvetica
/Helvetica /ISOLatin1Encoding 96 FMSR

5524 2468 mt 
(2) s
%%IncludeResource: font Helvetica
/Helvetica /ISOLatin1Encoding 120 FMSR

4506 1537 mt  -90 rotate
(frequency) s
90 rotate
1 sg
0 1769 1393 0 0 -1769 941 4615 4 MP
PP
-1393 0 0 1769 1393 0 0 -1769 941 4615 5 MP stroke
4 w
DO
SO
6 w
0 sg
 941 4615 mt 2334 4615 L
 941 2846 mt 2334 2846 L
 941 4615 mt  941 2846 L
2334 4615 mt 2334 2846 L
 941 4615 mt 2334 4615 L
 941 4615 mt  941 2846 L
 941 4615 mt  941 4597 L
 941 2846 mt  941 2863 L
 908 4760 mt 
(0) s
1637 4615 mt 1637 4597 L
1637 2846 mt 1637 2863 L
1554 4760 mt 
(0.2) s
2334 4615 mt 2334 4597 L
2334 2846 mt 2334 2863 L
2251 4760 mt 
(0.4) s
 941 4615 mt  958 4615 L
2334 4615 mt 2316 4615 L
 840 4659 mt 
(0) s
 941 4362 mt  958 4362 L
2334 4362 mt 2316 4362 L
 706 4406 mt 
(100) s
 941 4109 mt  958 4109 L
2334 4109 mt 2316 4109 L
 706 4153 mt 
(200) s
 941 3856 mt  958 3856 L
2334 3856 mt 2316 3856 L
 706 3900 mt 
(300) s
 941 3604 mt  958 3604 L
2334 3604 mt 2316 3604 L
 706 3648 mt 
(400) s
 941 3351 mt  958 3351 L
2334 3351 mt 2316 3351 L
 706 3395 mt 
(500) s
 941 3098 mt  958 3098 L
2334 3098 mt 2316 3098 L
 706 3142 mt 
(600) s
 941 2846 mt  958 2846 L
2334 2846 mt 2316 2846 L
 706 2890 mt 
(700) s
 941 4615 mt 2334 4615 L
 941 2846 mt 2334 2846 L
 941 4615 mt  941 2846 L
2334 4615 mt 2334 2846 L
gs 941 2846 1394 1770 MR c np
c8
0 31 30 0 0 -31 1230 4615 4 MP
PP
0 sg
-30 0 0 31 30 0 0 -31 1230 4615 5 MP stroke
c8
0 99 31 0 0 -99 1260 4615 4 MP
PP
0 sg
-31 0 0 99 31 0 0 -99 1260 4615 5 MP stroke
c8
0 334 30 0 0 -334 1291 4615 4 MP
PP
0 sg
-30 0 0 334 30 0 0 -334 1291 4615 5 MP stroke
c8
0 471 30 0 0 -471 1321 4615 4 MP
PP
0 sg
-30 0 0 471 30 0 0 -471 1321 4615 5 MP stroke
c8
0 1039 30 0 0 -1039 1351 4615 4 MP
PP
0 sg
-30 0 0 1039 30 0 0 -1039 1351 4615 5 MP stroke
c8
0 1196 30 0 0 -1196 1381 4615 4 MP
PP
0 sg
-30 0 0 1196 30 0 0 -1196 1381 4615 5 MP stroke
c8
0 1181 31 0 0 -1181 1411 4615 4 MP
PP
0 sg
-31 0 0 1181 31 0 0 -1181 1411 4615 5 MP stroke
c8
0 1542 30 0 0 -1542 1442 4615 4 MP
PP
0 sg
-30 0 0 1542 30 0 0 -1542 1442 4615 5 MP stroke
c8
0 1353 30 0 0 -1353 1472 4615 4 MP
PP
0 sg
-30 0 0 1353 30 0 0 -1353 1472 4615 5 MP stroke
c8
0 1067 30 0 0 -1067 1502 4615 4 MP
PP
0 sg
-30 0 0 1067 30 0 0 -1067 1502 4615 5 MP stroke
c8
0 973 31 0 0 -973 1532 4615 4 MP
PP
0 sg
-31 0 0 973 31 0 0 -973 1532 4615 5 MP stroke
c8
0 688 30 0 0 -688 1563 4615 4 MP
PP
0 sg
-30 0 0 688 30 0 0 -688 1563 4615 5 MP stroke
c8
0 741 30 0 0 -741 1593 4615 4 MP
PP
0 sg
-30 0 0 741 30 0 0 -741 1593 4615 5 MP stroke
c8
0 574 30 0 0 -574 1623 4615 4 MP
PP
0 sg
-30 0 0 574 30 0 0 -574 1623 4615 5 MP stroke
c8
0 329 31 0 0 -329 1653 4615 4 MP
PP
0 sg
-31 0 0 329 31 0 0 -329 1653 4615 5 MP stroke
c8
0 309 30 0 0 -309 1684 4615 4 MP
PP
0 sg
-30 0 0 309 30 0 0 -309 1684 4615 5 MP stroke
c8
0 268 30 0 0 -268 1714 4615 4 MP
PP
0 sg
-30 0 0 268 30 0 0 -268 1714 4615 5 MP stroke
c8
0 155 30 0 0 -155 1744 4615 4 MP
PP
0 sg
-30 0 0 155 30 0 0 -155 1744 4615 5 MP stroke
c8
0 102 30 0 0 -102 1774 4615 4 MP
PP
0 sg
-30 0 0 102 30 0 0 -102 1774 4615 5 MP stroke
c8
0 61 31 0 0 -61 1804 4615 4 MP
PP
0 sg
-31 0 0 61 31 0 0 -61 1804 4615 5 MP stroke
c8
0 36 30 0 0 -36 1835 4615 4 MP
PP
0 sg
-30 0 0 36 30 0 0 -36 1835 4615 5 MP stroke
c8
0 33 30 0 0 -33 1865 4615 4 MP
PP
0 sg
-30 0 0 33 30 0 0 -33 1865 4615 5 MP stroke
c8
0 13 30 0 0 -13 1895 4615 4 MP
PP
0 sg
-30 0 0 13 30 0 0 -13 1895 4615 5 MP stroke
c8
0 21 31 0 0 -21 1925 4615 4 MP
PP
0 sg
-31 0 0 21 31 0 0 -21 1925 4615 5 MP stroke
c8
0 16 30 0 0 -16 1956 4615 4 MP
PP
0 sg
-30 0 0 16 30 0 0 -16 1956 4615 5 MP stroke
c8
0 0 30 0 0 0 1986 4615 4 MP
PP
0 sg
-30 0 0 0 30 0 0 0 1986 4615 5 MP stroke
c8
0 0 30 0 0 0 2016 4615 4 MP
PP
0 sg
-30 0 0 0 30 0 0 0 2016 4615 5 MP stroke
c8
0 13 30 0 0 -13 2046 4615 4 MP
PP
0 sg
-30 0 0 13 30 0 0 -13 2046 4615 5 MP stroke
c8
0 0 31 0 0 0 2076 4615 4 MP
PP
0 sg
-31 0 0 0 31 0 0 0 2076 4615 5 MP stroke
c8
0 6 30 0 0 -6 2107 4615 4 MP
PP
0 sg
-30 0 0 6 30 0 0 -6 2107 4615 5 MP stroke
gr

%%IncludeResource: font Symbol
/Symbol /ISOLatin1Encoding 120 FMSR

1573 4892 mt 
(s) s
%%IncludeResource: font Symbol
/Symbol /ISOLatin1Encoding 96 FMSR

1645 4952 mt 
(r) s
%%IncludeResource: font Helvetica
/Helvetica /ISOLatin1Encoding 96 FMSR

1645 4832 mt 
(2) s
%%IncludeResource: font Helvetica
/Helvetica /ISOLatin1Encoding 120 FMSR

 624 3994 mt  -90 rotate
(frequency) s
90 rotate
1 sg
0 1769 1393 0 0 -1769 2882 4615 4 MP
PP
-1393 0 0 1769 1393 0 0 -1769 2882 4615 5 MP stroke
4 w
DO
SO
6 w
0 sg
2882 4615 mt 4275 4615 L
2882 2846 mt 4275 2846 L
2882 4615 mt 2882 2846 L
4275 4615 mt 4275 2846 L
2882 4615 mt 4275 4615 L
2882 4615 mt 2882 2846 L
2882 4615 mt 2882 4597 L
2882 2846 mt 2882 2863 L
2849 4760 mt 
(0) s
3346 4615 mt 3346 4597 L
3346 2846 mt 3346 2863 L
3263 4760 mt 
(0.5) s
3810 4615 mt 3810 4597 L
3810 2846 mt 3810 2863 L
3777 4760 mt 
(1) s
4275 4615 mt 4275 4597 L
4275 2846 mt 4275 2863 L
4192 4760 mt 
(1.5) s
3958 4962 mt 
(x 10) s
%%IncludeResource: font Helvetica
/Helvetica /ISOLatin1Encoding 80 FMSR

4184 4888 mt 
(-3) s
2882 4615 mt 2899 4615 L
4275 4615 mt 4257 4615 L
%%IncludeResource: font Helvetica
/Helvetica /ISOLatin1Encoding 120 FMSR

2781 4659 mt 
(0) s
2882 4320 mt 2899 4320 L
4275 4320 mt 4257 4320 L
2647 4364 mt 
(100) s
2882 4025 mt 2899 4025 L
4275 4025 mt 4257 4025 L
2647 4069 mt 
(200) s
2882 3730 mt 2899 3730 L
4275 3730 mt 4257 3730 L
2647 3774 mt 
(300) s
2882 3435 mt 2899 3435 L
4275 3435 mt 4257 3435 L
2647 3479 mt 
(400) s
2882 3140 mt 2899 3140 L
4275 3140 mt 4257 3140 L
2647 3184 mt 
(500) s
2882 2846 mt 2899 2846 L
4275 2846 mt 4257 2846 L
2647 2890 mt 
(600) s
2882 4615 mt 4275 4615 L
2882 2846 mt 4275 2846 L
2882 4615 mt 2882 2846 L
4275 4615 mt 4275 2846 L
gs 2882 2846 1394 1770 MR c np
c8
0 15 30 0 0 -15 3073 4615 4 MP
PP
0 sg
-30 0 0 15 30 0 0 -15 3073 4615 5 MP stroke
c8
0 115 29 0 0 -115 3103 4615 4 MP
PP
0 sg
-29 0 0 115 29 0 0 -115 3103 4615 5 MP stroke
c8
0 289 29 0 0 -289 3132 4615 4 MP
PP
0 sg
-29 0 0 289 29 0 0 -289 3132 4615 5 MP stroke
c8
0 611 29 0 0 -611 3161 4615 4 MP
PP
0 sg
-29 0 0 611 29 0 0 -611 3161 4615 5 MP stroke
c8
0 788 29 0 0 -788 3190 4615 4 MP
PP
0 sg
-29 0 0 788 29 0 0 -788 3190 4615 5 MP stroke
c8
0 1003 29 0 0 -1003 3219 4615 4 MP
PP
0 sg
-29 0 0 1003 29 0 0 -1003 3219 4615 5 MP stroke
c8
0 1486 29 0 0 -1486 3248 4615 4 MP
PP
0 sg
-29 0 0 1486 29 0 0 -1486 3248 4615 5 MP stroke
c8
0 1304 29 0 0 -1304 3277 4615 4 MP
PP
0 sg
-29 0 0 1304 29 0 0 -1304 3277 4615 5 MP stroke
c8
0 1669 30 0 0 -1669 3306 4615 4 MP
PP
0 sg
-30 0 0 1669 30 0 0 -1669 3306 4615 5 MP stroke
c8
0 1251 29 0 0 -1251 3336 4615 4 MP
PP
0 sg
-29 0 0 1251 29 0 0 -1251 3336 4615 5 MP stroke
c8
0 1080 29 0 0 -1080 3365 4615 4 MP
PP
0 sg
-29 0 0 1080 29 0 0 -1080 3365 4615 5 MP stroke
c8
0 1118 29 0 0 -1118 3394 4615 4 MP
PP
0 sg
-29 0 0 1118 29 0 0 -1118 3394 4615 5 MP stroke
c8
0 1021 29 0 0 -1021 3423 4615 4 MP
PP
0 sg
-29 0 0 1021 29 0 0 -1021 3423 4615 5 MP stroke
c8
0 794 29 0 0 -794 3452 4615 4 MP
PP
0 sg
-29 0 0 794 29 0 0 -794 3452 4615 5 MP stroke
c8
0 599 29 0 0 -599 3481 4615 4 MP
PP
0 sg
-29 0 0 599 29 0 0 -599 3481 4615 5 MP stroke
c8
0 378 30 0 0 -378 3510 4615 4 MP
PP
0 sg
-30 0 0 378 30 0 0 -378 3510 4615 5 MP stroke
c8
0 263 29 0 0 -263 3540 4615 4 MP
PP
0 sg
-29 0 0 263 29 0 0 -263 3540 4615 5 MP stroke
c8
0 239 29 0 0 -239 3569 4615 4 MP
PP
0 sg
-29 0 0 239 29 0 0 -239 3569 4615 5 MP stroke
c8
0 254 29 0 0 -254 3598 4615 4 MP
PP
0 sg
-29 0 0 254 29 0 0 -254 3598 4615 5 MP stroke
c8
0 160 29 0 0 -160 3627 4615 4 MP
PP
0 sg
-29 0 0 160 29 0 0 -160 3627 4615 5 MP stroke
c8
0 59 29 0 0 -59 3656 4615 4 MP
PP
0 sg
-29 0 0 59 29 0 0 -59 3656 4615 5 MP stroke
c8
0 59 29 0 0 -59 3685 4615 4 MP
PP
0 sg
-29 0 0 59 29 0 0 -59 3685 4615 5 MP stroke
c8
0 95 30 0 0 -95 3714 4615 4 MP
PP
0 sg
-30 0 0 95 30 0 0 -95 3714 4615 5 MP stroke
c8
0 39 29 0 0 -39 3744 4615 4 MP
PP
0 sg
-29 0 0 39 29 0 0 -39 3744 4615 5 MP stroke
c8
0 12 29 0 0 -12 3773 4615 4 MP
PP
0 sg
-29 0 0 12 29 0 0 -12 3773 4615 5 MP stroke
c8
0 18 29 0 0 -18 3802 4615 4 MP
PP
0 sg
-29 0 0 18 29 0 0 -18 3802 4615 5 MP stroke
c8
0 0 29 0 0 0 3831 4615 4 MP
PP
0 sg
-29 0 0 0 29 0 0 0 3831 4615 5 MP stroke
c8
0 9 29 0 0 -9 3860 4615 4 MP
PP
0 sg
-29 0 0 9 29 0 0 -9 3860 4615 5 MP stroke
c8
0 12 29 0 0 -12 3889 4615 4 MP
PP
0 sg
-29 0 0 12 29 0 0 -12 3889 4615 5 MP stroke
c8
0 15 29 0 0 -15 3918 4615 4 MP
PP
0 sg
-29 0 0 15 29 0 0 -15 3918 4615 5 MP stroke
gr

%%IncludeResource: font Symbol
/Symbol /ISOLatin1Encoding 120 FMSR

3514 4885 mt 
(s) s
%%IncludeResource: font Helvetica
/Helvetica /ISOLatin1Encoding 96 FMSR

3586 4945 mt 
(n) s
3586 4825 mt 
(2) s
%%IncludeResource: font Helvetica
/Helvetica /ISOLatin1Encoding 120 FMSR

2565 3994 mt  -90 rotate
(frequency) s
90 rotate

end %%Color Dict

eplot
%%EndObject

epage
end

showpage

%%Trailer
%%EOF
