%!PS-Adobe-2.0 EPSF-1.2
%%Creator: MATLAB, The MathWorks, Inc. Version 8.1.0.604 (R2013a). Operating System: Linux 3.13.0-40-generic #69-Ubuntu SMP Thu Nov 13 17:53:56 UTC 2014 x86_64.
%%Title: /home/xiaolin/Documents/model_selection/model_selection_log03new/YH/data_figures/sampleTrace.eps
%%CreationDate: 10/25/2015  07:07:34
%%DocumentNeededFonts: Helvetica
%%DocumentProcessColors: Cyan Magenta Yellow Black
%%Pages: 1
%%BoundingBox:    65   215   549   608
%%EndComments

%%BeginProlog
% MathWorks dictionary
/MathWorks 160 dict begin
% definition operators
/bdef {bind def} bind def
/ldef {load def} bind def
/xdef {exch def} bdef
/xstore {exch store} bdef
% operator abbreviations
/c  /clip ldef
/cc /concat ldef
/cp /closepath ldef
/gr /grestore ldef
/gs /gsave ldef
/mt /moveto ldef
/np /newpath ldef
/cm /currentmatrix ldef
/sm /setmatrix ldef
/rm /rmoveto ldef
/rl /rlineto ldef
/s {show newpath} bdef
/sc {setcmykcolor} bdef
/sr /setrgbcolor ldef
/sg /setgray ldef
/w /setlinewidth ldef
/j /setlinejoin ldef
/cap /setlinecap ldef
/rc {rectclip} bdef
/rf {rectfill} bdef
% page state control
/pgsv () def
/bpage {/pgsv save def} bdef
/epage {pgsv restore} bdef
/bplot /gsave ldef
/eplot {stroke grestore} bdef
% orientation switch
/portraitMode 0 def /landscapeMode 1 def /rotateMode 2 def
% coordinate system mappings
/dpi2point 0 def
% font control
/FontSize 0 def
/FMS {/FontSize xstore findfont [FontSize 0 0 FontSize neg 0 0]
  makefont setfont} bdef
/reencode {exch dup where {pop load} {pop StandardEncoding} ifelse
  exch dup 3 1 roll findfont dup length dict begin
  { 1 index /FID ne {def}{pop pop} ifelse } forall
  /Encoding exch def currentdict end definefont pop} bdef
/isroman {findfont /CharStrings get /Agrave known} bdef
/FMSR {3 1 roll 1 index dup isroman {reencode} {pop pop} ifelse
  exch FMS} bdef
/csm {1 dpi2point div -1 dpi2point div scale neg translate
 dup landscapeMode eq {pop -90 rotate}
  {rotateMode eq {90 rotate} if} ifelse} bdef
% line types: solid, dotted, dashed, dotdash
/SO { [] 0 setdash } bdef
/DO { [.5 dpi2point mul 4 dpi2point mul] 0 setdash } bdef
/DA { [6 dpi2point mul] 0 setdash } bdef
/DD { [.5 dpi2point mul 4 dpi2point mul 6 dpi2point mul 4
  dpi2point mul] 0 setdash } bdef
% macros for lines and objects
/L {lineto stroke} bdef
/MP {3 1 roll moveto 1 sub {rlineto} repeat} bdef
/AP {{rlineto} repeat} bdef
/PDlw -1 def
/W {/PDlw currentlinewidth def setlinewidth} def
/PP {closepath eofill} bdef
/DP {closepath stroke} bdef
/MR {4 -2 roll moveto dup  0 exch rlineto exch 0 rlineto
  neg 0 exch rlineto closepath} bdef
/FR {MR stroke} bdef
/PR {MR fill} bdef
/L1i {{currentfile picstr readhexstring pop} image} bdef
/tMatrix matrix def
/MakeOval {newpath tMatrix currentmatrix pop translate scale
0 0 1 0 360 arc tMatrix setmatrix} bdef
/FO {MakeOval stroke} bdef
/PO {MakeOval fill} bdef
/PD {currentlinewidth 2 div 0 360 arc fill
   PDlw -1 eq not {PDlw w /PDlw -1 def} if} def
/FA {newpath tMatrix currentmatrix pop translate scale
  0 0 1 5 -2 roll arc tMatrix setmatrix stroke} bdef
/PA {newpath tMatrix currentmatrix pop	translate 0 0 moveto scale
  0 0 1 5 -2 roll arc closepath tMatrix setmatrix fill} bdef
/FAn {newpath tMatrix currentmatrix pop translate scale
  0 0 1 5 -2 roll arcn tMatrix setmatrix stroke} bdef
/PAn {newpath tMatrix currentmatrix pop translate 0 0 moveto scale
  0 0 1 5 -2 roll arcn closepath tMatrix setmatrix fill} bdef
/vradius 0 def /hradius 0 def /lry 0 def
/lrx 0 def /uly 0 def /ulx 0 def /rad 0 def
/MRR {/vradius xdef /hradius xdef /lry xdef /lrx xdef /uly xdef
  /ulx xdef newpath tMatrix currentmatrix pop ulx hradius add uly
  vradius add translate hradius vradius scale 0 0 1 180 270 arc 
  tMatrix setmatrix lrx hradius sub uly vradius add translate
  hradius vradius scale 0 0 1 270 360 arc tMatrix setmatrix
  lrx hradius sub lry vradius sub translate hradius vradius scale
  0 0 1 0 90 arc tMatrix setmatrix ulx hradius add lry vradius sub
  translate hradius vradius scale 0 0 1 90 180 arc tMatrix setmatrix
  closepath} bdef
/FRR {MRR stroke } bdef
/PRR {MRR fill } bdef
/MlrRR {/lry xdef /lrx xdef /uly xdef /ulx xdef /rad lry uly sub 2 div def
  newpath tMatrix currentmatrix pop ulx rad add uly rad add translate
  rad rad scale 0 0 1 90 270 arc tMatrix setmatrix lrx rad sub lry rad
  sub translate rad rad scale 0 0 1 270 90 arc tMatrix setmatrix
  closepath} bdef
/FlrRR {MlrRR stroke } bdef
/PlrRR {MlrRR fill } bdef
/MtbRR {/lry xdef /lrx xdef /uly xdef /ulx xdef /rad lrx ulx sub 2 div def
  newpath tMatrix currentmatrix pop ulx rad add uly rad add translate
  rad rad scale 0 0 1 180 360 arc tMatrix setmatrix lrx rad sub lry rad
  sub translate rad rad scale 0 0 1 0 180 arc tMatrix setmatrix
  closepath} bdef
/FtbRR {MtbRR stroke } bdef
/PtbRR {MtbRR fill } bdef
/stri 6 array def /dtri 6 array def
/smat 6 array def /dmat 6 array def
/tmat1 6 array def /tmat2 6 array def /dif 3 array def
/asub {/ind2 exch def /ind1 exch def dup dup
  ind1 get exch ind2 get sub exch } bdef
/tri_to_matrix {
  2 0 asub 3 1 asub 4 0 asub 5 1 asub
  dup 0 get exch 1 get 7 -1 roll astore } bdef
/compute_transform {
  dmat dtri tri_to_matrix tmat1 invertmatrix 
  smat stri tri_to_matrix tmat2 concatmatrix } bdef
/ds {stri astore pop} bdef
/dt {dtri astore pop} bdef
/db {2 copy /cols xdef /rows xdef mul dup string
  currentfile exch readhexstring pop
  /bmap xdef pop pop} bdef
/it {gs np dtri aload pop moveto lineto lineto cp c
  cols rows 8 compute_transform 
  {bmap} image gr}bdef
/il {newpath moveto lineto stroke}bdef
currentdict end def
%%EndProlog

%%BeginSetup
MathWorks begin

0 cap

end
%%EndSetup

%%Page: 1 1
%%BeginPageSetup
%%PageBoundingBox:    65   215   549   608
MathWorks begin
bpage
%%EndPageSetup

%%BeginObject: obj1
bplot

/dpi2point 12 def
portraitMode 0216 7344 csm

  564    45  5817  4716 MR c np
85 dict begin %Colortable dictionary
/c0 { 0.000000 0.000000 0.000000 sr} bdef
/c1 { 1.000000 1.000000 1.000000 sr} bdef
/c2 { 0.900000 0.000000 0.000000 sr} bdef
/c3 { 0.000000 0.820000 0.000000 sr} bdef
/c4 { 0.000000 0.000000 0.800000 sr} bdef
/c5 { 0.910000 0.820000 0.320000 sr} bdef
/c6 { 1.000000 0.260000 0.820000 sr} bdef
/c7 { 0.000000 0.820000 0.820000 sr} bdef
c0
1 j
1 sg
   0    0 6913 5186 PR
6 w
0 1769 1418 0 0 -1769 899 2158 4 MP
PP
-1418 0 0 1769 1418 0 0 -1769 899 2158 5 MP stroke
4 w
DO
SO
6 w
0 sg
 899 2158 mt 2317 2158 L
 899  389 mt 2317  389 L
 899 2158 mt  899  389 L
2317 2158 mt 2317  389 L
 899 2158 mt 2317 2158 L
 899 2158 mt  899  389 L
 899 2158 mt  899 2140 L
 899  389 mt  899  406 L
%%IncludeResource: font Helvetica
/Helvetica /ISOLatin1Encoding 120 FMSR

 866 2303 mt 
(0) s
1371 2158 mt 1371 2140 L
1371  389 mt 1371  406 L
1238 2303 mt 
(2000) s
1844 2158 mt 1844 2140 L
1844  389 mt 1844  406 L
1711 2303 mt 
(4000) s
2317 2158 mt 2317 2140 L
2317  389 mt 2317  406 L
2184 2303 mt 
(6000) s
 899 2158 mt  916 2158 L
2317 2158 mt 2299 2158 L
 631 2202 mt 
(0.78) s
 899 1905 mt  916 1905 L
2317 1905 mt 2299 1905 L
 564 1949 mt 
(0.785) s
 899 1652 mt  916 1652 L
2317 1652 mt 2299 1652 L
 631 1696 mt 
(0.79) s
 899 1399 mt  916 1399 L
2317 1399 mt 2299 1399 L
 564 1443 mt 
(0.795) s
 899 1147 mt  916 1147 L
2317 1147 mt 2299 1147 L
 698 1191 mt 
(0.8) s
 899  894 mt  916  894 L
2317  894 mt 2299  894 L
 564  938 mt 
(0.805) s
 899  641 mt  916  641 L
2317  641 mt 2299  641 L
 631  685 mt 
(0.81) s
 899  389 mt  916  389 L
2317  389 mt 2299  389 L
 564  433 mt 
(0.815) s
 899 2158 mt 2317 2158 L
 899  389 mt 2317  389 L
 899 2158 mt  899  389 L
2317 2158 mt 2317  389 L
gs 899 389 1419 1770 MR c np
1 109 0 -479 0 245 1 -30 0 -95 0 95 1 0 0 336 
0 -155 1 -173 1 -3 0 -79 0 260 1 -168 0 -53 1 0 
0 405 0 -337 1 165 0 -191 1 0 0 103 1 0 0 297 
0 -188 1 -172 0 -258 1 167 0 184 1 0 0 -140 1 277 
0 -373 1 0 0 362 1 0 1 0 0 -62 1 0 0 215 
0 -410 1 0 0 114 0 -215 1 274 0 88 1 0 0 213 
0 -316 1 37 0 -116 1 0 0 55 0 -163 1 0 0 35 
0 -40 1 0 0 75 1 0 0 42 1 0 0 162 0 -246 
1 128 0 242 1 0 0 216 1 -38 0 -290 1 0 0 -31 
1 118 0 -271 1 0 1 6 0 305 1 -18 1 -118 1 0 
0 -109 1 0 1 0 0 -54 1 0 0 -301 1 0 0 479 
0 -415 1 0 0 105 0 -169 1 441 0 -87 0 76 1 0 
0 -144 1 0 0 -6 2035 1494 100 MP stroke
1 6 0 288 0 -23 1 -165 0 -152 1 -50 1 168 0 -234 
1 0 1 134 0 -121 1 86 1 58 0 -38 1 0 0 -15 
1 0 0 14 1 118 0 -132 0 279 1 0 0 -319 1 0 
0 188 0 -25 1 -89 0 89 1 0 0 -3 0 117 1 0 
1 -63 1 -83 1 0 0 231 0 -188 1 0 0 103 1 0 
1 -465 0 59 1 0 0 331 1 0 0 22 1 0 0 -330 
0 45 1 0 0 285 1 59 1 16 0 45 1 0 0 -167 
1 -16 0 -130 1 35 0 27 1 0 0 346 0 -307 1 221 
0 106 0 -181 1 0 0 -242 1 0 0 92 1 0 0 151 
1 0 0 -167 1 109 0 58 1 -122 0 89 1 -83 0 83 
1 0 0 -194 1 -308 0 327 1 101 0 154 1 0 1 -77 
0 -116 1 0 1 -244 0 118 1 0 0 133 1 0 0 128 
1 -45 0 -70 1 -58 1984 1497 100 MP stroke
0 141 1 0 1 0 0 -31 1 0 0 34 1 0 0 39 
1 -144 1 1 0 311 1 -612 0 98 1 0 0 249 1 0 
0 92 0 -162 1 0 0 214 0 -108 1 -83 0 55 1 0 
0 -210 1 0 0 -37 1 0 0 253 0 -106 1 -72 0 254 
1 0 0 -106 1 0 0 31 0 -249 0 218 1 0 0 -138 
1 0 0 116 1 36 0 -104 1 0 0 137 0 -176 1 0 
0 -104 1 0 0 34 1 0 1 0 1 118 0 160 0 -167 
0 84 1 162 0 -271 0 124 1 0 0 147 0 -205 1 0 
0 -10 0 215 1 0 1 0 0 -77 0 217 1 0 1 0 
0 -87 1 -273 0 310 0 -357 1 -280 0 518 1 -196 0 151 
1 0 1 -206 0 208 1 0 0 -208 1 0 1 0 0 -88 
0 98 1 0 0 80 1 0 1 0 0 -97 1 37 0 41 
1 54 0 -34 1 44 1937 1414 100 MP stroke
1 -197 0 221 1 0 0 -355 1 12 0 103 0 -198 1 187 
0 178 0 -292 1 257 0 43 1 52 0 -249 1 0 0 444 
1 0 0 -282 1 0 0 44 1 0 0 -52 1 -262 0 137 
0 -57 1 210 0 126 1 -200 0 -102 0 10 1 -91 0 140 
0 -83 1 0 0 368 1 -244 1 197 1 -219 0 7 1 0 
0 78 0 -114 0 87 1 257 0 -331 1 171 0 -171 0 348 
1 -83 0 104 1 -292 0 -130 0 33 1 77 0 19 1 0 
0 -348 1 0 0 120 1 0 1 0 0 -43 0 255 1 -207 
0 270 1 -192 0 117 1 0 0 220 1 -166 0 133 1 0 
0 28 0 -65 1 19 0 287 1 0 0 -272 1 0 0 61 
0 -228 1 0 0 -10 0 125 1 0 1 99 0 76 1 -331 
0 459 0 -459 1 0 0 236 0 -183 1 -95 0 -294 0 196 
1 0 0 143 1 -128 1893 1685 100 MP stroke
0 69 1 59 0 -25 0 25 1 0 0 180 0 -201 0 90 
1 0 0 82 1 0 0 -207 0 268 1 0 1 0 0 79 
1 0 0 -260 0 181 1 0 0 -178 1 0 0 229 0 -130 
1 79 0 -122 1 -15 0 -257 1 278 0 -94 1 0 0 -89 
1 0 1 0 0 310 0 -248 1 0 0 -54 1 319 0 -251 
1 -96 0 194 0 -194 1 0 1 328 0 -431 1 247 0 252 
1 0 0 -83 1 -59 0 -43 1 0 0 177 1 -274 0 251 
1 0 0 -288 0 288 1 0 0 -240 1 0 0 -79 1 0 
0 41 1 0 0 100 0 -249 1 0 0 523 0 -438 1 0 
0 234 1 -290 0 227 0 -29 1 0 1 0 0 -104 0 181 
1 0 1 50 0 -118 0 20 1 66 0 78 1 0 0 -389 
0 162 1 0 0 17 0 -17 1 0 0 76 1 0 0 -28 
1 0 0 -181 0 154 1850 1532 100 MP stroke
1 156 1 0 0 36 1 0 0 -185 0 265 1 -7 1 -435 
0 266 1 0 1 0 0 -38 1 0 1 0 0 -155 1 0 
0 234 1 204 0 -317 1 0 1 0 0 137 1 0 1 -238 
0 76 1 132 0 -221 1 0 0 181 1 0 0 -148 1 116 
1 0 0 17 1 0 1 0 0 -345 0 424 1 -73 0 112 
1 -348 0 86 1 387 0 -358 1 0 0 233 0 -149 1 28 
0 206 1 -110 0 -225 0 318 1 0 1 -294 0 -76 0 221 
1 49 0 -349 1 0 0 85 1 0 0 192 1 0 0 -18 
0 37 1 -74 0 -290 1 150 0 93 1 -242 0 423 0 -424 
1 0 1 -31 0 233 1 0 0 53 1 0 1 0 0 175 
0 -346 1 -43 0 228 0 -179 1 0 0 220 1 0 0 -97 
0 94 1 0 0 249 1 -173 0 -230 1 0 0 5 0 -138 
1 363 0 127 1 0 1800 1277 100 MP stroke
0 -301 1 0 0 -76 1 0 0 129 1 0 1 -48 1 282 
1 0 0 -143 1 38 0 108 1 0 0 -170 1 0 0 99 
1 -69 0 -73 1 0 0 -249 1 0 0 451 1 41 0 -147 
1 0 0 154 1 0 0 -14 1 -123 1 -28 1 0 0 -85 
0 292 1 -194 0 -101 0 128 1 0 0 -170 1 0 0 -121 
0 108 1 0 0 -138 0 152 1 0 0 102 0 -102 1 0 
1 152 0 -30 0 29 1 0 0 14 0 -254 1 281 1 0 
0 -281 1 275 0 -199 1 0 1 0 0 408 1 0 0 -408 
1 -97 0 467 1 -225 0 55 0 -102 1 0 0 302 1 0 
0 -482 0 197 1 -197 0 292 0 -309 1 0 0 473 0 -408 
1 0 0 17 1 204 0 -39 1 0 1 0 0 73 0 -109 
1 0 0 158 0 -81 1 0 0 -360 0 257 1 0 1 229 
0 -260 1 -111 0 228 1753 1386 100 MP stroke
1 0 0 -47 0 97 1 0 0 -212 0 93 1 0 0 -54 
0 329 1 56 0 -365 1 -120 0 485 1 33 0 -347 0 314 
1 -369 0 251 1 -355 0 164 1 0 0 -277 1 0 0 157 
1 0 0 -58 1 206 0 -183 1 0 1 0 1 0 0 160 
0 -114 1 51 1 0 0 258 1 0 0 -445 1 333 0 -219 
1 0 0 -56 1 0 0 379 0 -30 1 0 0 -129 1 0 
0 -186 1 0 0 71 1 -71 1 0 0 58 1 0 1 1 
1 0 0 150 0 -178 0 16 1 0 0 133 0 -284 1 151 
0 -55 1 89 0 -245 1 0 0 236 1 0 0 70 0 -266 
1 177 0 -177 0 100 1 0 0 117 1 0 0 161 0 -161 
1 0 0 -147 1 0 1 0 1 0 0 327 1 -182 0 53 
0 -28 1 -117 0 -344 1 589 0 -23 1 -170 0 140 0 -96 
1 -96 0 -49 1 0 1706 1636 100 MP stroke
0 -70 0 77 1 0 1 0 0 45 0 -15 1 0 0 -30 
0 190 1 0 1 -23 0 -142 0 82 1 0 0 8 1 0 
0 72 0 -63 1 82 0 -89 1 0 1 20 1 0 1 0 
1 100 0 53 1 -222 0 89 0 -80 1 0 0 73 1 0 
0 81 1 0 1 0 0 -265 1 121 1 0 0 155 0 -123 
1 0 1 0 1 143 1 118 0 -338 1 119 0 331 0 -384 
0 290 1 0 0 -64 0 33 1 0 0 174 1 -174 0 -279 
1 -20 1 0 1 0 0 311 1 -296 0 -15 0 164 1 0 
0 -164 1 -60 1 253 0 -20 1 0 0 26 1 -26 1 0 
0 -213 1 -254 1 0 0 278 1 52 0 257 0 -195 1 0 
0 87 0 -76 1 -110 0 -70 1 0 0 237 0 -371 1 371 
0 58 1 0 0 -157 0 126 1 0 0 162 0 -171 1 0 
0 -184 1 48 0 -79 1657 1592 100 MP stroke
1 0 1 226 0 -71 1 0 0 45 1 -58 0 43 1 0 
0 70 1 0 0 -103 1 -13 0 273 1 -110 0 -196 1 338 
0 -426 0 99 1 0 0 -20 1 0 0 -52 0 52 1 0 
0 202 1 0 0 -338 0 67 1 0 0 115 1 0 0 121 
1 0 1 0 1 -121 1 0 1 0 0 10 1 118 0 -353 
0 308 1 0 0 -107 1 0 1 0 0 -127 1 255 1 0 
0 -196 0 196 1 -14 1 35 0 -35 0 26 1 -71 0 -213 
1 167 0 -167 1 -64 0 -21 0 349 1 0 0 66 0 -382 
1 0 0 358 1 0 0 -89 1 0 0 219 0 -120 1 0 
1 0 0 31 1 0 0 150 1 0 1 -393 0 32 1 0 
0 154 1 -83 0 -200 1 0 1 200 0 -198 0 273 1 84 
0 -437 0 196 1 0 0 276 0 -337 1 168 0 -164 1 57 
0 -250 0 327 1 0 1608 1415 100 MP stroke
0 -122 1 0 0 64 0 -64 1 0 0 228 1 0 0 -290 
1 0 0 309 1 -83 0 -108 1 189 0 74 1 0 0 -70 
1 0 0 -282 0 358 1 90 0 91 1 -382 0 60 1 -268 
1 0 1 239 0 16 1 0 0 -142 1 0 1 0 1 0 
0 218 1 0 1 0 1 0 0 -175 1 0 1 54 0 59 
1 0 0 41 0 -69 0 67 1 -304 0 51 1 0 0 130 
0 -130 1 0 0 -100 0 262 1 0 0 109 1 0 0 -36 
1 0 1 -414 0 279 1 -210 0 -99 1 238 0 58 1 0 
0 76 1 -93 0 166 1 0 0 -333 0 167 1 0 0 75 
1 0 0 -75 0 12 1 0 1 0 0 247 0 -418 1 0 
0 224 1 298 1 -298 0 76 1 0 1 55 0 -284 0 221 
1 0 0 180 1 -97 0 10 1 -165 0 -150 1 0 0 315 
1 0 0 -33 1 -236 1558 1539 100 MP stroke
0 367 1 -476 0 254 0 -109 1 0 0 -103 1 523 0 -243 
1 123 0 -186 0 319 1 -133 0 -584 1 455 0 -229 1 0 
0 211 0 -59 1 0 1 2 0 54 0 -67 1 0 0 222 
1 0 0 -439 1 404 0 -85 1 -24 1 0 0 -373 0 313 
1 0 0 14 1 0 0 192 1 0 0 -260 0 41 2 130 
0 -286 1 0 0 80 1 0 0 -49 1 0 1 0 1 -83 
0 203 0 -120 1 132 1 0 0 74 0 -209 1 0 0 145 
0 -145 1 0 1 0 0 -108 1 0 1 165 0 63 1 0 
0 -89 1 0 1 170 0 -182 1 0 0 -15 1 0 1 -68 
0 290 1 0 0 -132 1 0 1 0 0 264 1 -264 0 -47 
0 32 1 0 0 -71 0 258 1 -148 0 69 0 -47 1 -240 
0 156 1 0 0 107 1 0 0 -208 1 0 1 0 0 422 
1 0 0 -333 1 192 1508 1307 100 MP stroke
0 -108 1 0 0 -232 0 352 1 -20 0 -166 1 225 0 -358 
0 234 1 0 0 -179 0 45 1 -45 0 5 1 0 0 -80 
0 28 1 0 0 53 1 0 0 -81 0 147 1 0 0 -209 
0 383 1 0 0 -28 0 31 1 0 0 4 1 1 0 -355 
1 -92 0 442 1 0 0 -123 1 33 0 -273 1 0 1 0 
0 35 1 0 0 301 1 0 0 -205 1 0 0 188 0 -269 
1 -40 0 453 1 0 0 -423 1 0 0 285 1 0 0 177 
0 -39 1 0 0 -109 1 0 0 -31 1 -183 0 45 1 -227 
0 209 0 -15 1 0 0 99 0 -151 1 0 0 -25 0 72 
1 0 1 49 0 22 1 0 0 -54 0 59 1 0 0 130 
1 0 0 -279 0 177 1 0 0 112 1 -256 0 167 1 0 
0 -35 1 13 0 29 0 -263 1 82 0 -48 0 48 1 369 
0 -196 0 195 1 0 1466 1205 100 MP stroke
0 -5 1 -213 0 201 1 -159 0 114 1 -307 0 398 0 -324 
1 0 1 -80 0 280 1 -5 0 -388 1 0 1 0 0 364 
0 -292 1 71 1 0 1 -140 0 -97 1 0 0 321 1 -84 
0 -35 1 0 0 -40 1 0 1 0 1 116 0 283 0 -6 
1 0 0 -243 1 -17 1 0 1 0 0 99 1 -33 1 0 
0 -235 1 0 0 60 1 165 0 -300 1 0 1 67 0 234 
0 -178 1 0 0 -80 0 265 1 -265 0 32 0 -39 1 42 
1 0 0 96 1 0 0 0 2 -17 0 16 1 54 0 -68 
0 112 1 0 1 0 1 0 0 -262 1 95 1 0 0 -22 
0 363 1 0 0 -55 1 0 1 -97 0 18 1 0 0 103 
0 -180 1 -65 0 233 0 -169 1 0 1 79 1 -414 0 264 
1 0 0 313 1 0 0 -314 1 222 0 -302 0 91 1 0 
0 -124 1 -53 0 560 1413 1181 100 MP stroke
1 51 0 -137 0 178 1 0 0 -331 1 -2 0 139 1 0 
0 -159 1 -12 0 -119 0 207 1 -138 0 -38 1 0 0 -24 
0 132 1 0 0 -433 0 403 1 -186 0 210 0 -3 1 -286 
0 450 0 -201 1 187 0 -292 1 100 0 194 1 0 0 -310 
0 3 1 0 0 -11 0 276 1 -282 0 6 1 0 1 0 
0 -90 1 0 0 238 1 0 0 -304 1 0 0 28 1 261 
0 210 0 -228 1 0 0 -107 0 131 1 0 0 66 1 -145 
0 168 0 -385 1 0 0 320 0 -98 1 -129 0 672 1 -274 
0 120 1 -40 1 0 0 -15 1 15 0 161 0 -124 1 0 
0 114 0 -635 1 0 0 271 1 272 0 -213 1 0 0 -79 
0 380 1 0 0 179 0 -179 1 0 0 90 1 -106 0 -283 
0 84 1 0 0 81 1 0 0 -214 0 92 1 -19 0 -227 
0 233 1 -150 0 -312 1372 1779 100 MP stroke
0 122 1 -268 0 161 1 -233 0 395 0 -249 1 241 0 -259 
0 86 1 0 0 -86 1 0 1 0 0 132 1 0 0 391 
0 -604 0 184 1 0 0 -69 1 0 0 320 0 -137 1 0 
0 229 1 0 0 -364 0 324 1 250 0 -570 1 207 0 137 
1 0 0 -7 0 9 1 164 0 -228 0 145 1 0 0 5 
0 -118 1 0 0 118 1 24 0 -90 1 0 0 33 1 67 
0 -189 1 0 0 145 1 0 0 224 1 0 0 -474 0 21 
1 0 0 210 0 -154 1 0 0 -94 0 248 1 -160 1 -11 
0 53 1 0 0 48 0 -30 1 0 1 1 0 -171 0 251 
1 0 0 -330 1 -132 0 213 1 307 1 -125 0 36 1 0 
0 -236 1 264 0 83 0 -160 1 0 0 -207 1 121 0 -82 
1 0 0 -132 0 132 1 0 0 226 1 -420 0 139 1 0 
0 94 1 -80 0 231 1329 1457 100 MP stroke
0 -60 1 -91 0 189 1 -443 0 221 1 0 0 425 1 56 
0 -516 0 363 1 -185 0 7 1 126 1 244 0 -439 1 -18 
0 -3 1 52 0 -50 1 182 0 -132 1 0 0 -208 0 257 
1 0 0 -293 1 142 0 -78 0 312 1 -273 0 79 1 -57 
0 436 0 -84 1 -155 0 204 0 -151 1 -174 0 174 1 -154 
0 75 1 0 0 -270 1 0 0 209 1 0 0 208 0 -105 
1 -106 1 0 0 -109 1 2 0 139 0 -179 1 108 0 271 
0 -193 1 0 1 167 0 34 1 -25 0 49 1 0 0 -408 
1 105 0 196 1 0 1 0 0 100 1 -328 0 286 1 0 
0 -38 0 11 1 0 0 -126 1 0 0 -132 1 195 0 94 
0 -157 1 0 0 62 1 0 1 -113 0 -287 1 0 0 258 
1 235 0 -49 1 0 0 26 1 0 0 -18 1 0 0 18 
1 -238 0 238 0 -113 1283 1460 100 MP stroke
1 58 1 0 0 -242 0 235 1 0 0 27 0 -86 1 145 
0 -276 0 212 1 57 0 -227 1 -65 0 165 1 0 0 15 
0 -15 1 -37 0 313 1 0 0 -476 0 105 1 254 0 -3 
1 0 0 -285 1 0 0 -68 1 0 0 -23 0 256 1 0 
0 -233 1 128 1 -2 1 -81 0 91 0 -105 1 0 0 138 
1 0 1 0 1 0 0 47 0 -257 1 6 0 52 1 269 
0 -41 1 11 0 -97 1 0 0 -142 0 158 1 0 0 -102 
1 230 0 -169 1 -91 0 319 1 0 0 -216 1 0 1 0 
0 217 1 -260 0 229 1 0 1 0 0 -204 0 204 1 -269 
0 3 1 -263 0 675 0 -144 1 0 0 122 1 0 0 -306 
1 0 0 40 0 -211 1 0 1 0 0 -24 1 0 0 171 
1 0 1 165 0 -165 1 175 1 -66 0 65 1 1 0 65 
1 0 0 -26 1 0 1234 1314 100 MP stroke
1 0 0 -231 0 203 1 -177 0 160 1 0 0 -327 1 0 
0 279 0 -221 1 0 0 175 1 -106 0 412 0 -182 1 -18 
0 -189 1 96 0 106 1 -27 0 93 0 -253 1 0 1 0 
0 234 0 -142 1 -110 0 28 1 -314 0 -11 1 0 0 255 
1 12 1 364 0 18 1 -137 0 52 1 -424 0 406 0 -305 
1 0 0 246 1 0 1 42 0 -99 1 0 1 16 0 -16 
0 112 1 0 0 -160 0 79 1 0 0 -2 1 -41 1 0 
0 -160 1 0 0 -132 1 0 0 221 0 -89 1 0 0 87 
1 163 0 -209 1 190 0 -148 1 0 0 -72 0 192 1 0 
0 209 1 -349 0 -234 0 88 1 183 0 128 0 -22 1 22 
0 161 0 -78 1 78 0 -205 1 0 0 -105 1 0 0 149 
0 -216 0 70 1 0 0 -10 1 -8 0 193 0 -120 1 -77 
0 -10 0 96 1 -83 1190 1515 100 MP stroke
0 129 0 -3 1 0 0 -15 1 -150 0 -95 1 0 0 23 
1 0 1 139 0 239 0 -211 1 43 0 114 0 -114 1 0 
1 0 0 -252 0 78 1 -354 0 503 1 -105 0 -170 1 0 
0 -132 0 300 1 258 0 126 0 -316 1 0 1 -16 0 26 
1 13 0 170 0 -157 1 -1 0 -210 1 0 0 54 1 0 
0 264 0 -318 0 166 1 577 0 -277 1 0 0 -176 1 0 
0 -168 1 368 0 -536 1 0 0 -51 0 86 1 132 0 101 
1 0 0 -63 1 0 0 33 1 0 0 49 1 0 0 145 
0 -376 1 0 1 268 1 -140 0 -234 1 208 0 158 0 -146 
1 22 0 -46 1 41 0 -93 0 119 1 0 0 -143 0 184 
1 0 0 -29 0 120 1 -13 0 13 1 30 0 -127 0 216 
1 0 0 -10 1 0 0 -228 1 181 0 -131 1 0 0 -138 
1 0 0 233 1 -33 1146 1363 100 MP stroke
1 0 0 18 1 -25 0 8 1 0 0 192 1 0 1 -43 
0 -395 0 212 1 -36 0 -84 1 84 1 0 0 -107 0 68 
1 38 0 -38 0 419 1 -197 0 122 0 -177 1 0 0 -102 
1 -310 0 279 1 143 0 -135 1 0 0 -208 1 0 1 0 
0 387 1 -36 0 36 1 0 0 -108 1 0 1 0 1 0 
1 -69 0 109 1 132 0 -253 0 188 1 -177 0 -136 0 324 
1 -233 0 256 0 -109 1 0 0 57 1 -246 0 290 0 -231 
1 0 1 0 1 -264 0 152 1 0 0 72 0 -310 0 238 
1 110 0 -54 1 0 0 34 0 -46 1 0 1 3 0 56 
1 0 0 312 0 -277 1 190 0 -360 1 0 0 -4 0 169 
1 -149 0 161 1 0 1 0 0 -87 1 0 0 197 0 -50 
1 68 0 -133 1 0 0 138 1 0 1 0 0 -354 0 354 
1 0 0 182 1 0 1098 1108 100 MP stroke
1 -182 0 -139 1 0 0 199 0 -117 1 0 0 -250 0 254 
1 0 1 0 0 -106 1 1 0 -1 0 1 1 -156 1 0 
0 -48 1 0 0 167 1 0 0 639 0 -681 1 0 0 542 
1 108 0 -68 0 184 1 -525 1 143 0 275 0 -480 0 105 
1 0 0 -189 1 -95 0 -36 0 24 1 64 1 0 0 -130 
1 -173 1 131 0 134 1 0 0 8 1 0 0 91 0 -325 
1 0 0 173 1 -18 1 0 0 3 1 0 0 180 0 -379 
1 267 0 24 0 -227 1 0 0 299 1 0 0 -296 1 219 
0 -288 0 36 1 0 0 -5 0 145 1 0 0 -106 1 56 
0 260 1 -56 0 111 0 -221 1 272 0 85 0 -95 1 0 
0 -249 1 0 1 0 1 0 0 157 1 212 0 -163 1 0 
0 -95 1 0 0 119 1 -166 0 82 1 -139 0 330 1 0 
0 66 0 -76 1 0 1052 1222 100 MP stroke
0 -102 1 0 0 -329 1 59 0 231 0 -51 1 228 0 -372 
1 179 0 -100 1 0 0 -575 0 185 1 -143 0 565 1 -342 
0 111 0 -247 0 25 1 411 0 204 1 -3 1 -247 1 0 
0 56 1 0 1 -73 1 0 1 0 1 117 0 111 1 -154 
0 -67 1 0 0 89 0 -172 1 0 0 204 0 -71 1 0 
0 -62 0 109 1 -263 0 563 1 0 0 -665 0 29 1 0 
0 203 1 15 0 165 0 -79 1 -375 0 414 0 -301 1 111 
0 121 0 -232 1 51 0 121 0 -83 1 -90 0 90 1 0 
0 -176 1 238 0 111 0 -37 1 -312 0 508 1 0 0 -419 
1 0 0 304 1 0 0 15 0 -132 1 0 0 -77 0 56 
1 0 0 -206 0 367 1 0 0 45 0 -3 1 0 0 -223 
1 223 0 98 1 0 0 -39 1 0 0 -192 0 89 1 0 
0 179 1 0 0 39 1009 1197 100 MP stroke
0 -267 1 0 0 129 1 -139 0 -20 0 114 1 0 0 -221 
1 0 1 239 0 -122 0 20 1 -274 0 167 0 -167 1 367 
0 -171 1 0 0 23 1 38 0 -10 1 0 1 -199 0 210 
1 0 0 277 0 -243 1 -238 0 507 1 0 1 93 0 -455 
0 238 1 -242 0 -243 0 380 1 -114 0 77 1 0 0 152 
1 0 0 -331 1 0 0 179 1 0 1 0 1 0 1 0 
1 0 0 -78 1 0 0 55 1 0 0 66 0 -207 1 -108 
0 249 1 0 0 -35 0 170 1 -5 0 -95 1 0 0 126 
1 0 0 -97 1 0 0 90 0 -8 1 0 0 8 1 0 
0 290 1 -463 0 -83 1 0 0 -27 1 0 1 166 0 -124 
0 214 1 -241 0 80 1 0 0 61 1 -39 1 0 0 84 
1 -387 0 344 1 0 0 25 0 -102 1 345 0 -336 0 143 
1 0 0 -66 0 20 962 1408 100 MP stroke
1 -20 1 0 0 -204 1 0 0 248 1 0 0 149 0 -241 
1 26 0 -199 1 124 0 -102 1 -135 0 135 1 103 0 -123 
1 0 0 -23 1 22 1 193 0 208 1 -187 0 -38 0 38 
1 -219 0 188 1 0 0 -92 1 0 0 41 0 -195 1 181 
0 -21 1 0 0 68 1 0 0 180 1 -62 0 -26 1 -155 
0 -37 1 -170 1 115 1 0 0 176 1 0 0 -120 1 0 
0 -25 1 402 0 -402 0 25 1 0 1 37 0 241 0 -28 
1 -341 0 153 0 -232 0 65 1 0 1 0 0 248 1 138 
0 -255 1 0 0 387 1 0 0 -499 0 426 1 0 0 -13 
1 0 0 -123 1 0 0 -73 0 213 1 0 0 -291 0 291 
1 -207 1 0 0 207 0 -239 0 139 1 0 0 -224 0 176 
1 0 0 174 1 0 0 -135 1 0 0 -108 1 108 1 6 
0 37 1 0 0 -298 915 1602 100 MP stroke
1 0 0 298 0 -93 1 0 0 -163 1 174 0 -270 0 221 
1 -263 0 490 1 0 0 -107 1 -189 1 0 0 -133 0 96 
1 161 0 -43 1 0 0 -40 1 0 0 178 1 -178 0 -135 
1 0 0 117 0 -117 1 0 0 14 0 -93 0 16 1 0 
0 159 1 0 0 -159 1 -281 0 281 899 1661 38 MP stroke
gr

1484  286 mt 
(\(a\) ) s
%%IncludeResource: font Symbol
/Symbol /ISOLatin1Encoding 120 FMSR

1664  286 mt 
(u) s
1 sg
0 1769 1419 0 0 -1769 2839 2158 4 MP
PP
-1419 0 0 1769 1419 0 0 -1769 2839 2158 5 MP stroke
4 w
DO
SO
6 w
0 sg
2839 2158 mt 4258 2158 L
2839  389 mt 4258  389 L
2839 2158 mt 2839  389 L
4258 2158 mt 4258  389 L
2839 2158 mt 4258 2158 L
2839 2158 mt 2839  389 L
2839 2158 mt 2839 2140 L
2839  389 mt 2839  406 L
%%IncludeResource: font Helvetica
/Helvetica /ISOLatin1Encoding 120 FMSR

2806 2303 mt 
(0) s
3312 2158 mt 3312 2140 L
3312  389 mt 3312  406 L
3179 2303 mt 
(2000) s
3785 2158 mt 3785 2140 L
3785  389 mt 3785  406 L
3652 2303 mt 
(4000) s
4258 2158 mt 4258 2140 L
4258  389 mt 4258  406 L
4125 2303 mt 
(6000) s
2839 1863 mt 2856 1863 L
4258 1863 mt 4240 1863 L
2571 1907 mt 
(0.08) s
2839 1568 mt 2856 1568 L
4258 1568 mt 4240 1568 L
2571 1612 mt 
(0.09) s
2839 1273 mt 2856 1273 L
4258 1273 mt 4240 1273 L
2638 1317 mt 
(0.1) s
2839  978 mt 2856  978 L
4258  978 mt 4240  978 L
2571 1022 mt 
(0.11) s
2839  683 mt 2856  683 L
4258  683 mt 4240  683 L
2571  727 mt 
(0.12) s
2839  389 mt 2856  389 L
4258  389 mt 4240  389 L
2571  433 mt 
(0.13) s
2839 2158 mt 4258 2158 L
2839  389 mt 4258  389 L
2839 2158 mt 2839  389 L
4258 2158 mt 4258  389 L
gs 2839 389 1420 1770 MR c np
1 138 0 350 0 -217 1 0 0 117 1 -27 0 -436 0 187 
1 0 0 228 1 -25 0 18 0 -82 1 123 1 8 0 -566 
1 400 0 -21 0 110 1 0 0 -233 1 0 0 -199 1 0 
0 463 0 -62 1 135 0 82 0 -337 1 0 0 201 1 -350 
0 342 1 52 0 -469 1 0 1 0 0 159 1 0 0 -217 
0 468 1 0 0 64 0 -115 1 234 0 -448 1 -34 0 34 
0 -317 1 317 0 192 1 0 0 -221 1 262 0 9 1 100 
0 -166 1 0 0 -86 1 0 0 -202 0 284 1 0 0 -571 
1 0 0 80 1 -125 0 177 1 0 0 153 1 -108 0 293 
0 -99 1 0 1 0 0 -337 1 196 0 -196 1 132 1 0 
1 242 1 0 0 85 1 0 0 421 1 0 0 -720 1 628 
0 -201 1 293 0 -525 0 29 1 0 0 229 1 0 0 -54 
1 0 0 54 0 -482 3975 1510 100 MP stroke
1 71 0 200 1 185 0 16 1 -228 1 172 1 0 0 -22 
1 147 0 -22 1 0 0 -127 0 33 1 0 1 47 1 -92 
0 -145 0 237 1 -364 0 252 1 240 0 -366 1 54 0 78 
0 -78 1 0 0 104 1 -214 1 2 1 0 0 99 1 0 
0 -192 0 293 1 0 0 -125 1 0 1 0 0 555 1 0 
0 -488 1 0 0 -63 1 0 0 286 1 -106 0 -137 1 -197 
0 -46 1 0 0 126 0 -88 1 0 0 237 1 55 1 91 
0 25 1 0 0 -582 1 488 0 -566 1 254 0 248 0 -8 
1 0 1 8 0 -224 1 0 0 205 1 0 0 -205 1 0 
0 184 0 -150 1 0 0 86 0 -86 1 0 0 153 1 0 
0 450 0 -364 1 0 0 -82 1 -161 1 0 0 72 1 67 
1 0 0 299 1 -96 1 -138 0 14 1 -103 0 -129 0 129 
1 0 0 98 0 -206 3925 1350 100 MP stroke
1 0 1 0 0 80 1 0 1 13 0 -179 1 0 0 330 
1 0 0 -438 1 0 0 814 1 -266 0 -223 1 0 0 -195 
1 168 0 -248 1 188 0 126 1 0 0 247 1 -107 0 54 
1 0 0 -280 0 116 1 0 0 63 0 -282 1 0 0 127 
1 0 0 145 1 -145 0 182 1 0 0 -157 1 0 0 167 
1 0 0 -105 1 63 0 261 1 0 1 -172 1 0 1 0 
0 -200 1 81 0 -194 0 272 1 -72 0 -200 1 130 0 -67 
1 -63 1 0 0 -202 0 242 1 -184 1 0 0 54 1 0 
0 -152 0 429 1 0 0 409 0 -325 1 -251 0 141 0 -202 
1 0 1 0 0 256 0 -73 1 -166 0 239 1 0 1 0 
0 113 0 -74 1 0 0 -154 1 0 1 0 0 200 1 0 
0 -77 1 0 0 -8 1 -127 0 -11 1 0 0 286 0 -103 
1 -72 1 316 0 -119 3875 931 100 MP stroke
1 235 0 -482 1 295 0 -261 1 -18 0 -62 0 143 1 198 
1 -590 1 372 0 -18 1 0 0 -25 1 0 0 387 0 -169 
1 85 0 -321 1 -40 0 297 0 -158 1 0 0 400 0 -320 
1 -79 0 -119 0 104 1 -81 0 127 1 0 0 -224 1 0 
0 322 1 -128 0 188 0 -151 1 -111 0 -290 0 220 1 305 
0 -198 0 198 1 -447 0 -56 0 77 1 0 0 408 1 -18 
0 -92 0 28 1 0 0 262 1 0 0 -91 1 0 1 0 
0 16 1 -282 0 289 0 -202 1 -225 0 222 0 -63 1 0 
0 -100 1 0 0 41 0 -230 0 174 1 0 0 -168 1 81 
0 -311 1 0 0 315 1 -71 1 33 0 240 0 -158 1 0 
0 -19 1 0 0 -152 1 0 0 304 0 -456 1 456 0 -202 
0 9 1 0 0 675 1 -241 0 -91 1 0 0 72 1 0 
0 -167 1 95 0 -197 3832 1142 100 MP stroke
1 141 1 -29 0 96 1 0 0 -330 1 0 0 -181 1 0 
0 354 0 -173 1 0 0 234 1 0 0 -197 1 -37 0 143 
1 -17 0 -11 0 234 1 0 0 -174 1 50 1 0 0 42 
1 0 0 -354 1 423 0 4 1 0 0 -412 0 374 1 0 
0 98 1 -123 0 123 1 0 0 -431 0 522 1 0 0 -544 
1 0 0 183 1 0 0 -91 0 57 1 0 0 -57 1 -165 
0 179 0 -65 1 0 0 246 0 -246 1 0 1 175 1 47 
0 -145 1 0 0 -55 1 0 0 421 0 -528 1 0 0 445 
0 -273 1 0 0 264 0 -85 1 42 1 0 0 103 1 0 
0 -219 1 0 0 -14 0 85 1 -110 0 -296 1 12 0 506 
1 0 0 -101 0 129 1 -129 0 -47 0 4 1 0 1 52 
0 128 1 0 0 -281 1 0 1 -45 0 188 0 -389 1 0 
0 139 1 0 0 340 3786 913 100 MP stroke
1 0 0 -200 1 0 1 -53 1 0 1 -8 0 168 1 -70 
0 -364 0 322 1 0 1 0 0 -149 1 0 1 0 0 233 
0 -66 1 -26 0 -88 0 241 1 26 0 -145 1 0 0 -90 
1 0 0 289 0 -289 1 0 0 -73 1 0 1 0 0 433 
1 0 0 -646 0 58 1 0 0 488 0 -177 1 0 0 -527 
0 364 1 86 0 -230 1 242 0 75 0 -381 1 0 0 406 
0 -429 1 0 1 0 0 434 0 -116 1 -57 0 -7 1 270 
0 -54 0 84 1 0 1 -163 0 -111 1 0 0 472 1 0 
0 -91 1 -346 0 435 0 -501 1 503 1 0 0 -146 1 0 
1 -165 1 0 0 -171 1 472 0 -517 1 280 0 89 1 0 
0 -278 1 54 0 -46 1 -114 0 210 1 0 0 17 1 0 
0 196 0 -631 1 0 0 256 1 182 0 51 1 0 0 -86 
1 0 1 0 0 81 3737 1007 100 MP stroke
1 0 0 -281 1 0 0 19 1 0 0 -18 1 0 0 -42 
1 0 0 181 0 -33 1 0 0 101 0 -122 1 0 0 261 
0 -53 1 152 0 -207 1 36 0 -413 1 322 0 -230 1 0 
1 0 0 153 1 0 0 101 1 0 0 77 0 -77 1 -392 
0 335 1 -258 0 226 1 40 1 160 0 -137 0 328 1 -357 
0 10 1 -10 1 0 0 -118 1 79 0 -74 0 18 1 180 
0 -224 1 0 1 -28 0 252 0 -228 1 117 1 0 0 -400 
1 0 0 400 1 0 0 243 0 -542 1 0 0 224 1 0 
0 -12 0 62 1 -286 0 730 0 -369 1 0 0 369 0 -516 
1 516 0 -734 1 451 1 -18 0 -106 1 -141 1 0 1 -52 
0 78 0 -228 1 186 0 453 0 -177 1 0 1 0 0 -194 
0 289 1 0 0 -91 1 -234 0 51 1 -204 0 403 1 -62 
0 60 1 0 0 -473 3690 1485 100 MP stroke
0 60 1 254 0 59 1 -358 0 -105 0 165 1 -75 0 451 
0 -346 1 0 0 350 1 0 0 -184 1 239 0 38 0 -148 
1 0 1 0 0 268 0 -284 1 0 0 53 1 0 1 0 
0 -215 1 223 0 -197 1 0 1 0 0 -238 1 756 0 -605 
1 154 0 -7 1 0 0 -344 1 0 0 103 1 229 0 230 
1 0 1 -29 0 29 1 0 1 -49 1 -93 1 0 0 -181 
1 416 0 -138 1 -206 0 317 0 -111 1 -23 0 -118 0 115 
1 159 0 -218 1 -28 1 -111 0 332 0 -221 1 221 0 -147 
1 -40 0 -133 1 0 0 133 1 0 0 126 1 0 1 0 
0 -341 1 0 0 235 0 -119 1 86 0 200 0 -105 1 340 
0 -607 1 86 0 223 0 -302 1 271 0 94 1 0 0 -105 
1 175 1 0 0 -59 1 106 0 -47 1 0 0 -447 1 0 
0 278 1 3 0 -26 3641 1018 100 MP stroke
1 0 0 -156 1 53 0 -132 1 162 1 0 0 -61 1 0 
1 0 1 0 1 1 0 63 0 -42 1 0 0 28 1 0 
0 -152 0 21 1 0 1 0 0 225 1 103 0 -103 1 0 
0 -252 1 218 1 0 1 0 0 -121 1 0 0 -202 0 268 
1 255 0 -94 0 69 1 -633 0 298 1 -187 0 187 0 -271 
1 0 0 317 1 119 0 46 1 0 1 0 0 -365 1 0 
0 287 1 78 0 -294 1 294 0 12 1 0 0 -290 1 32 
0 96 1 0 0 -96 1 0 0 265 1 16 0 343 1 0 
1 -425 0 10 0 -323 1 276 0 -308 1 339 0 250 1 -232 
0 31 1 0 0 261 0 -261 1 -165 0 130 0 -51 1 0 
0 -245 0 245 1 -58 1 0 0 202 1 0 1 0 0 -280 
1 32 1 2 0 -68 0 204 1 0 0 -92 1 0 0 -195 
1 0 0 73 0 -20 3591 1281 100 MP stroke
1 0 0 -398 0 164 1 0 0 202 0 -134 1 571 0 -91 
1 -244 0 73 1 0 0 -73 1 -21 0 -96 0 480 1 0 
0 -303 1 0 0 -183 1 0 1 0 1 0 0 183 1 0 
1 0 0 -50 1 0 0 356 1 -379 1 0 0 69 1 0 
0 68 1 0 0 -225 1 0 1 234 0 -239 1 0 0 -10 
0 10 1 35 0 346 1 0 0 -166 1 0 0 314 0 -55 
1 -93 0 -420 1 0 0 451 1 0 0 -480 1 146 0 -302 
1 133 1 0 0 144 1 0 0 -211 1 0 1 0 0 474 
1 0 0 -327 1 0 0 95 1 0 0 153 1 0 0 -153 
1 230 0 -334 0 411 1 -45 0 -447 1 0 0 423 0 -266 
1 245 0 -277 1 463 0 -321 1 -131 0 97 1 45 0 -265 
1 0 0 68 1 262 0 -357 1 0 0 261 1 0 0 -172 
1 0 0 -54 0 126 3542 1271 100 MP stroke
1 0 1 317 0 -531 1 -149 0 414 1 0 0 -86 0 279 
1 0 1 0 0 -249 1 0 1 118 1 0 1 0 0 -169 
1 0 1 0 1 0 0 193 1 0 1 0 0 -66 1 -19 
0 -146 1 57 0 321 0 -380 0 321 1 0 0 -174 1 174 
1 13 0 -129 1 -223 1 62 1 0 0 335 0 -89 1 0 
0 192 1 0 0 65 0 -269 0 24 1 0 0 -150 1 0 
0 71 1 -26 0 -142 0 393 1 0 0 -251 1 -94 0 94 
1 0 0 79 1 0 0 -212 1 -71 0 424 0 -306 1 0 
0 -340 1 0 0 340 1 -82 1 0 1 189 0 -122 1 0 
0 -225 0 25 1 0 0 541 1 0 0 -258 1 0 0 -283 
1 91 0 254 0 -320 1 0 0 -207 0 649 1 -356 0 221 
1 0 0 -432 1 0 0 229 0 -39 1 -47 0 -163 0 163 
1 670 0 -684 0 130 3493 1312 100 MP stroke
1 0 0 342 0 -334 1 0 0 43 1 0 0 -113 1 -27 
0 6 1 0 0 -165 0 424 1 0 0 -211 1 0 0 -34 
1 0 0 590 1 -372 1 -115 1 0 0 -242 0 201 1 109 
0 -18 1 -83 0 -34 0 34 1 0 0 326 1 -183 1 0 
0 56 1 0 1 0 0 124 1 -204 0 80 0 -38 1 0 
0 -136 1 0 0 257 0 -187 1 0 0 187 1 0 1 18 
0 92 1 0 0 -219 1 -51 1 0 0 171 1 0 0 -281 
1 68 0 182 1 0 1 0 0 64 1 0 0 -262 1 195 
1 0 1 0 0 -433 0 433 1 -29 0 -14 1 9 0 -339 
0 292 1 -129 0 304 0 -31 1 0 0 -344 1 0 1 0 
0 302 1 0 1 -436 0 330 1 -129 0 139 0 -88 1 -28 
0 73 1 191 0 -381 0 122 1 0 0 -152 0 440 1 0 
0 -299 1 315 0 -247 3444 1181 100 MP stroke
0 247 1 0 0 -30 0 20 1 -5 0 -118 1 24 0 115 
1 0 0 -320 1 0 0 337 0 -461 0 135 1 0 0 -100 
0 208 1 0 0 -267 1 342 0 153 0 -7 1 -154 0 -222 
1 121 0 -82 1 148 0 194 1 0 1 -91 1 0 0 -183 
1 0 0 9 0 -176 1 176 0 310 1 -528 1 0 0 452 
1 0 0 -393 1 -130 0 79 1 0 0 132 1 0 0 -141 
0 322 1 0 0 -80 0 320 1 -355 0 41 0 -152 1 0 
0 266 1 95 0 -200 1 0 0 -33 1 0 0 -22 0 47 
1 -54 0 2 1 0 0 -67 1 124 0 -88 1 0 0 -179 
0 380 1 0 0 -248 1 0 0 111 0 -229 1 -27 0 482 
0 -82 1 0 0 27 0 -461 0 273 1 135 0 -365 1 0 
0 265 0 -290 1 0 0 238 1 -110 0 -184 0 494 1 -494 
0 418 1 0 0 75 3402 992 100 MP stroke
1 0 0 -343 1 0 0 570 1 0 0 -459 1 0 0 377 
0 -162 1 0 1 0 0 122 1 0 0 -328 1 0 0 206 
1 0 0 -55 1 0 0 81 1 0 1 0 0 -403 1 168 
0 -66 0 83 1 0 0 23 1 0 1 0 0 -65 1 0 
0 79 1 0 1 0 0 194 1 -2 0 -134 1 0 0 258 
1 0 0 -340 1 202 1 0 0 -293 0 379 1 0 0 25 
0 -43 1 0 1 -189 1 0 1 0 0 179 1 0 0 -270 
0 40 1 -44 1 0 1 0 1 0 0 372 0 -221 1 0 
0 22 1 0 0 -358 1 49 1 0 0 233 1 0 1 -244 
0 210 1 0 0 -84 0 230 1 0 0 -111 1 0 0 438 
0 -288 1 0 1 -339 0 -161 1 0 0 414 0 -182 1 179 
0 35 1 0 0 149 1 -184 0 -473 1 208 0 -393 1 541 
0 126 0 -274 0 44 3351 1264 100 MP stroke
1 0 0 -3 1 0 0 49 1 243 0 -167 1 0 0 -26 
0 130 1 0 0 -128 0 413 1 -305 0 145 0 -145 1 65 
0 -80 0 280 1 -521 0 226 0 -254 1 0 0 415 0 -244 
1 0 0 -144 1 308 0 69 1 -67 0 -195 0 245 1 0 
0 -50 1 0 1 -6 0 37 1 0 0 -285 1 285 0 120 
1 0 0 -444 1 149 0 72 1 0 0 -118 1 108 0 -16 
1 -245 0 467 0 -342 1 179 0 -280 1 0 0 -196 0 320 
1 -288 0 67 1 0 0 -7 1 0 0 7 0 -90 1 0 
0 88 1 -198 0 658 1 -237 0 -362 1 287 0 -9 1 126 
0 -434 1 -182 0 182 1 -121 0 193 1 -153 0 248 1 -201 
0 446 1 0 0 -191 0 19 1 0 0 321 0 -209 1 0 
0 501 0 -254 1 0 0 318 1 0 0 -404 1 0 0 405 
0 -135 1 0 0 135 3308 674 100 MP stroke
1 0 0 -270 1 0 0 331 1 -624 0 383 1 0 0 141 
1 -193 0 113 0 -170 1 0 0 -241 0 68 1 389 0 -617 
1 84 0 415 0 -179 1 0 0 -158 1 82 0 76 0 -325 
1 180 0 -78 1 0 0 -90 0 241 1 -125 0 -119 1 0 
0 129 1 -48 0 26 1 0 0 -8 0 53 1 0 0 -53 
1 0 0 -294 0 211 1 304 0 51 1 0 0 -355 0 268 
1 0 0 91 0 -359 0 334 1 0 0 -44 1 0 0 -39 
1 -21 0 112 1 0 0 -178 1 0 0 53 0 -177 1 246 
0 402 1 0 0 -732 1 0 0 160 1 0 0 -107 1 373 
0 -267 1 -113 0 238 1 0 0 200 0 -65 1 0 0 -11 
1 54 0 -54 1 0 0 -170 0 439 1 0 0 -365 1 0 
0 224 0 -31 1 -130 0 -28 0 189 1 0 0 -283 0 494 
1 -299 1 0 0 -544 3266 1484 100 MP stroke
1 557 0 -436 0 117 1 0 0 76 0 -96 1 0 0 -393 
0 442 1 0 0 73 1 0 0 114 0 -139 1 0 0 221 
0 -409 1 188 0 235 1 0 0 -135 1 -5 0 194 0 -143 
1 102 0 -205 0 317 1 0 0 71 0 -344 1 -329 0 146 
1 -71 0 329 1 0 0 -267 0 163 1 -87 1 0 0 333 
0 -126 1 0 0 -83 1 0 0 -290 0 281 1 0 1 0 
0 187 0 -127 1 -164 0 277 0 -100 1 -331 0 149 1 0 
0 -168 1 124 0 -124 1 -82 0 88 1 133 0 245 0 -64 
1 0 0 -62 1 0 1 0 0 265 0 -459 0 84 1 -62 
0 -21 1 0 0 -53 0 77 1 148 1 0 0 187 0 -358 
1 0 0 171 1 0 0 -173 1 0 0 216 1 122 0 256 
1 -243 0 190 0 -514 1 0 0 -73 1 -41 1 80 1 101 
0 83 0 -264 1 0 3223 1383 100 MP stroke
0 153 0 -14 1 0 1 202 0 -136 1 -34 0 169 0 -224 
1 217 0 -225 1 0 0 336 1 0 0 16 0 -393 1 -3 
0 155 1 -79 0 -277 1 645 0 -473 1 -126 1 465 1 0 
0 77 1 -398 1 356 1 -1 0 -154 1 0 0 228 1 0 
0 -344 0 206 1 0 0 -105 1 0 1 0 1 8 0 391 
0 -144 1 0 0 -420 1 0 0 -58 1 134 1 0 0 173 
0 -29 1 -23 0 -317 1 0 0 409 1 0 0 -384 1 226 
1 0 1 46 0 -288 0 314 1 40 0 -244 1 0 1 199 
0 -199 0 250 1 0 0 -4 0 346 1 0 0 -687 0 62 
1 -182 1 0 0 416 1 0 0 -2 0 85 1 0 1 0 
0 54 1 -115 1 0 0 -215 1 215 0 -349 1 0 0 82 
1 0 0 9 0 -91 1 0 0 -130 1 0 0 187 1 0 
1 315 0 -357 0 150 3173 1271 100 MP stroke
1 -22 0 -76 1 0 0 520 1 -322 0 115 1 0 0 -320 
0 228 1 0 0 -351 0 51 1 385 0 -47 1 -51 0 -183 
1 -45 0 382 1 0 1 0 0 -350 0 388 1 -53 0 172 
1 0 0 -21 1 0 0 -160 0 7 1 0 0 -492 1 0 
0 107 1 0 0 302 1 0 0 -228 0 189 1 0 0 36 
0 -327 1 0 0 -9 1 0 0 99 1 0 0 46 1 -46 
0 -72 1 222 0 -208 0 115 1 0 0 102 1 0 1 0 
0 104 1 0 0 287 1 -287 0 -16 0 16 1 0 0 -282 
1 0 0 174 0 -86 1 0 0 13 1 -42 0 301 0 -313 
1 90 0 -275 0 271 1 446 0 -448 1 -189 0 77 0 -77 
1 0 0 -131 1 46 0 294 1 0 0 133 1 -156 0 176 
0 -109 1 0 0 106 0 -101 1 -56 0 -11 0 108 1 0 
0 58 0 -224 0 120 3131 1171 100 MP stroke
1 -134 0 85 1 -43 0 160 1 111 0 -3 1 0 0 3 
1 0 0 79 1 -510 0 179 0 -13 1 35 0 -35 1 0 
1 0 0 596 1 0 0 -473 0 155 1 0 0 -196 0 282 
1 0 0 82 0 -381 0 16 1 -201 0 -68 0 253 1 0 
0 -13 1 0 0 -11 0 34 1 -237 0 203 1 21 0 335 
1 0 0 -34 1 34 0 -896 1 128 0 25 1 0 0 270 
1 0 0 178 0 -387 1 0 0 641 1 203 0 -257 1 -63 
0 -121 1 0 0 36 1 0 0 -177 1 0 0 155 1 -155 
0 -183 0 515 1 0 0 -288 1 0 0 118 1 0 0 335 
0 -356 1 -141 0 269 0 -9 1 -105 0 106 1 -12 0 68 
0 -182 1 31 0 134 0 -309 1 203 0 -187 1 -9 0 22 
1 36 0 -243 1 0 0 166 1 0 0 292 0 -322 1 0 
0 228 1 0 0 148 3088 955 100 MP stroke
1 -304 0 5 0 -5 1 0 1 -13 1 81 0 -58 1 -173 
0 -99 1 0 0 97 1 0 0 392 0 -198 1 107 0 78 
1 -78 1 0 0 42 0 -79 1 3 0 -536 0 357 1 -140 
0 -20 0 260 1 0 0 -88 0 415 1 -321 0 -50 1 0 
0 162 1 0 0 105 1 0 1 -374 0 -26 1 0 0 26 
1 0 0 183 1 0 1 0 1 0 0 8 1 0 0 -225 
1 0 0 324 0 -288 1 327 0 -338 0 384 1 -395 0 145 
1 -104 0 -84 0 332 1 -331 0 194 1 0 1 0 0 387 
1 0 0 -226 1 0 0 367 0 -367 1 -80 0 53 1 0 
0 87 0 -117 1 0 0 107 1 0 0 -82 1 -357 0 357 
0 -89 1 -145 0 463 1 -12 0 -208 0 194 1 -46 0 -168 
1 0 1 0 0 216 1 0 0 -417 0 85 1 0 0 -54 
1 0 0 -69 1 0 3041 1376 100 MP stroke
1 0 0 284 0 -284 1 -141 0 -71 1 0 0 212 1 0 
0 91 1 0 0 -148 0 160 1 238 0 -239 1 0 1 120 
0 -10 1 0 0 125 1 0 1 0 0 73 1 0 0 -250 
1 0 0 -622 0 774 1 0 0 -912 1 -98 0 568 1 0 
0 -152 1 -210 0 742 0 -207 1 0 0 178 1 159 0 -155 
0 40 1 0 1 0 0 191 1 60 1 -100 0 -91 1 -12 
1 196 0 -480 0 480 1 0 0 -259 1 114 1 24 1 0 
0 -368 0 257 1 -105 0 256 1 0 0 -231 0 16 1 0 
0 216 0 -332 1 474 0 -89 1 87 0 -87 1 0 0 27 
1 62 0 -303 1 -204 0 307 0 -196 1 -33 0 -170 0 94 
1 0 0 291 1 0 1 0 1 0 0 -399 1 0 0 205 
1 0 0 -81 0 111 1 0 0 -130 0 94 1 0 0 -127 
0 221 1 -89 0 -281 2994 1495 100 MP stroke
1 0 0 -84 1 0 0 287 1 0 0 282 1 -161 0 -73 
0 26 1 -160 0 385 1 -200 0 24 0 -80 1 0 0 761 
0 -46 1 -524 0 264 1 153 0 -334 0 238 1 -635 0 -24 
1 29 0 298 1 0 1 -200 1 0 1 297 1 0 1 0 
1 -158 0 -207 1 237 0 83 1 0 0 -94 0 201 1 -107 
0 -84 1 0 0 -200 1 302 0 84 0 -595 1 0 0 679 
0 -114 1 0 0 -128 1 -266 0 160 1 406 0 -300 0 302 
1 -150 0 150 0 -248 0 102 1 -224 0 224 0 -251 0 136 
1 0 0 -136 1 0 0 394 1 -421 0 -95 0 86 1 430 
0 -566 1 103 0 -61 0 309 1 0 0 -309 0 185 1 0 
0 -130 0 181 1 0 0 86 0 -219 1 -18 0 299 0 -313 
1 0 0 -10 0 87 1 0 0 235 1 -235 0 -194 1 0 
0 77 1 215 0 -160 2951 1212 100 MP stroke
1 0 0 -245 1 0 0 -99 0 364 1 0 0 -145 0 161 
1 -68 0 -84 1 0 0 235 1 0 1 -24 0 -213 0 570 
1 -206 0 206 0 -368 1 0 0 29 1 0 0 -98 1 13 
0 65 1 0 0 252 1 0 0 -248 1 0 0 -310 0 254 
1 287 0 -643 1 0 0 -37 1 560 0 -354 1 323 0 85 
0 -316 0 67 1 -52 0 81 1 0 0 -227 1 0 0 416 
1 -189 1 0 1 0 1 0 1 0 1 0 0 110 1 0 
0 -148 1 0 0 340 1 -340 0 195 0 -195 1 0 0 93 
0 -238 1 82 0 14 1 0 0 -27 1 0 0 18 1 0 
0 -140 1 0 0 69 1 0 0 -416 1 550 0 54 1 0 
0 60 1 0 1 -155 0 84 0 -60 1 113 0 -58 1 50 
1 -20 1 0 0 17 0 -134 1 376 0 -416 1 0 0 291 
0 -458 1 0 0 357 2903 1102 100 MP stroke
0 -268 1 0 0 154 1 -21 1 0 0 295 1 0 0 -216 
1 0 0 -357 0 353 1 -12 0 220 1 -296 0 306 1 100 
0 -100 1 -91 0 106 2 107 1 -200 0 -595 0 418 1 0 
0 62 0 -62 1 309 0 -301 1 0 0 61 1 0 0 241 
0 -19 1 0 0 -80 1 0 0 -186 1 0 0 -236 1 43 
0 95 1 231 0 11 1 147 1 20 1 0 0 -282 1 0 
0 67 1 74 1 -431 0 431 0 -74 1 0 1 112 0 -347 
0 488 1 -173 0 286 0 -13 1 0 1 0 0 -527 1 -24 
0 176 1 0 0 -437 1 0 0 662 0 -524 1 0 0 -84 
1 0 0 268 1 0 0 63 0 -251 1 0 0 342 0 -342 
1 229 1 0 0 56 0 -285 0 132 1 0 0 110 0 -165 
1 0 0 -156 1 0 0 136 1 0 0 242 1 -242 1 120 
0 -129 1 0 0 129 2855 1226 100 MP stroke
0 -6 1 0 0 -295 0 49 1 0 0 348 1 -171 0 456 
1 -162 0 -474 1 0 0 121 1 235 1 0 0 250 1 -199 
0 -194 1 0 0 146 1 0 0 -240 1 240 0 134 1 0 
0 -224 0 224 1 0 0 124 0 -184 1 0 0 -35 1 0 
0 35 1 350 0 -350 2839 1048 36 MP stroke
gr

3395  240 mt 
(\(b\) ) s
%%IncludeResource: font Symbol
/Symbol /ISOLatin1Encoding 120 FMSR

3575  240 mt 
(a) s
%%IncludeResource: font Helvetica
/Helvetica /ISOLatin1Encoding 96 FMSR

3650  300 mt 
(1) s
1 sg
0 1769 1419 0 0 -1769 4780 2158 4 MP
PP
-1419 0 0 1769 1419 0 0 -1769 4780 2158 5 MP stroke
4 w
DO
SO
6 w
0 sg
4780 2158 mt 6199 2158 L
4780  389 mt 6199  389 L
4780 2158 mt 4780  389 L
6199 2158 mt 6199  389 L
4780 2158 mt 6199 2158 L
4780 2158 mt 4780  389 L
4780 2158 mt 4780 2140 L
4780  389 mt 4780  406 L
%%IncludeResource: font Helvetica
/Helvetica /ISOLatin1Encoding 120 FMSR

4747 2303 mt 
(0) s
5253 2158 mt 5253 2140 L
5253  389 mt 5253  406 L
5120 2303 mt 
(2000) s
5726 2158 mt 5726 2140 L
5726  389 mt 5726  406 L
5593 2303 mt 
(4000) s
6199 2158 mt 6199 2140 L
6199  389 mt 6199  406 L
6066 2303 mt 
(6000) s
4780 1804 mt 4797 1804 L
6199 1804 mt 6181 1804 L
4512 1848 mt 
(0.16) s
4780 1450 mt 4797 1450 L
6199 1450 mt 6181 1450 L
4512 1494 mt 
(0.18) s
4780 1096 mt 4797 1096 L
6199 1096 mt 6181 1096 L
4579 1140 mt 
(0.2) s
4780  742 mt 4797  742 L
6199  742 mt 6181  742 L
4512  786 mt 
(0.22) s
4780  389 mt 4797  389 L
6199  389 mt 6181  389 L
4512  433 mt 
(0.24) s
4780 2158 mt 6199 2158 L
4780  389 mt 6199  389 L
4780 2158 mt 4780  389 L
6199 2158 mt 6199  389 L
gs 4780 388 1420 1771 MR c np
1 43 0 520 0 -249 1 0 0 123 1 -97 0 -393 0 77 
1 0 0 361 1 -15 0 -200 1 179 1 51 0 -526 1 359 
0 -67 0 50 1 0 0 -124 1 0 0 -133 1 0 0 402 
0 -52 1 64 0 43 0 -351 1 0 0 330 1 -368 0 408 
1 -5 0 -497 1 0 1 0 0 82 1 0 0 -132 0 405 
1 0 0 101 0 -101 1 176 0 -418 1 0 0 -164 1 133 
0 235 1 0 0 -216 1 265 0 -94 1 184 0 -202 1 0 
0 -57 1 0 0 -198 0 297 1 0 0 -473 1 0 0 81 
1 -89 0 103 1 0 0 145 1 -26 0 285 0 -160 1 0 
1 0 0 -304 1 -3 0 3 1 102 1 0 1 258 1 0 
0 91 1 0 0 301 1 0 0 -720 1 556 0 -72 1 236 
0 -426 0 63 1 0 0 101 1 0 0 -36 1 0 0 36 
0 -454 1 137 0 186 5915 1220 100 MP stroke
1 153 0 33 1 -165 1 157 1 0 0 -21 1 89 0 -135 
1 0 0 -103 0 41 1 0 1 149 1 -7 0 -224 0 231 
1 -363 0 205 1 92 0 -226 1 119 0 88 0 -88 1 0 
0 28 1 -149 1 19 1 0 0 66 1 0 0 -240 0 262 
1 0 0 -120 1 0 1 0 0 479 1 0 0 -447 1 0 
0 9 1 0 0 266 1 -6 0 -186 1 -99 0 -63 1 0 
0 -73 1 0 0 288 1 47 1 142 0 -120 0 69 1 0 
0 -511 1 450 0 -477 1 153 0 228 0 -41 1 0 1 41 
0 -191 1 0 0 122 1 0 0 -122 1 0 0 115 0 -65 
1 0 0 -10 0 10 1 0 0 237 1 0 0 417 0 -293 
1 0 0 -183 0 20 1 -283 1 0 0 136 1 50 1 0 
0 305 1 -134 1 -127 0 58 1 -183 0 -37 0 84 1 0 
0 22 0 -103 1 0 5865 1335 100 MP stroke
1 0 0 23 1 0 1 -6 0 -117 1 0 0 329 1 0 
0 -416 1 0 0 715 1 -92 0 -328 1 0 0 -279 1 248 
0 -166 1 240 0 -28 0 38 1 0 0 255 1 -117 0 51 
1 0 0 -227 0 87 1 0 0 -283 1 0 0 96 1 0 
0 215 1 -215 0 177 1 0 0 -73 1 0 0 -32 0 132 
1 0 0 -58 1 53 0 151 1 0 1 -68 1 0 1 0 
0 -274 1 87 0 -164 0 250 1 -55 0 -195 1 137 0 14 
1 -151 1 0 0 -138 0 155 1 -188 1 0 0 6 1 0 
0 -70 0 422 1 0 0 335 0 -340 1 -142 0 214 0 -175 
1 0 1 0 0 155 0 -36 1 -192 0 228 1 0 1 0 
0 63 1 0 0 -171 1 0 1 0 0 210 1 0 0 -91 
1 0 0 -49 1 -92 0 16 1 0 0 170 0 -55 1 -11 
1 272 0 2 0 -49 5816 932 100 MP stroke
1 221 0 -487 1 352 0 -248 1 -106 0 -86 0 59 1 248 
1 -444 1 355 0 -88 1 0 0 62 1 0 0 280 0 -90 
1 53 0 -419 1 -77 0 451 0 -213 1 0 0 324 0 -220 
1 15 0 -204 1 -166 0 273 1 0 0 -258 1 0 0 248 
1 -1 0 169 0 -215 1 -58 0 -223 0 146 1 271 0 -196 
0 196 1 -385 0 -91 0 72 1 0 0 490 1 25 0 -139 
0 21 1 0 0 263 1 0 0 -60 1 0 1 0 0 -50 
1 -231 0 289 0 -231 1 -93 0 111 1 0 0 -257 1 0 
0 172 0 -162 1 0 0 -137 1 62 0 -283 1 0 0 231 
1 46 1 -15 0 226 0 -142 1 0 0 -7 1 0 0 -134 
1 0 0 282 0 -365 1 365 0 -185 0 63 1 0 0 561 
1 -251 0 -89 1 0 0 27 0 -75 1 0 0 48 0 -101 
1 101 0 -160 1 110 5772 1086 100 MP stroke
1 34 0 61 1 0 0 -336 1 0 0 -157 1 0 0 405 
0 -248 1 0 0 214 1 0 0 -210 1 -4 0 142 0 -51 
1 107 0 -66 0 259 1 0 0 -196 1 67 1 0 1 0 
0 -457 1 383 0 2 1 0 0 -216 0 280 1 0 0 88 
1 -113 0 113 1 0 0 -421 0 570 1 0 0 -529 1 0 
0 99 1 0 0 -77 0 140 1 0 0 -140 1 -156 0 256 
0 -134 1 0 0 327 0 -327 1 0 1 234 1 135 0 -129 
1 0 0 -97 1 0 0 447 0 -617 1 0 0 324 0 -189 
1 0 0 213 0 -63 1 -9 1 0 0 247 1 0 0 -221 
1 0 0 -66 0 150 1 -150 0 -262 1 -24 0 479 1 0 
0 -102 0 144 1 -144 0 -111 0 47 1 0 1 -16 0 197 
1 0 0 -322 1 0 1 36 0 215 0 -344 1 0 0 94 
1 0 0 347 1 0 5726 934 100 MP stroke
0 -228 1 0 1 -4 1 0 1 29 0 63 1 -43 0 -446 
0 409 1 0 1 0 0 -105 1 0 1 0 0 187 0 -85 
1 80 0 -221 0 295 1 -76 0 -120 1 0 0 -27 1 0 
0 350 0 -350 1 0 0 10 1 0 1 0 0 464 1 0 
0 -650 1 0 0 405 0 -176 1 0 0 -405 0 312 1 119 
0 -239 1 220 0 -268 1 0 0 296 0 -383 1 0 1 0 
0 477 0 -225 1 -98 0 73 1 295 0 -50 0 40 1 0 
1 -201 0 80 0 -115 1 0 0 461 1 0 0 -98 1 -277 
0 393 0 -408 1 390 1 0 0 -153 1 0 1 -50 1 0 
0 -416 1 486 0 53 0 -405 1 281 0 -30 1 0 0 -241 
1 128 0 -87 1 -114 0 301 1 0 1 0 0 195 0 -574 
1 0 0 114 1 254 0 46 1 0 0 -110 1 0 1 0 
0 19 1 0 0 -311 5677 1398 100 MP stroke
1 0 0 194 1 0 0 -5 1 0 0 -106 1 0 0 209 
0 -119 1 0 0 80 1 0 0 238 0 -13 1 64 0 -147 
1 -124 0 -324 1 256 0 -220 1 0 1 0 0 194 1 0 
0 24 1 0 0 133 0 -133 1 -416 0 421 1 -192 0 138 
1 92 1 129 0 -143 0 288 1 -306 0 -8 1 8 1 0 
0 -99 1 133 0 -174 1 297 0 -239 1 0 1 -39 0 278 
0 -166 1 -50 1 0 0 -291 1 0 0 291 1 0 0 323 
0 -524 1 0 0 269 0 -158 1 0 0 -77 0 3 1 -136 
0 739 0 -296 1 0 0 296 0 -512 1 512 0 -724 1 558 
1 -86 0 -159 1 -27 1 0 1 -137 0 52 0 -44 1 20 
0 532 0 -291 1 0 1 0 1 154 -1 -310 0 310 2 -414 
0 192 1 -127 0 296 1 -78 0 97 1 0 0 -619 0 130 
1 237 0 30 1 -190 5629 1404 100 MP stroke
0 -207 0 213 1 -213 0 466 0 -285 1 0 0 345 1 0 
0 -85 1 198 0 24 0 -186 1 0 1 0 0 311 0 -369 
1 0 0 120 1 0 1 0 0 -157 1 102 0 -54 1 0 
1 0 0 -281 1 568 0 -444 0 56 1 174 0 12 1 0 
0 -414 1 0 0 153 1 89 0 303 1 0 1 -88 0 88 
1 0 1 -50 1 -80 1 0 0 -260 1 475 0 -194 1 -109 
0 273 0 -164 1 -1 0 79 1 119 0 -102 1 -88 1 -102 
0 227 0 -295 0 6 1 289 0 -24 1 -160 0 -102 1 0 
0 102 1 0 0 143 1 0 1 0 0 -357 1 0 0 224 
0 -163 1 60 0 233 0 -107 1 371 0 -536 1 102 0 201 
0 -286 1 215 0 40 1 0 0 -53 0 42 1 30 1 0 
0 2 1 3 0 -5 1 0 0 -324 1 0 0 213 1 55 
0 -55 0 32 1 0 5581 1046 100 MP stroke
0 -219 1 46 0 -23 1 38 1 0 0 -10 1 0 1 0 
1 0 0 5 1 0 0 24 1 -1 0 47 1 0 0 -81 
1 0 1 0 0 235 1 8 0 -8 1 0 0 -303 1 279 
1 0 1 0 0 -167 1 0 0 -246 0 150 1 334 0 -169 
0 107 1 -543 0 288 1 -65 0 65 0 -141 1 0 0 141 
0 -37 1 166 0 7 1 0 1 0 0 -312 1 0 0 288 
1 24 0 -192 1 192 0 119 1 0 0 -221 1 -109 0 92 
1 0 0 -92 1 0 0 195 1 76 0 441 1 0 1 -418 
0 -341 1 205 0 -182 1 227 0 163 1 27 0 -133 1 0 
0 230 0 -230 1 -122 0 75 0 -53 1 0 0 -179 0 179 
1 88 1 0 0 -89 0 84 1 0 1 0 0 -100 1 -97 
1 3 0 128 1 0 0 -74 0 44 1 0 0 -309 1 0 
0 266 0 -130 1 0 5531 1356 100 MP stroke
0 -304 0 46 1 0 0 188 0 -50 1 490 0 4 1 -245 
0 78 1 0 0 -78 1 -129 0 -72 0 597 1 0 0 -422 
1 0 0 -113 1 0 1 0 1 0 0 113 1 0 1 0 
0 -3 1 0 0 373 1 -455 1 0 0 184 1 0 0 28 
1 0 0 -220 1 0 1 265 0 -265 0 49 1 0 0 -5 
0 5 1 -7 0 -35 0 348 1 0 0 -91 1 0 0 270 
0 -99 1 -80 0 -413 1 0 0 492 1 0 0 -544 1 303 
0 -357 1 125 1 0 0 43 1 0 0 -122 1 0 1 0 
0 439 1 0 0 -283 1 0 0 78 1 0 0 179 1 0 
0 -179 1 215 0 -345 0 406 1 -45 0 -411 1 0 0 388 
0 -211 1 188 0 -269 1 467 0 -302 1 -153 0 120 1 122 
0 -375 1 0 0 93 1 274 0 -268 1 0 0 234 1 0 
0 -278 1 0 0 -41 5483 1421 100 MP stroke
0 147 1 0 1 291 0 -543 1 -122 0 400 1 0 0 -48 
0 239 1 0 1 0 0 -267 1 0 1 127 1 0 1 0 
0 -95 1 0 1 0 1 0 0 165 1 0 1 0 0 -43 
1 -151 0 -62 1 45 0 350 0 -433 0 367 1 0 0 -133 
1 133 1 75 0 -163 1 -258 1 114 1 0 0 330 0 -193 
1 0 0 171 1 0 0 141 0 -287 1 0 0 -88 1 0 
0 -2 0 107 1 -107 0 -221 0 412 1 0 0 -191 1 -39 
0 39 1 0 0 10 1 0 0 -79 1 -204 0 472 0 -265 
1 0 0 -298 1 0 0 298 1 -95 1 0 0 2 1 273 
0 -318 1 0 0 59 0 -239 0 123 1 0 0 473 1 0 
0 -177 1 0 0 -296 1 67 0 258 0 -364 1 0 0 -115 
0 655 1 -457 0 284 1 0 0 -441 1 0 0 268 1 -152 
0 -202 0 202 1 674 5434 798 100 MP stroke
0 -581 0 120 1 0 0 247 0 -304 1 0 0 70 1 0 
0 -124 1 -83 0 26 1 0 0 -115 0 453 1 0 0 -281 
1 0 0 79 0 -95 1 0 0 575 1 -336 1 -90 1 0 
0 -266 0 177 1 117 0 7 1 -172 0 -15 0 15 1 0 
0 360 1 -160 1 0 0 8 1 0 1 0 0 164 1 -171 
0 49 1 0 0 -195 1 0 0 239 0 -197 1 0 0 197 
1 0 1 -41 0 115 1 0 0 -171 1 -41 1 0 0 146 
1 0 0 -248 1 143 0 166 1 0 1 0 0 80 1 0 
0 -371 1 189 1 0 1 0 0 -305 0 305 1 71 0 -27 
1 6 0 -379 0 231 1 -130 0 393 0 -28 1 0 0 -292 
1 0 1 0 0 160 1 0 1 -474 0 351 1 -153 0 208 
0 -148 1 60 0 3 1 322 0 -452 0 159 1 0 0 -136 
0 411 1 0 0 -369 5386 1326 100 MP stroke
1 303 0 -226 0 226 1 0 0 66 0 -87 1 10 0 84 
0 -51 1 -36 0 104 1 0 0 -445 1 0 0 352 0 -416 
0 104 1 0 0 -13 0 159 1 0 0 -177 1 308 0 167 
1 -132 0 -210 1 133 0 -122 1 178 0 110 1 0 1 -58 
1 0 0 -228 1 0 0 -106 1 92 0 312 1 -504 1 0 
0 392 1 0 0 -241 1 -175 0 32 1 0 0 149 1 0 
0 -69 0 291 1 0 0 -17 0 159 1 -192 0 -200 1 0 
0 312 1 12 0 -100 1 0 0 -118 1 0 0 50 0 -8 
1 -105 0 19 1 0 0 -84 1 109 0 -94 1 0 0 -165 
0 441 1 0 0 -237 1 0 0 93 0 -285 1 122 0 307 
0 -41 1 0 0 60 0 -330 0 310 1 -79 0 -362 1 0 
0 383 0 -347 1 0 0 126 1 -65 0 -8 0 377 1 -432 
0 498 1 0 0 -97 5343 1038 100 MP stroke
1 0 0 -279 0 16 1 0 0 416 1 0 0 -494 1 0 
0 444 0 -39 1 0 1 0 0 -33 1 0 0 36 0 -210 
1 0 0 207 1 0 0 -52 1 0 0 12 1 0 1 0 
0 -343 1 222 0 -107 0 17 1 0 0 20 1 0 1 0 
0 36 1 0 0 -132 0 65 1 0 1 0 0 208 1 117 
0 -195 1 0 0 279 1 0 0 -290 1 118 1 0 0 -282 
0 390 1 0 0 66 0 -82 1 0 1 -200 1 0 1 0 
0 119 1 0 0 -225 1 18 1 0 1 0 1 0 0 355 
0 -225 1 0 0 72 1 0 0 -369 1 129 1 0 0 -8 
0 93 1 0 1 -311 0 420 1 0 0 -129 0 150 1 0 
0 -151 1 0 0 474 0 -275 1 0 1 -402 0 -97 1 0 
0 365 0 -200 1 201 0 34 1 0 0 133 1 -167 0 -379 
1 68 0 -197 1 314 5292 1297 100 MP stroke
0 241 0 -358 0 35 1 0 0 58 1 0 0 154 1 172 
0 -171 0 19 1 0 0 -54 0 112 1 0 0 -155 0 549 
1 -453 0 140 0 -140 1 52 0 -158 0 308 1 -451 0 173 
0 -88 1 0 0 437 0 -181 1 0 0 -191 1 182 0 111 
1 -40 0 -196 0 193 1 0 0 3 1 0 1 -2 0 -38 
1 0 0 -323 1 323 0 77 1 0 0 -429 1 241 0 103 
1 0 0 -206 1 122 0 73 1 -306 0 465 0 -331 1 143 
0 -161 1 0 0 -373 0 287 1 -116 0 164 1 0 0 -8 
1 0 0 8 0 -273 1 0 0 220 1 -299 0 593 1 -85 
0 -257 1 205 0 -178 1 150 0 -309 1 -245 0 245 1 -177 
0 233 1 -109 0 216 0 -41 1 -251 0 330 1 0 0 -103 
0 201 1 0 0 229 0 -210 1 0 0 395 0 -159 1 0 
0 235 1 0 0 43 5251 682 100 MP stroke
0 -369 0 86 1 0 0 312 0 -136 1 0 0 136 1 0 
0 -287 1 0 0 302 1 -562 0 311 1 0 0 44 1 -169 
0 143 0 -71 1 0 0 -12 0 59 1 373 0 -697 1 142 
0 421 0 -394 1 0 0 -146 1 56 0 66 0 -299 1 136 
0 -173 1 0 0 271 1 -148 0 -84 0 25 1 0 0 114 
1 -96 0 -40 1 0 0 200 1 0 0 -133 1 0 0 -219 
0 163 1 366 0 -66 1 0 0 -300 0 176 1 0 0 125 
0 -301 0 299 1 0 0 -86 1 0 0 24 1 -134 0 142 
1 0 0 -71 1 0 0 122 0 -276 1 171 0 444 1 0 
0 -683 1 0 0 115 1 0 0 -52 1 314 0 -344 1 58 
0 -111 0 332 1 0 0 162 0 -60 1 0 0 57 1 80 
0 -80 1 0 0 -329 0 475 1 0 0 -309 1 0 0 197 
0 -43 1 -95 0 -33 5210 1071 100 MP stroke
0 171 1 0 0 -216 0 416 1 -302 1 0 0 -630 1 590 
0 -385 0 133 1 0 0 98 0 -41 1 0 0 -389 0 472 
1 0 0 33 1 0 0 8 0 -111 1 0 0 237 0 -407 
1 170 0 260 1 0 0 -243 1 166 0 78 0 -84 1 72 
0 -146 0 254 1 0 0 10 0 -301 1 -275 0 268 1 -125 
0 240 1 0 0 -194 0 143 1 -19 1 0 0 289 0 -138 
1 0 0 -95 1 0 0 -309 0 228 1 0 1 0 0 220 
0 -91 1 -85 0 228 0 -111 1 -402 0 281 1 0 0 -263 
1 155 0 -208 1 18 0 -30 1 127 0 264 0 -94 1 0 
0 8 1 0 1 0 0 236 0 -358 0 96 1 -114 0 -88 
1 0 0 -44 0 58 1 194 1 0 0 139 0 -320 1 0 
0 181 1 0 0 -134 1 0 0 159 1 51 0 390 1 -236 
0 80 0 -402 1 0 5168 1240 100 MP stroke
0 -140 1 12 1 16 1 145 0 94 0 -255 1 0 0 130 
0 -37 1 0 1 135 0 -163 1 1 0 111 0 -173 1 311 
0 -198 0 29 1 0 0 295 1 0 0 -397 1 58 0 -58 
0 73 1 -75 0 -261 1 620 0 -470 1 -21 1 494 1 0 
0 33 0 -39 1 -395 1 434 0 -52 1 0 0 -91 1 0 
0 61 1 0 0 -312 0 168 1 0 0 -8 1 0 1 0 
1 -119 0 444 0 -63 1 0 0 -393 1 0 0 -58 0 32 
1 104 1 0 0 219 0 -86 1 1 0 -219 1 0 0 250 
1 0 0 -376 1 290 1 0 1 -8 0 -399 0 460 1 61 
0 -286 1 0 1 187 0 -187 0 246 1 0 0 -5 0 291 
1 0 0 -733 0 77 1 -81 1 0 0 406 1 0 0 -56 
0 146 1 0 1 0 0 88 1 -210 1 0 0 -161 1 161 
0 -204 1 0 0 -4 5119 1350 100 MP stroke
1 0 0 133 0 -129 1 0 0 -165 1 0 0 128 1 0 
1 319 0 -408 0 223 1 -8 0 -49 1 0 0 337 1 -367 
0 231 1 0 0 -158 0 98 1 0 0 -402 0 184 1 274 
0 -88 1 -60 0 46 1 -85 0 286 1 0 1 0 0 -361 
0 304 1 -81 0 289 1 0 0 -13 1 0 0 -227 0 117 
1 0 0 -480 1 0 0 128 1 0 0 245 1 0 0 -220 
0 223 1 0 0 -402 1 0 0 -87 1 0 0 175 1 0 
0 26 1 -26 0 66 1 134 0 -135 0 101 1 0 0 -3 
0 60 1 0 1 0 0 122 1 0 0 191 1 -191 0 -40 
0 40 1 0 0 18 0 -343 1 0 0 202 0 -86 1 0 
0 75 1 -11 0 108 0 -336 1 106 0 -256 0 321 1 350 
0 -273 1 -197 0 78 0 -78 1 0 0 -154 0 7 1 -7 
0 249 1 0 0 167 5076 1115 100 MP stroke
1 -196 0 253 0 -112 1 0 0 -75 1 33 0 -123 0 153 
1 0 0 59 0 -169 0 75 1 -86 0 122 1 2 0 134 
1 -43 0 34 1 0 0 -34 1 0 0 75 1 -419 0 243 
0 -110 1 24 0 -24 1 0 1 0 0 607 1 0 0 -463 
0 130 1 0 0 -101 0 188 1 0 0 54 0 -374 0 56 
1 -120 0 -70 0 193 1 0 0 -74 1 0 0 -56 1 -23 
0 119 1 85 0 244 1 0 0 -71 1 71 0 -886 1 135 
0 43 1 0 0 319 1 0 0 117 0 -330 1 0 0 662 
1 37 0 -305 1 -52 0 -66 1 0 0 66 1 0 0 -88 
1 0 0 8 1 -8 0 -181 0 470 1 0 0 -252 1 0 
0 37 1 0 0 278 0 -238 1 -185 0 299 0 -30 1 -109 
0 56 0 -13 1 13 0 107 0 -192 1 167 0 -305 1 131 
0 -157 1 77 0 -77 5034 1356 100 MP stroke
0 4 1 89 0 -197 1 0 0 92 1 0 0 199 0 -290 
1 0 0 333 1 0 0 -58 0 155 1 -217 0 -79 0 79 
1 0 1 -62 1 76 0 -78 1 -50 0 -196 1 0 0 44 
1 0 0 359 0 -75 1 158 0 -44 1 44 1 0 0 -186 
1 126 0 -516 0 369 1 -120 0 -75 0 1 1 288 0 -103 
0 363 1 -281 0 -70 1 0 0 67 1 0 0 143 1 0 
1 -393 0 34 1 0 0 -34 1 0 0 151 1 0 1 0 
1 0 0 -4 1 0 0 -168 1 0 0 346 0 -347 1 302 
0 -398 0 434 1 -305 0 163 1 -232 0 -12 0 242 1 -283 
0 312 1 0 1 0 0 279 1 0 0 -280 1 0 0 420 
0 -420 1 -138 0 250 1 0 0 89 0 -179 1 0 0 19 
1 0 0 -63 1 -322 0 322 0 -155 1 -105 0 487 1 -5 
0 -212 0 328 1 -20 4988 961 100 MP stroke
0 -270 1 0 1 0 0 278 1 0 0 -470 0 74 1 0 
0 41 1 0 0 -65 1 0 1 0 0 223 0 -223 1 -62 
0 -81 1 0 0 143 1 0 0 25 1 0 0 -62 0 74 
1 249 0 -288 1 0 1 166 0 2 1 0 0 -2 0 128 
1 0 1 0 0 39 1 0 0 -168 1 0 0 -663 0 788 
1 0 0 -869 1 -105 0 684 1 0 0 -189 1 -270 0 705 
0 -141 1 0 0 46 1 161 0 107 0 -230 0 8 1 0 
1 0 0 127 1 81 1 -71 0 -85 1 -18 1 188 0 -311 
0 311 1 0 0 -210 1 98 1 -16 1 0 0 52 0 -446 
0 265 1 -12 0 358 1 0 0 -439 1 0 0 283 0 -255 
1 432 0 -139 1 123 0 -184 1 0 0 116 1 84 0 -427 
0 70 1 -49 0 190 0 -185 1 13 0 -212 0 196 1 0 
0 198 1 0 1 0 4941 1052 100 MP stroke
1 0 0 -350 1 0 0 152 1 0 0 146 1 0 0 -150 
0 120 1 0 0 -19 0 93 1 -57 0 -342 1 0 0 -59 
0 61 1 0 0 173 1 0 0 237 0 -9 1 -281 0 -40 
0 12 1 -16 0 253 1 -137 0 -9 0 79 1 0 0 646 
0 -120 1 -613 0 304 1 239 0 -264 0 210 1 -625 0 51 
1 39 0 271 1 0 1 -140 1 0 1 150 1 0 1 0 
1 -101 0 -278 1 275 0 78 1 0 0 -18 0 103 1 -85 
0 22 0 -10 1 0 0 -311 1 370 0 70 0 -543 1 0 
0 471 0 -25 1 0 0 -218 1 -151 0 70 1 509 0 -370 
0 305 1 -47 0 47 0 -218 0 77 1 -282 0 282 0 -32 
1 0 0 -173 1 0 0 372 1 -354 0 -86 0 83 1 357 
0 -394 0 40 1 68 0 147 0 -320 0 318 1 0 0 -318 
0 81 1 0 0 -13 4899 1249 100 MP stroke
0 193 1 0 0 -113 0 13 1 -37 0 184 0 -176 1 0 
0 -115 1 0 0 237 1 -237 0 -9 1 0 0 46 1 257 
0 -237 1 0 0 -204 1 0 0 -84 0 296 1 0 0 126 
1 -118 0 -54 1 0 0 265 1 0 1 -104 0 -197 0 501 
1 -304 0 304 0 -350 1 0 0 83 1 0 0 -174 1 20 
0 38 1 0 0 257 1 0 0 -200 1 0 0 -226 0 191 
1 172 0 -565 1 0 0 -42 1 529 0 -265 0 8 1 231 
0 77 0 -308 0 55 1 18 0 72 1 0 0 -265 1 0 
0 354 1 -89 1 0 1 0 1 0 1 0 1 0 0 42 
1 0 0 -105 1 0 0 328 1 -328 0 176 0 -176 1 0 
0 53 0 -180 1 149 0 -3 1 0 0 -68 1 0 0 113 
1 0 0 -200 1 0 0 144 1 0 0 -587 1 570 0 113 
1 0 0 15 1 0 4852 1139 100 MP stroke
1 -139 0 155 0 -83 1 26 0 52 1 -6 1 -49 1 0 
0 33 0 -146 1 445 0 -471 1 0 0 263 0 -394 1 0 
0 332 0 -154 1 0 0 96 1 -4 1 0 0 203 1 0 
0 -213 1 0 0 -291 0 361 1 -67 0 224 1 -268 0 196 
1 110 0 -110 1 -112 0 178 1 0 0 -50 1 69 1 -88 
0 -366 0 225 1 0 0 -51 0 51 1 200 0 -199 1 0 
0 -55 1 0 0 253 0 -16 1 0 0 36 1 0 0 -210 
1 0 0 -238 1 123 0 -48 1 319 0 -44 1 108 1 42 
1 0 0 -323 1 0 0 70 1 70 1 -317 0 317 0 -70 
1 0 1 228 0 -485 0 544 1 -233 0 342 1 0 1 0 
0 -469 0 128 1 -216 0 240 1 0 0 -457 1 0 0 525 
0 -346 1 0 0 -102 1 0 0 266 1 0 0 117 0 -269 
1 0 0 357 0 -357 4805 1351 100 MP stroke
1 66 1 0 0 147 0 -213 0 103 1 0 0 19 0 -122 
1 0 0 -162 1 0 0 204 1 0 0 247 1 -247 1 27 
0 6 1 0 0 -6 0 88 1 0 0 -218 0 86 1 0 
0 160 1 -91 0 -63 0 315 1 -98 0 -444 1 0 0 205 
1 154 1 0 0 226 1 -121 0 -296 0 97 1 0 0 33 
1 0 0 -191 1 191 0 293 1 0 0 4 0 -187 0 183 
1 0 0 116 0 -182 1 -1 0 -100 1 0 0 100 1 369 
0 -369 4780 1023 58 MP stroke
gr

5344  239 mt 
(\(c\) ) s
%%IncludeResource: font Symbol
/Symbol /ISOLatin1Encoding 120 FMSR

5517  239 mt 
(b) s
%%IncludeResource: font Helvetica
/Helvetica /ISOLatin1Encoding 96 FMSR

5582  299 mt 
(2) s
1 sg
0 1769 1418 0 0 -1769 899 4615 4 MP
PP
-1418 0 0 1769 1418 0 0 -1769 899 4615 5 MP stroke
4 w
DO
SO
6 w
0 sg
 899 4615 mt 2317 4615 L
 899 2846 mt 2317 2846 L
 899 4615 mt  899 2846 L
2317 4615 mt 2317 2846 L
 899 4615 mt 2317 4615 L
 899 4615 mt  899 2846 L
 899 4615 mt  899 4597 L
 899 2846 mt  899 2863 L
%%IncludeResource: font Helvetica
/Helvetica /ISOLatin1Encoding 120 FMSR

 866 4760 mt 
(0) s
1371 4615 mt 1371 4597 L
1371 2846 mt 1371 2863 L
1238 4760 mt 
(2000) s
1844 4615 mt 1844 4597 L
1844 2846 mt 1844 2863 L
1711 4760 mt 
(4000) s
2317 4615 mt 2317 4597 L
2317 2846 mt 2317 2863 L
2184 4760 mt 
(6000) s
 899 4615 mt  916 4615 L
2317 4615 mt 2299 4615 L
 631 4659 mt 
(0.05) s
 899 4362 mt  916 4362 L
2317 4362 mt 2299 4362 L
 698 4406 mt 
(0.1) s
 899 4109 mt  916 4109 L
2317 4109 mt 2299 4109 L
 631 4153 mt 
(0.15) s
 899 3856 mt  916 3856 L
2317 3856 mt 2299 3856 L
 698 3900 mt 
(0.2) s
 899 3604 mt  916 3604 L
2317 3604 mt 2299 3604 L
 631 3648 mt 
(0.25) s
 899 3351 mt  916 3351 L
2317 3351 mt 2299 3351 L
 698 3395 mt 
(0.3) s
 899 3098 mt  916 3098 L
2317 3098 mt 2299 3098 L
 631 3142 mt 
(0.35) s
 899 2846 mt  916 2846 L
2317 2846 mt 2299 2846 L
 698 2890 mt 
(0.4) s
 899 4615 mt 2317 4615 L
 899 2846 mt 2317 2846 L
 899 4615 mt  899 2846 L
2317 4615 mt 2317 2846 L
gs 899 2846 1419 1770 MR c np
1 -35 0 -287 1 302 0 -263 0 263 1 0 0 -146 0 407 
1 -114 1 -186 0 110 0 -33 1 -142 0 -73 1 0 0 478 
0 -600 1 305 0 -157 1 0 0 -112 1 0 0 306 0 -134 
1 45 0 -254 0 218 1 110 0 -35 1 0 0 -124 1 -184 
0 221 0 -24 1 0 0 -58 1 0 1 0 0 149 1 0 
0 166 0 -366 1 0 0 374 0 -56 1 -106 0 2 1 0 
0 -332 1 87 0 83 1 0 0 28 0 -96 1 0 0 368 
0 -256 1 0 0 766 1 0 0 -592 1 0 0 -184 1 -17 
0 104 1 0 0 -124 0 55 1 -126 0 377 1 0 0 269 
1 -485 0 276 1 0 1 -30 0 -309 1 162 1 -74 1 0 
0 -101 1 0 1 0 0 -74 1 0 0 129 1 0 0 295 
0 -179 1 0 0 -170 0 54 1 258 0 -378 1 0 0 213 
1 0 0 -10 1 10 2034 4081 100 MP stroke
0 135 0 -342 1 176 0 78 1 -55 1 -193 0 211 1 0 
1 -124 0 272 1 63 1 -237 0 -131 1 0 0 12 1 0 
0 17 1 16 0 -47 1 0 0 -113 0 210 1 0 0 108 
1 46 0 -46 1 0 0 -116 0 197 1 0 1 -146 1 -25 
1 0 0 75 0 -56 1 0 0 32 1 0 1 151 0 -312 
1 0 0 131 1 0 0 11 1 0 0 200 0 -84 1 0 
0 -247 0 102 1 71 1 146 0 -209 1 0 0 -13 1 -16 
0 -1 1 200 0 -205 1 0 0 251 0 -303 1 18 0 359 
1 0 0 -299 1 0 0 140 1 0 0 92 1 0 0 -191 
1 381 0 -190 1 199 0 -292 1 74 0 -74 1 0 0 -325 
1 137 0 60 1 -82 0 211 1 0 1 -127 0 -193 1 0 
1 235 0 400 1 0 0 -255 1 0 0 -284 1 109 0 -61 
1 451 0 -320 1 0 1983 4018 100 MP stroke
1 0 0 100 1 0 0 -120 1 0 0 19 1 -59 0 64 
1 0 0 -311 1 108 0 -28 1 0 0 341 1 0 0 -194 
0 152 1 0 0 41 0 -192 1 -158 0 74 1 0 0 326 
0 -433 1 0 0 33 1 0 0 328 0 -26 1 -241 0 72 
1 0 1 -1 0 307 0 -307 1 0 0 -123 1 0 0 60 
1 -68 0 -28 1 0 0 335 0 -149 1 0 0 24 1 0 
0 -130 1 0 1 0 1 0 0 546 0 -270 1 47 0 150 
0 -33 1 0 0 -393 1 0 0 276 1 0 1 0 0 319 
0 -517 1 0 1 0 0 -100 1 460 0 -614 1 12 0 -19 
0 578 1 -96 0 -301 1 0 1 -22 0 389 0 -302 1 0 
0 -87 1 0 1 0 0 317 0 -374 1 0 0 36 1 0 
1 0 0 73 1 -238 0 11 1 126 0 -130 1 126 1 -47 
0 -59 0 185 1 0 1935 4153 100 MP stroke
0 155 1 -48 0 -204 0 123 1 -157 0 -73 1 343 0 222 
1 -278 0 246 1 0 0 -194 1 0 0 151 1 0 0 -258 
1 0 0 111 1 -257 0 29 0 -61 1 369 0 -151 1 -79 
0 -47 0 288 1 -88 0 -404 0 30 1 0 0 225 1 302 
1 30 1 -355 0 -40 1 0 0 210 0 -221 1 97 0 108 
1 -49 0 49 0 -226 1 108 0 -108 0 163 1 117 0 -153 
0 24 1 -121 0 129 1 0 0 -229 0 228 1 0 0 -30 
1 0 1 0 0 482 1 -413 0 130 0 -295 1 123 0 -55 
1 0 0 353 0 -270 1 94 0 39 0 -235 1 0 0 -177 
1 127 0 203 1 0 0 -84 0 4 1 0 0 373 0 -170 
1 0 0 -149 1 0 0 -26 1 200 0 -274 1 4 0 160 
0 -160 1 0 0 -158 0 153 1 -121 0 350 0 -201 1 0 
0 -12 1 298 0 -49 1893 3883 100 MP stroke
1 -249 0 629 0 -629 1 0 0 45 0 -164 1 0 0 133 
1 0 0 -103 0 366 1 0 1 0 1 -1 0 -248 0 249 
1 0 0 193 1 0 0 -193 0 145 1 -145 0 -268 0 99 
1 -198 0 297 1 -282 0 -54 1 0 0 123 1 0 1 0 
0 108 0 -78 1 0 0 -91 1 513 0 -98 1 -228 0 -85 
0 85 1 0 1 302 0 -130 0 126 1 -61 0 -127 1 0 
0 -199 1 84 0 252 1 0 0 -252 0 4 1 -45 0 61 
1 0 0 -286 0 286 1 0 0 -166 1 0 0 122 1 0 
0 75 1 0 0 -194 0 16 1 0 0 -171 0 88 1 0 
0 91 1 -26 0 170 1 0 1 0 0 149 0 -269 1 0 
1 127 0 83 0 -183 1 17 0 -41 1 0 0 -176 1 0 
0 107 0 -107 1 0 0 167 0 -3 1 0 0 -10 1 0 
0 19 0 -9 1 -73 1849 4194 100 MP stroke
1 0 0 -103 1 0 0 415 0 -52 1 -150 1 197 0 -157 
1 0 1 0 0 -65 1 0 1 0 0 -216 1 0 0 279 
1 -56 0 85 0 -91 1 0 1 0 0 -107 1 0 1 328 
0 -158 0 78 1 17 0 -197 0 10 1 0 0 -96 1 0 
0 566 1 -190 1 0 0 -29 1 0 1 0 0 -72 0 44 
1 -90 0 -272 1 371 0 -198 1 293 0 4 0 -260 1 0 
0 -205 1 685 0 -446 1 228 0 -373 1 0 1 433 0 -525 
1 156 0 -67 0 57 1 0 0 48 1 0 0 96 1 0 
0 -218 1 147 0 179 1 260 0 -448 1 33 0 377 0 -222 
1 0 1 -362 0 168 1 0 0 52 1 0 1 0 0 -212 
1 64 0 115 0 -261 0 105 1 0 0 178 0 -195 1 0 
0 -62 0 167 1 0 0 157 1 -162 0 227 1 0 0 -349 
1 122 0 100 1 0 1800 4019 100 MP stroke
0 -59 0 24 1 0 0 150 1 0 0 -371 1 0 1 185 
1 -126 1 0 0 3 1 142 0 -260 1 0 0 94 1 0 
0 -9 1 396 0 -340 1 0 0 373 0 -555 0 296 1 0 
0 -334 0 463 1 -30 0 -200 1 0 0 149 1 0 0 -44 
1 -188 1 21 1 0 0 170 1 6 0 6 0 -19 1 0 
0 99 1 0 0 -145 1 0 0 299 0 -312 1 0 0 205 
0 -205 1 0 1 -7 0 127 0 -178 1 0 0 -60 0 9 
1 -59 1 0 0 88 0 -29 1 -155 0 317 1 0 1 0 
0 -61 1 0 0 61 1 -199 0 316 1 -280 0 123 0 -91 
1 0 0 314 0 -437 1 0 0 375 1 -284 0 -139 1 0 
0 138 0 -19 1 0 0 -40 1 147 0 110 1 0 1 0 
0 -181 1 0 0 140 1 0 0 -141 0 39 1 0 1 225 
0 -356 1 155 0 -99 1753 4266 100 MP stroke
1 0 0 179 0 -109 1 0 0 198 1 0 0 -324 1 48 
0 291 0 -244 1 -54 0 258 0 -251 1 75 0 33 0 -108 
1 228 0 -126 1 78 0 -73 1 0 0 14 0 -134 1 0 
0 76 1 0 0 -53 1 168 0 102 1 0 1 0 1 0 
0 -311 0 87 1 213 1 0 0 32 1 0 0 246 1 -516 
0 282 0 -172 1 0 0 157 1 0 0 -49 0 87 1 0 
0 -20 1 0 0 -88 1 0 0 373 1 -373 1 0 0 -172 
1 0 0 83 1 0 1 0 0 140 0 -209 0 183 1 0 
0 -138 1 138 0 -394 1 28 0 116 1 0 0 176 0 -286 
1 0 0 95 1 59 0 -59 0 596 1 0 0 -649 1 0 
0 205 0 -205 1 0 0 -11 1 0 1 0 1 0 0 289 
1 -83 0 150 0 -206 0 79 1 -75 0 109 1 213 0 69 
1 31 0 -363 1 -59 1707 4196 100 MP stroke
0 -136 1 0 0 172 0 -31 1 0 1 0 0 277 1 0 
0 -277 0 304 1 0 1 -180 0 130 0 -131 1 0 0 -47 
1 0 0 -105 1 446 0 -334 1 0 1 -60 1 0 1 0 
1 -78 0 44 1 7 0 385 0 -348 1 0 0 246 1 0 
0 -346 1 0 1 0 0 170 1 -113 1 0 0 -50 0 127 
1 0 1 0 1 235 1 -241 0 -98 0 98 1 -42 0 -64 
0 282 1 0 0 3 0 -76 1 0 0 -220 1 220 0 122 
0 -167 1 219 1 0 1 0 0 -130 1 374 0 -244 0 146 
1 0 0 -146 1 33 1 122 0 -144 1 0 0 -264 1 264 
1 0 0 259 1 -394 1 0 0 177 1 -187 0 143 0 -285 
1 0 0 151 1 168 0 -369 1 0 0 577 1 -137 0 -12 
1 0 0 -216 1 0 0 153 0 -221 1 0 0 -40 1 -40 
0 187 1 0 1 -275 1655 4203 100 MP stroke
0 488 1 0 0 -400 1 107 0 -33 1 0 0 -203 1 0 
0 380 1 -137 0 71 1 0 0 -191 1 -4 0 30 0 -52 
1 0 0 -123 1 0 0 21 0 -21 1 0 0 159 0 -94 
1 0 0 -23 0 17 1 0 0 439 1 0 0 34 1 0 
1 0 1 -34 1 0 1 0 0 -406 1 243 0 -201 1 0 
0 8 1 0 1 0 0 222 1 -14 1 0 0 102 0 -102 
1 -168 1 161 0 -168 1 -175 0 91 1 357 0 -357 1 84 
0 -84 0 53 1 0 0 -1 0 1 1 505 0 -84 1 0 
0 -382 1 0 0 318 1 0 1 0 0 -251 1 0 0 137 
1 0 1 -156 0 -264 1 0 0 183 1 26 0 240 1 0 
1 -240 0 -95 0 104 1 -92 0 48 0 -145 1 0 0 196 
0 -268 1 214 0 -130 1 177 0 116 0 -273 1 0 0 225 
0 -147 1 0 0 185 1607 3979 100 MP stroke
0 -185 1 0 0 47 0 -6 1 0 0 90 1 0 0 126 
1 -174 0 -160 1 73 0 180 1 0 0 -123 1 0 0 -228 
0 271 1 -108 0 72 1 -56 0 413 1 -349 1 0 1 -209 
0 107 1 0 0 109 1 0 1 0 1 0 0 -161 1 0 
1 0 1 0 0 295 1 0 1 -63 0 -161 1 0 0 634 
0 -422 1 -204 0 -50 1 0 0 220 0 -220 1 0 0 28 
0 -189 0 69 1 0 0 118 1 0 0 20 1 0 1 -96 
0 240 1 -133 0 -44 1 19 0 171 0 -46 1 0 0 86 
1 -74 0 -61 1 0 0 119 0 -58 1 0 0 257 1 0 
0 -460 1 0 1 0 0 325 1 0 0 -55 1 -5 1 5 
0 -79 1 0 1 -209 0 535 1 0 0 -81 1 322 0 -435 
1 318 0 -19 1 0 0 -299 1 0 0 -132 1 76 0 -271 
0 281 1 -157 0 189 1557 3946 100 MP stroke
1 0 0 80 1 -421 0 -86 1 286 0 146 1 -146 0 277 
1 -302 0 166 1 0 0 -17 0 28 1 0 1 147 0 -267 
1 0 0 -123 1 0 0 37 1 -61 0 -6 1 -56 1 0 
0 342 0 -335 1 0 0 539 1 0 0 -489 1 0 0 290 
0 -43 1 0 0 6 1 -137 0 137 0 -179 1 0 0 251 
1 0 0 -59 1 0 1 0 1 -191 0 -108 0 299 1 167 
1 -106 0 -106 0 70 1 0 0 -91 0 91 1 0 1 0 
0 93 1 0 1 -72 0 33 1 0 0 23 1 0 1 -59 
0 -206 1 0 0 -23 1 0 1 224 0 -148 1 0 0 -93 
1 0 1 0 0 -5 1 5 0 -23 0 10 1 0 0 4 
0 -58 1 14 0 44 0 -17 1 132 0 -340 1 0 0 252 
1 0 0 253 1 0 1 0 0 -382 1 0 0 215 0 -152 
1 -61 0 -87 0 63 1508 4277 100 MP stroke
1 0 0 497 1 -581 0 17 1 304 0 -109 1 0 0 255 
1 -250 0 98 1 0 0 -168 0 14 1 0 0 221 0 -201 
1 0 0 77 0 -72 1 0 0 460 0 -675 0 144 1 0 
0 -9 0 93 1 0 0 46 0 -160 1 0 0 434 0 -263 
1 218 0 -230 0 136 1 0 0 -207 1 227 0 -158 0 96 
1 0 1 0 0 -98 1 0 0 -161 0 136 1 0 0 -87 
1 0 0 168 0 -22 1 -14 0 188 1 0 0 125 1 0 
0 257 1 0 0 -382 1 0 0 60 0 -100 1 0 0 -147 
1 301 0 36 1 -439 0 178 0 -245 1 0 0 464 1 0 
0 132 1 0 1 -327 0 99 1 0 0 -205 0 48 1 0 
0 -221 1 0 0 223 0 -145 1 0 0 -94 1 580 0 -514 
1 0 0 545 1 -154 0 -257 0 47 1 49 0 -3 0 3 
1 370 0 -413 0 185 1467 3857 100 MP stroke
1 0 0 -375 1 74 0 19 1 311 0 -358 1 -55 0 438 
1 0 1 -118 0 -118 1 -102 0 261 1 0 1 0 0 31 
0 -23 1 -228 1 0 1 27 0 -60 1 0 0 28 1 5 
0 227 1 0 0 -137 1 0 1 0 1 61 0 408 0 -229 
1 0 0 -244 1 -141 1 0 1 0 0 -129 1 339 1 0 
0 -212 1 0 0 336 1 -104 0 196 1 0 1 -75 0 -486 
1 0 0 211 0 -118 1 118 0 -173 0 233 1 -78 1 0 
0 16 1 0 1 0 0 44 1 321 0 -321 1 -237 0 264 
0 -36 1 0 1 0 1 0 0 18 1 -39 1 0 0 -64 
1 0 0 -127 1 0 1 122 0 -54 1 0 0 126 1 -101 
0 232 1 0 1 39 1 -142 0 -88 1 0 0 -190 0 126 
1 0 0 201 1 -199 0 280 0 -44 1 0 0 -232 1 175 
0 496 1 -137 0 -403 1412 4051 100 MP stroke
1 0 0 -13 0 691 1 -503 0 -98 1 0 0 -102 1 -23 
0 226 1 -177 0 131 1 0 0 -161 1 0 0 -225 0 106 
1 249 0 -272 0 218 1 -30 0 -247 0 117 1 -93 0 264 
0 -18 1 18 0 186 1 0 0 -350 1 0 0 239 1 -292 
0 169 1 0 1 0 0 -163 0 217 1 0 0 -6 1 0 
0 6 0 -228 1 0 0 382 1 574 0 -613 1 0 0 -185 
0 138 1 0 0 223 1 -240 0 -98 1 0 0 32 0 -61 
1 -162 0 -78 0 66 1 -110 0 288 1 -196 1 0 0 32 
1 -32 0 346 0 -317 1 0 0 290 0 -291 1 0 0 -11 
1 395 0 434 1 0 0 -529 1 0 0 -232 0 232 1 0 
0 345 1 -222 0 581 0 -221 1 0 0 -421 1 0 0 370 
1 -365 0 -140 0 206 1 415 0 -415 1 -197 0 -71 1 359 
0 50 1 -98 0 27 1369 3735 100 MP stroke
0 -149 1 0 0 149 1 0 1 0 0 -44 1 0 0 149 
0 -228 0 134 1 0 0 159 1 0 0 -390 0 18 1 0 
0 422 1 0 0 -507 1 110 0 392 0 -179 1 -614 0 108 
1 0 0 -63 0 194 1 -152 0 -110 0 19 1 0 0 309 
0 -111 1 0 0 -14 0 125 1 52 0 -41 1 0 0 -26 
1 -102 0 -37 0 278 1 0 0 -278 1 0 0 179 1 0 
0 275 1 0 0 -429 1 0 0 184 1 -179 1 -99 0 154 
1 0 0 181 0 -164 1 0 1 -44 0 -17 0 70 1 0 
0 49 0 -122 1 275 0 -368 1 -48 1 254 0 -187 1 0 
0 116 1 -131 0 417 0 -533 1 0 0 278 1 -177 0 37 
1 0 0 202 0 -202 1 0 0 339 1 -100 0 -317 1 0 
0 87 1 610 0 -610 0 35 1 -35 0 -23 1 -90 0 352 
1 0 0 -258 1 -54 1325 4255 100 MP stroke
0 461 0 -355 1 -101 0 168 1 81 1 145 0 -174 1 -84 
0 596 1 -486 0 49 1 -51 0 2 1 0 0 94 0 -235 
1 0 0 322 1 -378 0 419 1 -435 0 -87 1 68 0 303 
1 -219 0 297 0 -222 1 -134 0 134 1 111 0 324 1 0 
0 -431 1 0 0 -182 0 173 1 0 0 90 0 -306 1 488 
1 0 0 -159 1 -343 0 553 0 -646 1 32 0 555 0 -273 
1 0 1 -87 0 65 1 -132 0 629 1 0 0 -317 0 121 
1 -329 0 161 1 0 1 0 0 439 1 -479 0 152 0 -122 
1 0 0 -108 0 15 1 0 0 116 1 0 0 -138 1 49 
0 89 1 0 0 -216 1 0 1 -13 0 197 1 0 0 -343 
0 129 1 50 0 50 1 0 0 21 1 0 0 137 1 0 
0 -300 0 163 1 -220 0 233 1 -37 1 0 0 -119 1 0 
0 150 0 -42 1 -109 1279 4236 100 MP stroke
0 -95 0 204 1 -72 0 -49 1 -195 0 564 0 -178 1 0 
0 171 0 -171 1 95 0 -16 0 12 1 0 0 -266 0 73 
1 236 0 -111 1 0 0 280 1 0 0 -350 1 0 0 543 
0 -100 1 0 0 -443 1 57 1 2 1 -29 0 143 0 -390 
1 0 0 298 1 0 1 0 1 0 0 499 1 -88 0 -210 
1 25 0 36 0 -70 1 70 0 -45 1 0 0 -16 0 181 
1 0 0 -244 1 -167 0 47 1 -22 0 127 1 0 0 -289 
1 0 1 0 0 786 0 -818 0 362 1 -348 0 217 1 0 
1 0 0 236 0 -236 1 -61 0 14 1 -68 0 -132 0 27 
1 0 0 -30 1 0 0 285 1 0 0 -197 1 0 1 0 
0 -25 1 0 0 -20 1 0 1 -82 0 82 1 -60 1 326 
0 -303 1 -23 0 274 1 0 0 -57 1 0 1 0 0 -354 
0 292 1 -54 0 -101 1232 4257 100 MP stroke
1 0 0 394 1 0 0 -238 1 0 0 -103 0 345 1 170 
0 -538 0 131 1 32 0 -61 1 -96 0 -91 1 4 0 157 
1 0 1 0 0 35 1 278 0 32 1 -336 0 -33 1 0 
0 176 1 -137 1 34 0 15 1 -170 0 -17 1 183 0 39 
0 -104 1 0 0 197 0 -150 1 0 1 323 0 -153 1 0 
1 200 0 -260 1 0 0 205 1 0 0 -364 1 259 1 0 
0 -90 1 0 0 -85 1 0 0 196 0 -111 1 0 0 -116 
1 -223 0 40 1 -39 0 251 1 0 0 208 0 -342 0 99 
1 0 0 -154 0 152 1 128 0 -147 0 131 1 -74 0 -16 
0 253 1 -253 0 -146 0 268 1 -268 0 -83 1 0 0 197 
1 0 0 191 0 -322 0 70 1 0 0 41 1 -161 0 411 
0 -254 1 361 0 -337 0 11 1 -75 0 538 0 -321 1 0 
0 -349 1 20 0 225 1188 4074 100 MP stroke
0 -79 1 0 0 79 1 0 1 -150 0 -15 0 183 1 -119 
0 65 0 -65 1 0 1 0 0 195 0 -215 1 316 0 -172 
1 -133 0 587 1 0 0 -584 1 207 0 -229 1 0 1 277 
0 164 1 -121 0 225 0 -222 1 -35 0 -212 1 0 0 109 
1 0 0 -109 0 93 1 -272 0 -21 0 124 1 0 0 69 
1 0 0 -110 1 -87 0 247 1 0 0 853 1 -536 0 -489 
1 0 0 103 1 0 0 99 1 0 0 48 1 0 0 -83 
0 134 1 0 1 -138 1 -239 0 150 1 -102 0 138 0 -20 
1 389 0 -113 1 115 0 299 0 -414 0 39 1 0 0 -327 
0 188 1 0 0 -249 0 30 1 173 0 -173 1 542 0 -213 
1 0 0 32 1 0 0 -8 1 -145 0 67 1 0 0 -396 
1 0 0 366 1 -166 1 0 0 -25 1 -18 0 33 1 0 
0 108 0 -131 1 0 1142 4163 100 MP stroke
1 -75 0 587 0 -238 1 -247 0 -166 1 166 1 0 0 -51 
1 -52 0 386 1 122 0 59 0 -179 1 0 0 -20 0 77 
1 231 0 -160 1 -139 0 100 1 0 0 -75 1 0 1 0 
0 78 1 172 0 -172 1 0 0 -124 1 0 1 0 1 0 
1 30 0 20 1 158 0 3 0 -602 1 131 0 -40 1 188 
0 -283 1 0 0 301 1 -266 0 437 0 -86 1 0 1 0 
1 -198 0 -97 1 0 0 -9 0 9 1 120 0 -18 1 0 
0 -138 0 222 1 0 1 -94 0 40 1 0 0 -49 0 400 
1 -401 0 70 1 0 0 -87 1 371 0 -463 1 0 1 0 
0 250 1 0 0 -272 0 48 1 66 0 352 1 0 0 -205 
1 0 1 0 0 187 0 -187 1 0 0 -115 1 0 1 115 
0 6 1 0 0 -293 1 0 0 278 0 -134 1 0 1 0 
0 -131 1 0 0 305 1092 3944 100 MP stroke
1 0 1 0 0 221 1 0 0 -605 1 0 0 410 1 0 
0 -129 1 314 0 19 0 -284 1 -88 1 247 0 -382 0 256 
1 0 0 70 1 -423 0 240 0 -246 1 209 1 0 0 419 
1 -157 1 -450 0 62 1 0 0 135 1 0 0 222 0 -241 
1 0 0 -53 1 -8 1 0 0 352 1 0 0 -371 1 -108 
0 509 0 -340 1 0 0 -73 0 215 1 0 0 -29 0 900 
1 -97 0 -283 0 121 1 0 0 -561 0 69 1 0 0 -131 
1 -156 0 -44 1 -107 0 291 0 -136 1 63 0 -149 0 235 
1 0 0 30 1 0 1 0 1 0 0 309 1 -442 0 -39 
0 43 1 0 0 350 1 0 0 -177 1 90 0 -237 1 -2 
0 2 0 -216 0 54 1 0 0 189 1 0 0 -181 1 0 
0 389 1 102 0 -447 0 128 1 145 0 -110 1 -82 0 -62 
1 0 0 -267 1 222 1046 4225 100 MP stroke
0 186 1 -211 0 487 0 -300 1 -233 0 156 1 412 1 -294 
1 0 0 -185 1 0 1 366 1 0 1 0 1 -136 0 120 
1 -319 0 22 1 0 0 407 0 -73 1 0 0 -334 0 178 
1 0 0 -166 0 195 1 -109 0 73 0 -258 0 106 1 0 
0 136 0 -303 0 186 1 0 0 -4 1 23 0 -307 0 146 
1 445 0 -240 0 2 1 -232 0 232 1 2 0 59 0 -7 
1 -134 0 134 1 0 0 149 1 330 0 -464 1 134 0 -352 
1 0 0 150 0 -114 1 0 0 141 1 0 0 74 1 0 
0 11 0 -76 1 0 0 294 0 -461 0 13 1 0 0 455 
0 -295 1 0 0 134 1 -134 0 -263 1 0 0 -64 1 0 
0 138 1 0 0 -149 1 0 0 337 0 -303 1 0 0 661 
1 -175 0 -206 0 412 1 0 0 -528 1 0 1 278 0 -182 
0 10 1 -71 0 -77 1003 4190 100 MP stroke
0 77 1 176 0 -262 1 0 0 274 1 -86 0 -176 1 0 
1 116 0 -160 0 78 1 0 0 120 0 -197 1 -18 0 166 
1 0 1 -86 0 -142 0 35 1 22 0 361 1 -350 0 125 
1 0 0 -30 1 0 0 -219 1 0 0 249 1 0 1 0 
1 0 1 0 1 0 0 -75 1 0 0 177 1 0 0 -36 
0 60 1 224 0 -285 0 37 1 0 0 -58 1 -121 1 1 
0 98 1 0 0 -109 1 0 0 273 1 0 0 -170 1 0 
0 17 0 -100 1 80 0 -103 1 0 0 -69 1 0 1 117 
0 -65 0 69 1 367 0 -333 1 0 0 32 1 58 1 0 
0 -85 0 158 1 -108 0 -149 1 0 0 77 0 -30 1 162 
0 -286 0 41 1 0 0 -11 0 87 1 -87 1 0 0 116 
1 0 0 93 1 0 0 -319 1 171 0 -13 1 101 0 -66 
1 -78 0 78 1 51 954 4128 100 MP stroke
0 -249 0 108 1 0 0 163 1 -128 1 -151 0 437 1 -298 
1 110 0 -21 1 0 0 -20 1 0 0 118 0 -99 1 155 
0 -225 1 0 0 596 1 0 0 -236 1 -376 0 385 1 -215 
0 -120 1 159 1 -89 1 0 0 -123 1 0 0 101 1 0 
0 89 1 -105 0 105 0 -89 1 0 1 -82 0 245 0 -105 
1 -149 0 325 0 -43 1 0 1 0 0 -289 1 88 0 -175 
1 0 0 166 1 0 0 56 0 -165 1 0 0 188 1 0 
0 -253 1 0 0 274 1 0 0 280 0 -280 1 269 1 0 
0 -473 0 178 1 0 0 -224 1 0 0 177 1 0 0 -79 
1 0 0 330 1 -330 1 128 0 47 1 0 0 -184 1 0 
0 483 0 -338 1 0 0 44 1 -10 0 -185 0 1 1 516 
0 -327 0 186 1 0 0 -464 1 56 1 0 0 -45 0 348 
1 53 0 -392 0 67 907 4233 100 MP stroke
1 0 0 267 1 0 0 44 1 -44 0 -300 1 0 0 220 
0 -220 1 0 0 109 0 -250 0 222 1 0 0 179 1 0 
0 -179 1 183 0 -183 899 4185 20 MP stroke
gr

 840 2751 mt 
(\(d\) sigma2 for hyphal density) s
1 sg
0 1769 1419 0 0 -1769 2839 4615 4 MP
PP
-1419 0 0 1769 1419 0 0 -1769 2839 4615 5 MP stroke
4 w
DO
SO
6 w
0 sg
2839 4615 mt 4258 4615 L
2839 2846 mt 4258 2846 L
2839 4615 mt 2839 2846 L
4258 4615 mt 4258 2846 L
2839 4615 mt 4258 4615 L
2839 4615 mt 2839 2846 L
2839 4615 mt 2839 4597 L
2839 2846 mt 2839 2863 L
2806 4760 mt 
(0) s
3312 4615 mt 3312 4597 L
3312 2846 mt 3312 2863 L
3179 4760 mt 
(2000) s
3785 4615 mt 3785 4597 L
3785 2846 mt 3785 2863 L
3652 4760 mt 
(4000) s
4258 4615 mt 4258 4597 L
4258 2846 mt 4258 2863 L
4125 4760 mt 
(6000) s
2839 4615 mt 2856 4615 L
4258 4615 mt 4240 4615 L
2738 4659 mt 
(2) s
2839 4261 mt 2856 4261 L
4258 4261 mt 4240 4261 L
2738 4305 mt 
(4) s
2839 3907 mt 2856 3907 L
4258 3907 mt 4240 3907 L
2738 3951 mt 
(6) s
2839 3553 mt 2856 3553 L
4258 3553 mt 4240 3553 L
2738 3597 mt 
(8) s
2839 3199 mt 2856 3199 L
4258 3199 mt 4240 3199 L
2671 3243 mt 
(10) s
2839 2846 mt 2856 2846 L
4258 2846 mt 4240 2846 L
2671 2890 mt 
(12) s
2839 2792 mt 
(x 10) s
%%IncludeResource: font Helvetica
/Helvetica /ISOLatin1Encoding 80 FMSR

3065 2718 mt 
(-4) s
2839 4615 mt 4258 4615 L
2839 2846 mt 4258 2846 L
2839 4615 mt 2839 2846 L
4258 4615 mt 4258 2846 L
gs 2839 2846 1420 1770 MR c np
1 165 0 47 0 -71 1 0 0 -60 0 42 1 -42 0 216 
0 -80 1 0 0 70 1 -180 0 -10 0 452 1 -602 1 123 
0 139 0 -341 1 -248 0 449 0 -27 1 0 0 -57 1 0 
0 433 0 -500 1 0 0 464 0 -461 1 38 0 312 1 0 
0 -255 1 -227 0 520 1 -264 0 53 1 0 1 0 0 303 
1 0 0 -303 0 51 1 0 0 -17 0 552 1 18 0 -432 
1 -401 0 401 0 -165 1 -179 0 339 0 -297 1 0 0 23 
1 -41 0 124 1 8 0 -128 1 0 0 -18 1 0 0 313 
1 0 0 -410 0 101 1 0 0 405 1 -143 0 -104 1 0 
0 -467 1 440 0 -356 0 130 1 0 1 0 0 140 1 479 
0 -479 1 -40 1 0 1 -55 1 0 0 443 1 0 0 -448 
1 0 0 222 1 236 0 -341 1 -117 0 283 0 -331 1 0 
0 -3 1 0 0 324 3976 3978 100 MP stroke
1 0 0 -324 0 143 1 0 0 -141 1 -28 0 -102 1 133 
1 19 1 0 0 352 1 -26 0 132 1 0 0 -382 0 9 
1 0 1 355 1 -478 0 -53 0 531 1 -188 0 398 0 -202 
1 501 0 -939 1 -125 0 335 0 -335 1 0 0 38 1 41 
1 283 1 0 0 -516 1 0 0 385 0 -78 1 0 0 171 
1 0 1 0 0 47 0 -335 0 230 1 0 0 32 1 0 
0 142 1 0 0 316 1 -151 0 -496 1 88 0 154 1 0 
0 -150 1 0 0 161 1 -48 1 209 0 502 0 -681 1 0 
0 -143 0 628 1 -527 0 -387 0 262 1 179 0 -251 0 102 
1 0 1 -102 0 -44 1 0 0 -103 1 0 0 199 0 -96 
1 0 0 169 0 -34 1 0 0 219 0 -219 1 0 0 118 
1 0 0 -142 1 0 0 137 0 -19 1 -96 1 0 0 21 
1 305 1 0 0 -3 3929 3876 100 MP stroke
1 -498 1 -218 0 453 1 -115 0 158 1 0 0 -227 1 0 
1 0 0 15 1 0 1 23 0 329 1 0 0 -336 0 51 
1 0 0 106 1 0 0 54 1 -103 0 -85 1 0 0 697 
1 37 0 -525 1 27 0 -465 0 165 1 0 0 131 1 -16 
0 -89 1 0 0 535 1 0 0 -509 0 79 1 0 0 -47 
1 0 0 83 1 -83 0 -127 1 0 0 69 1 0 0 -138 
0 157 1 0 0 137 1 48 0 -173 1 0 1 -121 1 0 
1 0 0 586 1 -117 0 178 0 -281 1 145 0 -63 1 -392 
0 194 1 198 1 0 0 481 1 -368 1 0 0 -315 1 0 
0 414 0 -628 0 139 1 0 0 479 0 -556 1 28 0 359 
0 -238 1 0 1 0 0 -32 0 209 1 -127 0 -82 1 0 
1 0 0 130 0 -197 1 0 0 96 1 0 1 0 0 201 
1 0 0 -204 0 53 3880 4107 100 MP stroke
1 0 0 479 1 -626 0 45 1 0 0 239 0 -57 1 -81 
1 154 0 -332 1 266 0 62 0 -123 1 -151 0 345 1 -544 
0 595 1 -70 1 85 1 20 0 -122 1 0 0 36 1 0 
0 -302 0 406 1 -353 0 -120 1 389 0 -173 1 0 0 297 
0 -492 1 146 0 400 0 -102 1 267 0 -422 1 0 0 -105 
1 0 0 350 1 -403 0 374 1 -129 0 -205 0 232 1 -308 
0 -137 0 137 1 -263 0 -15 0 847 1 0 0 292 0 -1071 
1 3 0 -18 0 79 1 0 0 -138 0 314 1 0 0 -121 
1 0 1 0 0 86 1 -292 0 291 1 -9 0 -108 0 50 
1 0 0 241 1 0 0 -412 0 138 1 0 0 209 1 -162 
0 141 0 -143 1 0 0 -58 1 24 1 382 0 -564 0 103 
1 0 0 -70 1 0 0 438 0 -472 1 0 0 359 1 -287 
0 388 1 0 0 -287 3836 4245 100 MP stroke
0 320 1 -482 0 472 1 0 0 286 0 -607 1 0 0 321 
0 -287 1 287 0 606 0 -228 1 -46 1 -397 0 -210 1 0 
0 72 1 0 0 -26 1 0 0 380 0 -354 1 0 0 74 
1 0 0 200 1 -274 0 -36 0 40 1 -38 0 119 0 -196 
1 0 0 131 1 -40 1 0 0 108 1 0 0 452 1 134 
0 -12 1 0 0 -503 1 0 0 83 1 -322 0 322 1 0 
0 -415 0 591 1 0 0 138 0 -36 1 0 0 -534 1 0 
0 167 1 0 0 -103 1 232 0 50 0 -103 1 0 0 -489 
0 489 1 0 1 -99 1 -34 0 277 1 0 0 195 1 0 
0 -611 1 0 0 848 0 -729 1 0 0 280 0 -605 1 223 
1 0 0 438 1 0 0 -191 1 0 0 271 1 -41 0 -431 
1 -240 0 366 1 0 0 257 0 -477 1 477 0 408 1 0 
1 -889 0 723 1 0 3790 3493 100 MP stroke
0 -452 1 0 1 -412 0 486 0 -142 1 0 0 72 1 0 
0 -322 1 0 0 106 1 0 1 188 1 0 1 -199 0 -195 
1 225 0 386 0 -511 1 0 1 0 0 355 1 0 1 0 
0 -536 1 702 0 -368 1 -166 0 571 1 0 0 -70 1 0 
0 584 0 -584 1 0 0 -367 1 0 1 0 0 231 1 0 
0 118 0 -404 0 171 1 0 0 427 0 -313 1 0 0 231 
1 -256 0 -159 1 -315 0 60 0 -37 1 0 0 436 0 -312 
1 0 1 0 0 78 0 -204 0 73 1 415 0 -568 1 -48 
0 792 0 -556 1 0 1 128 0 -346 1 0 0 575 1 0 
0 -191 1 513 0 -560 1 238 1 0 0 -450 0 38 1 0 
1 399 1 0 0 -125 1 -216 0 595 0 -613 1 -44 0 337 
1 0 0 -205 1 -19 0 -20 1 -100 0 148 0 -43 1 0 
0 156 1 0 0 223 3742 3864 100 MP stroke
0 -336 0 245 1 0 0 -106 1 -128 0 346 1 0 0 -423 
1 0 1 0 0 217 1 0 0 20 1 0 0 -337 1 0 
0 58 1 0 0 63 1 0 0 -114 0 353 1 0 0 -380 
0 36 1 0 0 527 0 -442 1 272 0 -27 1 -416 0 424 
0 -246 1 113 0 10 1 0 1 0 0 -79 1 0 0 -269 
1 0 0 397 0 -397 1 921 0 -380 1 -108 0 -78 1 -75 
1 422 0 -103 1 -310 0 264 1 -264 1 0 0 -49 1 -43 
0 -153 0 139 1 304 0 121 1 0 1 -174 0 53 0 -187 
1 28 1 0 0 -151 1 0 0 151 1 0 0 -162 0 34 
1 0 0 134 1 0 0 -91 0 208 1 -225 0 662 1 0 
0 -328 0 94 1 -94 0 -418 0 258 1 216 1 -169 0 -337 
1 211 1 0 1 -75 0 467 0 -192 1 258 0 -770 1 0 
1 0 0 332 0 -40 3695 4182 100 MP stroke
1 0 0 60 1 -243 0 -20 1 74 0 156 1 -89 0 -220 
1 0 0 498 1 -271 0 456 1 -356 0 -249 0 487 1 -200 
0 13 0 -293 1 0 0 155 1 0 0 87 1 88 0 -385 
1 0 1 0 0 389 1 0 0 -190 1 0 1 0 0 -76 
1 -139 0 339 1 0 1 0 0 -97 1 406 0 -397 0 81 
1 -158 0 282 1 0 0 397 1 0 0 -645 1 -248 0 516 
1 0 1 -22 0 22 1 0 1 -202 1 89 1 0 0 -213 
1 -127 0 500 1 300 0 -336 0 36 1 386 0 -538 0 264 
1 471 0 -876 1 106 1 -23 0 460 0 -150 1 150 0 160 
1 -630 0 -134 1 0 0 134 1 0 0 90 1 0 1 0 
0 -461 1 0 0 1012 1 -241 0 -239 0 485 1 -110 0 -622 
1 47 0 369 0 -502 0 329 1 119 0 -115 1 0 0 -103 
1 -102 1 0 0 373 3645 3818 100 MP stroke
1 -681 0 308 1 0 0 -70 1 0 0 -94 0 135 1 -18 
0 134 1 0 0 -41 1 -89 0 120 1 14 1 0 0 -77 
1 0 1 0 1 0 0 -71 1 0 0 567 0 -466 1 0 
0 -224 1 0 0 106 0 -169 1 0 1 0 0 165 1 329 
0 -329 1 0 0 257 1 -283 1 0 1 0 0 11 1 0 
0 107 0 -96 1 610 0 -451 1 -146 0 -28 1 -37 0 109 
1 0 0 -72 0 624 1 -363 0 398 1 0 1 0 0 -426 
1 0 0 370 1 56 0 -257 1 257 0 -557 1 0 0 575 
1 -238 0 -150 1 0 0 150 1 0 0 -127 1 304 0 -390 
1 0 1 76 0 375 1 -520 0 38 1 147 0 384 1 -657 
0 400 1 0 0 -294 0 294 1 -556 0 1059 0 -423 1 0 
0 -205 0 205 1 -4 1 0 0 250 0 -263 0 25 1 0 
1 0 0 132 1 -384 3595 3983 100 MP stroke
1 113 0 59 0 -131 1 0 0 330 1 0 0 -591 1 0 
0 1026 0 -324 1 0 0 20 0 -374 1 0 0 886 1 -26 
0 -20 1 -963 0 178 1 0 0 -178 1 -205 0 707 0 -390 
1 0 0 476 0 -848 1 0 0 134 1 0 1 0 1 0 
0 -134 1 0 1 0 0 -105 1 0 0 511 1 -443 1 0 
0 42 1 0 0 247 1 0 0 -5 1 0 1 -7 0 82 
1 0 0 71 0 -71 1 -452 0 -48 0 584 1 0 0 -94 
1 0 0 -191 0 286 1 -1 0 -599 1 0 0 193 1 0 
0 70 1 -59 0 109 1 303 1 0 0 13 1 0 0 182 
1 0 1 0 0 -508 1 0 0 -1 0 1 1 432 0 -93 
1 0 0 49 1 0 0 -49 1 -104 0 -519 0 617 1 6 
0 -694 0 895 1 0 0 -403 0 51 1 21 0 173 1 268 
0 -663 1 138 0 110 3548 3893 100 MP stroke
1 -384 0 556 1 0 0 46 1 -268 0 -82 1 0 0 -72 
1 0 0 174 0 -375 1 0 0 320 1 0 1 -238 0 164 
0 -190 1 80 0 -37 0 310 1 0 0 -403 1 0 1 0 
0 226 0 -254 1 0 1 212 1 0 1 0 0 -97 1 0 
1 0 1 0 0 -240 1 0 1 0 0 881 1 -856 0 82 
1 64 0 300 0 -311 0 102 1 0 0 35 1 -35 1 -279 
0 361 1 -193 1 146 1 0 0 395 1 0 0 -19 1 0 
0 -573 1 0 0 -75 1 0 0 270 0 -107 1 107 0 230 
1 0 0 -230 1 202 0 -202 1 0 0 284 1 0 0 68 
1 -324 0 -273 1 0 0 421 1 0 0 -421 1 683 1 0 
0 -451 1 370 0 -201 1 0 0 85 0 -125 1 0 0 -496 
0 295 1 0 0 -47 1 0 0 248 1 -234 0 735 0 -574 
1 0 0 -213 1 184 3497 4136 100 MP stroke
0 258 0 -324 1 0 0 -143 1 0 0 490 0 -54 1 54 
0 -87 0 87 1 -285 0 -139 0 5 1 0 0 412 1 0 
0 30 1 0 0 -364 1 -6 0 204 1 0 0 -106 1 0 
0 -48 1 0 0 -212 0 13 1 0 0 261 1 -183 1 222 
1 0 0 -1 0 14 1 -298 0 151 1 -118 0 133 0 -133 
1 0 0 28 1 551 1 0 0 -228 1 0 1 0 0 -469 
1 205 0 302 1 0 0 -243 1 0 0 359 0 -247 1 0 
0 247 1 0 1 -202 0 -187 1 0 0 437 1 -87 1 0 
0 -559 1 0 0 438 1 -338 0 171 1 0 1 0 0 207 
1 0 0 42 1 -124 1 0 1 0 0 -77 0 77 1 -303 
0 148 1 303 0 -290 0 319 1 -171 0 177 0 -550 0 474 
1 0 0 -233 0 105 1 0 1 0 0 -276 1 0 1 522 
0 -502 1 179 0 92 3449 4006 100 MP stroke
0 -216 1 125 0 -106 1 15 0 182 0 -430 0 112 1 0 
0 -142 0 336 1 0 0 13 1 -42 0 83 0 -83 1 0 
0 185 0 -204 1 -9 0 -167 0 131 1 -158 0 -29 1 0 
0 291 1 0 0 -226 0 115 1 0 0 -174 0 82 1 0 
0 -136 1 318 0 -174 0 409 1 4 0 -365 1 132 0 234 
1 -409 0 170 1 0 1 185 1 0 0 -160 0 172 1 0 
0 -588 1 403 0 -174 0 86 1 169 1 0 0 -183 1 0 
0 -33 1 0 0 216 0 -64 1 0 0 -250 1 0 0 331 
1 0 0 -354 1 122 0 -166 0 310 1 0 0 182 0 -206 
1 -207 0 101 1 0 0 -81 1 0 0 394 1 -257 0 -63 
1 0 0 -111 1 641 0 -425 1 0 0 -112 0 264 1 0 
0 -298 1 0 0 334 0 -27 1 -242 0 -70 1 0 0 156 
0 -1 1 -298 0 147 3407 4296 100 MP stroke
0 -80 1 0 0 472 0 -149 1 0 0 -300 1 84 0 538 
1 -526 0 240 1 0 0 -257 1 0 0 54 0 -183 1 0 
0 339 1 0 0 -289 1 0 0 424 1 0 1 0 0 356 
1 0 0 -167 1 0 0 -189 1 0 0 -321 1 0 0 340 
1 0 1 0 0 42 0 -319 1 158 0 -275 1 0 0 -83 
1 0 1 0 0 477 1 0 0 -498 1 0 1 0 0 105 
1 35 0 -164 1 0 0 235 1 0 0 -154 0 143 1 274 
1 0 0 -261 0 85 1 0 0 244 0 -417 1 0 1 297 
1 0 1 0 0 -393 0 119 1 0 0 131 0 -250 0 116 
1 140 1 0 1 0 1 0 0 -47 0 105 1 0 0 -146 
1 0 0 172 1 165 1 0 0 87 0 -354 1 0 1 28 
0 -156 0 80 1 0 0 -38 0 91 1 0 0 -286 1 0 
0 238 0 -130 1 0 3358 4314 100 MP stroke
1 32 0 -117 1 0 0 -60 0 164 1 262 0 10 1 0 
0 334 1 -344 0 -60 0 252 1 413 0 -754 1 377 0 522 
1 0 0 -852 1 0 0 -11 1 114 0 105 0 -357 1 0 
0 585 0 -34 1 0 0 -506 0 212 1 -107 0 150 0 -150 
1 159 0 -283 1 133 0 346 0 -458 1 0 0 337 1 0 
0 -285 1 306 0 -50 1 19 0 -303 1 0 0 303 1 0 
1 -501 0 376 1 0 0 -69 1 69 0 343 1 0 0 -698 
1 198 0 348 1 0 0 62 1 -324 0 -167 1 225 0 86 
0 -384 1 114 0 420 0 -416 1 0 0 262 0 -22 1 273 
0 -70 1 0 0 -196 1 0 0 196 0 -445 1 0 0 301 
1 181 0 6 0 -639 1 121 0 866 1 -260 0 -225 1 126 
0 226 1 -495 0 495 1 -88 0 209 1 -23 0 491 1 -434 
0 -552 1 0 0 189 3314 3735 100 MP stroke
0 -90 1 0 0 465 0 -553 1 0 0 -148 0 528 1 0 
0 -570 1 0 0 496 1 -1 0 39 1 0 0 -34 1 0 
0 -314 1 0 0 139 1 723 0 -351 1 0 0 -196 1 -547 
0 648 1 0 0 -349 0 458 1 72 0 153 0 -51 1 -169 
0 -467 1 0 0 -565 1 308 0 43 0 -111 1 -100 0 -46 
1 0 0 225 0 -78 1 323 0 -245 0 463 1 0 0 -268 
1 34 0 -311 1 0 0 328 1 0 0 -180 1 0 0 -123 
1 126 0 90 1 0 0 -216 0 81 1 0 0 -231 0 190 
1 0 0 -263 1 0 0 -12 1 68 0 128 1 0 0 102 
1 0 0 -340 1 622 0 -376 0 233 1 0 0 -252 0 271 
1 0 0 -302 1 0 0 -85 1 243 0 -128 1 232 0 -423 
0 262 1 0 0 107 0 -106 1 0 0 193 1 171 0 -171 
1 0 0 405 0 -15 3272 3553 100 MP stroke
1 0 0 -405 1 0 0 615 0 -344 1 470 0 -143 0 17 
1 0 0 -994 0 109 1 131 1 0 0 244 0 -5 1 81 
0 -597 0 167 1 0 0 856 1 0 0 -737 1 0 0 -12 
1 0 0 397 0 -347 1 0 0 129 1 -129 0 -62 1 0 
0 -28 1 -233 0 556 0 -52 1 223 0 -294 1 0 0 -179 
0 576 1 -87 0 -205 1 -111 0 128 0 -79 1 0 0 278 
1 -260 1 0 0 56 0 -112 1 0 0 266 1 0 0 -405 
0 177 1 0 1 0 0 -338 0 174 1 272 0 -147 0 139 
1 -185 0 -254 1 0 0 -24 1 321 0 -140 1 -157 0 45 
1 688 0 -656 1 0 0 66 1 0 1 0 0 313 0 -567 
1 122 0 171 1 0 0 35 0 -173 1 123 1 0 0 -108 
1 0 0 108 1 0 0 53 1 0 0 27 1 174 0 297 
1 -221 0 -695 0 63 3228 4371 100 MP stroke
1 0 0 -41 1 460 1 25 1 -374 0 -76 0 425 1 0 
0 -180 1 0 1 75 0 -393 1 -24 0 199 0 -279 0 97 
1 233 0 65 1 0 0 162 0 -149 1 0 0 252 0 -18 
1 -153 0 153 0 -218 1 288 0 -357 1 37 0 -263 0 43 
1 114 1 303 1 0 0 -414 1 174 1 64 0 338 1 0 
0 -353 1 0 0 165 1 0 0 -168 1 0 0 35 1 0 
1 0 1 -20 0 468 0 -580 1 0 0 -11 0 184 1 0 
0 -203 0 3 1 180 1 0 0 -164 0 264 1 -15 0 81 
1 0 0 163 0 -73 1 0 0 -133 1 141 1 0 1 -244 
0 -296 0 515 1 -142 0 -367 1 0 1 -47 0 149 1 0 
0 444 1 0 0 -511 1 207 1 0 0 226 1 0 0 -498 
1 0 1 0 0 295 1 59 1 0 0 68 1 -68 0 156 
1 0 0 617 1 0 3177 3276 100 MP stroke
0 -733 0 116 1 0 0 -87 1 0 0 108 1 0 1 -56 
0 264 0 -87 1 -27 0 -312 1 0 0 473 1 -284 0 -236 
1 0 0 928 1 0 0 -468 1 -23 0 -519 1 248 0 -193 
1 -262 0 409 1 0 1 0 0 -479 0 389 1 -304 0 181 
1 0 0 76 1 0 0 295 0 -282 1 0 0 -204 1 0 
0 216 1 0 0 -200 0 62 1 0 0 220 0 -160 1 0 
0 -112 0 79 1 0 0 296 1 0 0 -161 1 0 0 -20 
1 20 0 360 1 141 0 -179 0 166 1 0 0 -435 1 0 
1 0 0 85 1 0 0 -278 1 278 0 119 0 -119 1 0 
0 -330 1 0 0 226 1 -1 0 -34 1 486 0 -696 0 364 
1 6 0 126 0 -361 1 -62 0 416 0 -622 1 602 0 248 
0 -248 1 0 0 -351 1 340 0 -457 1 0 0 -42 1 44 
0 -2 0 150 1 0 3133 4165 100 MP stroke
0 -19 0 26 1 -261 0 528 1 0 0 -635 0 273 1 174 
0 -73 1 100 0 38 1 278 0 -136 1 0 0 136 1 0 
0 417 1 -934 0 -79 0 360 1 -387 0 387 1 0 1 0 
0 -538 0 978 1 0 0 -618 1 0 0 -213 0 541 1 0 
0 -527 0 136 1 325 0 488 0 -308 1 0 0 -637 1 0 
0 408 0 -49 1 79 0 -150 1 -94 0 -59 1 0 0 -148 
1 148 0 -153 0 485 1 -92 0 -49 1 0 0 84 1 0 
0 -477 0 44 1 0 0 -235 0 199 1 16 0 270 1 -41 
0 -76 1 0 0 -53 1 0 0 -166 1 0 0 257 1 -257 
0 148 0 -9 1 0 0 -180 1 0 0 413 1 0 0 214 
0 -27 1 -441 0 448 0 -24 1 -109 0 -423 0 320 1 -320 
0 418 0 -497 1 181 0 -170 0 130 1 151 0 -8 1 -193 
0 405 1 117 0 -165 3092 4075 100 MP stroke
1 0 0 -122 1 0 0 -112 0 293 1 0 0 -272 1 0 
0 -150 0 63 1 233 0 525 0 -525 1 0 1 -170 1 509 
0 -144 1 148 0 -225 1 0 0 -62 1 0 0 -204 0 557 
1 -472 0 83 1 -83 1 0 0 98 0 -368 1 368 0 -219 
1 88 0 821 0 -454 1 0 0 -124 0 403 1 85 0 -370 
1 0 0 61 1 0 0 -552 1 0 1 412 0 -130 1 0 
0 130 1 0 0 26 1 0 1 0 1 0 0 -348 1 0 
0 356 1 0 0 -79 0 83 1 -54 0 596 0 -639 1 -287 
0 771 1 -517 0 68 1 284 0 106 1 0 1 0 0 -655 
1 0 0 115 1 0 0 360 0 -397 0 37 1 224 0 -159 
1 0 0 -106 0 424 1 0 0 -204 1 0 0 -16 1 -162 
0 370 1 -618 0 235 1 -11 0 -180 0 437 1 9 0 -380 
1 0 1 0 0 447 3045 3820 100 MP stroke
1 0 0 -358 1 0 0 93 1 0 0 -406 1 0 1 0 
0 704 0 -704 1 604 0 -132 1 0 0 -472 1 0 0 564 
1 0 0 -131 0 234 1 -473 0 -57 1 0 1 211 0 -4 
1 0 0 46 1 0 1 0 0 -109 1 0 0 109 0 -260 
1 0 0 962 1 0 0 -632 1 396 0 205 0 -56 1 0 
0 -43 1 73 0 -723 0 219 1 0 0 117 1 -445 0 452 
0 -479 0 250 1 0 1 0 0 200 1 -302 1 -30 0 -299 
1 369 1 64 0 124 0 -124 1 0 0 39 1 -318 1 547 
1 0 0 -89 0 558 1 -817 0 176 0 -160 1 0 0 -230 
0 28 1 0 0 362 0 -359 1 389 0 -232 0 120 1 96 
0 32 1 0 0 19 1 181 0 -661 1 273 0 656 1 -28 
0 -635 1 0 0 -125 1 0 1 0 1 0 0 -113 0 212 
1 0 0 158 0 -412 2998 4396 100 MP stroke
1 0 0 421 1 0 0 -202 1 0 0 90 0 -39 1 -305 
0 543 1 0 0 282 0 -105 1 0 0 -524 1 0 0 -67 
0 302 1 -14 0 76 0 -402 1 263 0 28 1 94 0 -159 
0 18 1 0 0 -127 0 426 1 -87 0 40 1 319 0 -291 
1 -161 0 -271 1 18 0 127 1 0 1 324 1 0 1 -263 
1 0 1 0 1 -82 0 57 1 173 0 -164 1 0 0 -111 
0 117 1 -6 0 -79 0 534 1 0 0 72 0 -597 1 164 
0 253 0 -534 1 0 0 594 1 0 0 -746 0 560 1 -162 
0 132 1 147 0 -478 0 440 1 -25 0 184 1 -551 0 551 
0 -109 1 0 0 -271 1 0 0 -16 1 314 0 16 0 -452 
1 122 0 238 0 -603 1 773 0 -517 0 539 1 0 0 -358 
0 48 1 0 0 -264 0 29 1 0 0 295 1 256 0 -168 
1 1 0 -148 1 0 2954 3874 100 MP stroke
0 -153 1 153 0 -162 1 0 0 -55 1 167 0 428 1 0 
0 -117 1 0 0 -369 1 0 0 -281 1 1 0 32 1 0 
0 127 1 0 1 77 0 135 0 -479 1 0 0 19 1 0 
0 163 1 0 0 141 1 -172 0 -293 1 0 0 872 1 0 
0 -709 1 0 0 299 0 -397 1 112 0 402 0 -325 1 0 
0 -5 1 50 0 472 0 -84 1 65 0 165 0 -611 0 434 
1 -174 0 -281 1 0 0 -246 1 0 0 241 1 5 1 0 
1 0 1 0 1 0 1 0 0 -114 1 0 0 -69 1 0 
0 -69 0 381 1 -312 0 153 0 -153 1 0 0 209 1 2 
0 116 1 0 0 190 1 0 0 -433 1 0 0 468 1 0 
0 -218 1 0 0 264 1 231 0 -523 1 0 0 -131 1 0 
1 259 0 -94 0 151 1 -340 0 182 1 -39 1 321 1 0 
0 -63 0 65 1 -91 2905 3884 100 MP stroke
0 -154 1 0 0 -498 0 670 1 0 0 -278 0 23 1 0 
0 18 0 -88 1 88 1 0 0 -328 1 0 0 192 1 0 
0 184 0 -360 1 435 0 -89 1 -131 0 81 1 -247 0 247 
1 307 0 -422 0 23 1 0 0 189 1 28 1 303 0 436 
0 -1097 1 0 0 78 0 -78 1 311 0 32 1 0 0 -225 
1 0 0 279 0 -301 0 269 1 0 0 -122 1 0 0 205 
0 -34 1 0 0 -40 1 -212 0 310 1 -211 0 -25 1 -229 
1 238 1 0 0 -247 1 0 0 143 1 -49 1 297 0 -297 
0 49 1 0 1 101 0 105 0 -234 0 10 1 375 0 -454 
0 295 1 0 1 0 0 38 0 -265 1 335 0 -368 1 0 
0 213 1 0 0 -322 1 0 0 231 1 0 0 -193 0 19 
1 0 0 314 1 0 0 12 0 -119 0 107 1 118 1 0 
0 -181 1 0 0 -378 2861 4452 100 MP stroke
1 0 0 127 1 0 0 192 1 0 0 123 1 -123 1 -70 
0 208 1 0 0 -208 0 379 1 0 0 -394 0 658 1 0 
0 -528 1 504 0 -565 1 147 0 149 1 0 0 -478 1 -136 
1 0 0 942 0 -501 1 104 0 -256 0 176 1 0 1 -1 
0 -74 1 74 0 -14 1 0 0 76 0 -95 0 19 1 0 
0 -9 0 157 1 0 0 -75 1 0 0 75 1 -151 0 151 
2839 3869 49 MP stroke
gr

%%IncludeResource: font Helvetica
/Helvetica /ISOLatin1Encoding 120 FMSR

2893 2751 mt 
(\(e\) sigma2 for tip density) s

end %%Color Dict

eplot
%%EndObject

epage
end

showpage

%%Trailer
%%EOF
