%!PS-Adobe-3.0 EPSF-3.0
%%Creator: MATLAB, The MathWorks, Inc. Version 8.1.0.604 (R2013a). Operating System: Linux 3.13.0-40-generic #69-Ubuntu SMP Thu Nov 13 17:53:56 UTC 2014 x86_64.
%%Title: /home/xiaolin/Documents/model_selection/model_selection_log03new/YH/data_figures/YH.eps
%%CreationDate: 12/14/2014  03:15:03
%%DocumentNeededFonts: Helvetica
%%DocumentProcessColors: Cyan Magenta Yellow Black
%%LanguageLevel: 2
%%Pages: 1
%%BoundingBox:    11   201   600   591
%%EndComments

%%BeginProlog
% MathWorks dictionary
/MathWorks 160 dict begin
% definition operators
/bdef {bind def} bind def
/ldef {load def} bind def
/xdef {exch def} bdef
/xstore {exch store} bdef
% operator abbreviations
/c  /clip ldef
/cc /concat ldef
/cp /closepath ldef
/gr /grestore ldef
/gs /gsave ldef
/mt /moveto ldef
/np /newpath ldef
/cm /currentmatrix ldef
/sm /setmatrix ldef
/rm /rmoveto ldef
/rl /rlineto ldef
/s {show newpath} bdef
/sc {setcmykcolor} bdef
/sr /setrgbcolor ldef
/sg /setgray ldef
/w /setlinewidth ldef
/j /setlinejoin ldef
/cap /setlinecap ldef
/rc {rectclip} bdef
/rf {rectfill} bdef
% page state control
/pgsv () def
/bpage {/pgsv save def} bdef
/epage {pgsv restore} bdef
/bplot /gsave ldef
/eplot {stroke grestore} bdef
% orientation switch
/portraitMode 0 def /landscapeMode 1 def /rotateMode 2 def
% coordinate system mappings
/dpi2point 0 def
% font control
/FontSize 0 def
/FMS {/FontSize xstore findfont [FontSize 0 0 FontSize neg 0 0]
  makefont setfont} bdef
/reencode {exch dup where {pop load} {pop StandardEncoding} ifelse
  exch dup 3 1 roll findfont dup length dict begin
  { 1 index /FID ne {def}{pop pop} ifelse } forall
  /Encoding exch def currentdict end definefont pop} bdef
/isroman {findfont /CharStrings get /Agrave known} bdef
/FMSR {3 1 roll 1 index dup isroman {reencode} {pop pop} ifelse
  exch FMS} bdef
/csm {1 dpi2point div -1 dpi2point div scale neg translate
 dup landscapeMode eq {pop -90 rotate}
  {rotateMode eq {90 rotate} if} ifelse} bdef
% line types: solid, dotted, dashed, dotdash
/SO { [] 0 setdash } bdef
/DO { [.5 dpi2point mul 4 dpi2point mul] 0 setdash } bdef
/DA { [6 dpi2point mul] 0 setdash } bdef
/DD { [.5 dpi2point mul 4 dpi2point mul 6 dpi2point mul 4
  dpi2point mul] 0 setdash } bdef
% macros for lines and objects
/L {lineto stroke} bdef
/MP {3 1 roll moveto 1 sub {rlineto} repeat} bdef
/AP {{rlineto} repeat} bdef
/PDlw -1 def
/W {/PDlw currentlinewidth def setlinewidth} def
/PP {closepath eofill} bdef
/DP {closepath stroke} bdef
/MR {4 -2 roll moveto dup  0 exch rlineto exch 0 rlineto
  neg 0 exch rlineto closepath} bdef
/FR {MR stroke} bdef
/PR {MR fill} bdef
/L1i {{currentfile picstr readhexstring pop} image} bdef
/tMatrix matrix def
/MakeOval {newpath tMatrix currentmatrix pop translate scale
0 0 1 0 360 arc tMatrix setmatrix} bdef
/FO {MakeOval stroke} bdef
/PO {MakeOval fill} bdef
/PD {currentlinewidth 2 div 0 360 arc fill
   PDlw -1 eq not {PDlw w /PDlw -1 def} if} def
/FA {newpath tMatrix currentmatrix pop translate scale
  0 0 1 5 -2 roll arc tMatrix setmatrix stroke} bdef
/PA {newpath tMatrix currentmatrix pop	translate 0 0 moveto scale
  0 0 1 5 -2 roll arc closepath tMatrix setmatrix fill} bdef
/FAn {newpath tMatrix currentmatrix pop translate scale
  0 0 1 5 -2 roll arcn tMatrix setmatrix stroke} bdef
/PAn {newpath tMatrix currentmatrix pop translate 0 0 moveto scale
  0 0 1 5 -2 roll arcn closepath tMatrix setmatrix fill} bdef
/vradius 0 def /hradius 0 def /lry 0 def
/lrx 0 def /uly 0 def /ulx 0 def /rad 0 def
/MRR {/vradius xdef /hradius xdef /lry xdef /lrx xdef /uly xdef
  /ulx xdef newpath tMatrix currentmatrix pop ulx hradius add uly
  vradius add translate hradius vradius scale 0 0 1 180 270 arc 
  tMatrix setmatrix lrx hradius sub uly vradius add translate
  hradius vradius scale 0 0 1 270 360 arc tMatrix setmatrix
  lrx hradius sub lry vradius sub translate hradius vradius scale
  0 0 1 0 90 arc tMatrix setmatrix ulx hradius add lry vradius sub
  translate hradius vradius scale 0 0 1 90 180 arc tMatrix setmatrix
  closepath} bdef
/FRR {MRR stroke } bdef
/PRR {MRR fill } bdef
/MlrRR {/lry xdef /lrx xdef /uly xdef /ulx xdef /rad lry uly sub 2 div def
  newpath tMatrix currentmatrix pop ulx rad add uly rad add translate
  rad rad scale 0 0 1 90 270 arc tMatrix setmatrix lrx rad sub lry rad
  sub translate rad rad scale 0 0 1 270 90 arc tMatrix setmatrix
  closepath} bdef
/FlrRR {MlrRR stroke } bdef
/PlrRR {MlrRR fill } bdef
/MtbRR {/lry xdef /lrx xdef /uly xdef /ulx xdef /rad lrx ulx sub 2 div def
  newpath tMatrix currentmatrix pop ulx rad add uly rad add translate
  rad rad scale 0 0 1 180 360 arc tMatrix setmatrix lrx rad sub lry rad
  sub translate rad rad scale 0 0 1 0 180 arc tMatrix setmatrix
  closepath} bdef
/FtbRR {MtbRR stroke } bdef
/PtbRR {MtbRR fill } bdef
/stri 6 array def /dtri 6 array def
/smat 6 array def /dmat 6 array def
/tmat1 6 array def /tmat2 6 array def /dif 3 array def
/asub {/ind2 exch def /ind1 exch def dup dup
  ind1 get exch ind2 get sub exch } bdef
/tri_to_matrix {
  2 0 asub 3 1 asub 4 0 asub 5 1 asub
  dup 0 get exch 1 get 7 -1 roll astore } bdef
/compute_transform {
  dmat dtri tri_to_matrix tmat1 invertmatrix 
  smat stri tri_to_matrix tmat2 concatmatrix } bdef
/ds {stri astore pop} bdef
/dt {dtri astore pop} bdef
/db {2 copy /cols xdef /rows xdef mul dup 3 mul string
  currentfile 
  3 index 0 eq {/ASCIIHexDecode filter}
  {/ASCII85Decode filter 3 index 2 eq {/RunLengthDecode filter} if }
  ifelse exch readstring pop
  dup 0 3 index getinterval /rbmap xdef
  dup 2 index dup getinterval /gbmap xdef
  1 index dup 2 mul exch getinterval /bbmap xdef pop pop}bdef
/it {gs np dtri aload pop moveto lineto lineto cp c
  cols rows 8 compute_transform 
  rbmap gbmap bbmap true 3 colorimage gr}bdef
/il {newpath moveto lineto stroke}bdef
currentdict end def
%%EndProlog

%%BeginSetup
MathWorks begin

0 cap

end
%%EndSetup

%%Page: 1 1
%%BeginPageSetup
%%PageBoundingBox:    11   201   600   591
MathWorks begin
bpage
%%EndPageSetup

%%BeginObject: obj1
bplot

/dpi2point 12 def
portraitMode 0132 7092 csm

    0     0  7075  4675 rc
87 dict begin %Colortable dictionary
/c0 { 0.000000 0.000000 0.000000 sr} bdef
/c1 { 1.000000 1.000000 1.000000 sr} bdef
/c2 { 0.900000 0.000000 0.000000 sr} bdef
/c3 { 0.000000 0.820000 0.000000 sr} bdef
/c4 { 0.000000 0.000000 0.800000 sr} bdef
/c5 { 0.910000 0.820000 0.320000 sr} bdef
/c6 { 1.000000 0.260000 0.820000 sr} bdef
/c7 { 0.000000 0.820000 0.820000 sr} bdef
c0
1 j
1 sg
   0    0 7076 4676 rf
6 w
0 1595 2367 0 0 -1595 920 1946 4 MP
PP
-2367 0 0 1595 2367 0 0 -1595 920 1946 5 MP stroke
4 w
DO
SO
6 w
0 sg
 920 1946 mt 3287 1946 L
 920  351 mt 3287  351 L
 920 1946 mt  920  351 L
3287 1946 mt 3287  351 L
 920 1946 mt 3287 1946 L
 920 1946 mt  920  351 L
 920 1946 mt  920 1922 L
 920  351 mt  920  374 L
%%IncludeResource: font Helvetica
/Helvetica /ISOLatin1Encoding 120 FMSR

 887 2091 mt 
(0) s
1393 1946 mt 1393 1922 L
1393  351 mt 1393  374 L
1360 2091 mt 
(5) s
1866 1946 mt 1866 1922 L
1866  351 mt 1866  374 L
1800 2091 mt 
(10) s
2340 1946 mt 2340 1922 L
2340  351 mt 2340  374 L
2274 2091 mt 
(15) s
2813 1946 mt 2813 1922 L
2813  351 mt 2813  374 L
2747 2091 mt 
(20) s
3287 1946 mt 3287 1922 L
3287  351 mt 3287  374 L
3221 2091 mt 
(25) s
 920 1946 mt  943 1946 L
3287 1946 mt 3263 1946 L
 819 1990 mt 
(0) s
 920 1718 mt  943 1718 L
3287 1718 mt 3263 1718 L
 719 1762 mt 
(0.5) s
 920 1490 mt  943 1490 L
3287 1490 mt 3263 1490 L
 819 1534 mt 
(1) s
 920 1262 mt  943 1262 L
3287 1262 mt 3263 1262 L
 719 1306 mt 
(1.5) s
 920 1034 mt  943 1034 L
3287 1034 mt 3263 1034 L
 819 1078 mt 
(2) s
 920  806 mt  943  806 L
3287  806 mt 3263  806 L
 719  850 mt 
(2.5) s
 920  578 mt  943  578 L
3287  578 mt 3263  578 L
 819  622 mt 
(3) s
 920  351 mt  943  351 L
3287  351 mt 3263  351 L
 719  395 mt 
(3.5) s
 920 1946 mt 3287 1946 L
 920  351 mt 3287  351 L
 920 1946 mt  920  351 L
3287 1946 mt 3287  351 L
gs 920 351 2368 1596 rc
0.85 sg
48 0 47 0 48 0 48 0 47 0 48 0 47 0 48 0 
47 0 48 0 48 0 47 0 48 0 47 0 48 0 48 0 
47 0 48 0 47 0 48 0 47 0 48 0 48 0 47 0 
48 0 47 0 48 0 47 0 48 0 48 0 47 0 48 0 
47 0 48 0 48 0 47 0 48 0 47 0 48 0 47 0 
48 1 48 0 47 0 48 0 47 0 48 0 47 0 48 0 
48 0 47 0 48 0 47 0 48 0 47 0 48 0 48 0 
47 0 48 0 47 0 48 0 48 0 47 0 48 0 47 1 
48 2 47 3 48 7 48 12 47 22 48 35 47 51 48 84 
47 101 48 142 48 155 47 150 48 196 47 163 48 208 48 94 
47 69 48 68 47 -52 48 -65 47 -67 48 -112 48 -134 47 -109 
48 -79 47 -16 48 -15 47 -13 48 27 48 36 47 48 48 -7 
47 -1 48 13 47 2 920 926 100 MP
48 0 48 0 47 0 48 0 47 0 48 0 48 0 47 0 
48 0 47 0 48 0 47 0 48 0 48 0 47 0 48 0 
47 0 48 0 47 0 48 0 48 0 47 0 48 0 47 0 
48 0 48 0 47 0 48 0 47 0 48 0 47 0 48 0 
48 0 47 0 48 0 47 0 48 0 47 0 48 0 48 0 
47 0 48 0 47 0 48 0 48 0 47 0 48 0 47 0 
48 0 47 0 48 0 48 0 47 0 48 0 47 0 48 0 
47 0 48 0 48 0 47 0 48 0 47 0 48 0 47 0 
48 0 48 0 47 0 48 0 47 0 48 0 48 0 47 0 
48 0 47 0 48 0 47 0 48 0 48 0 47 0 48 0 
47 0 48 0 47 0 48 0 48 0 47 0 48 0 47 0 
48 0 48 0 47 0 48 0 47 0 48 0 47 0 48 0 
48 0 47 0 48 0 47 0 100 AP
-48 0 -47 0 -48 0 -48 0 -47 0 -48 0 -47 0 -48 0 
-47 0 -48 0 -48 0 -47 0 -48 0 -47 0 -48 0 -48 0 
-47 0 -48 0 -47 0 -48 0 -47 0 -48 0 -48 0 -47 0 
-48 0 -47 0 -48 0 -47 0 -48 0 -48 0 -47 0 -48 0 
-47 0 -48 0 -48 0 -47 0 -48 0 -47 0 -48 0 -47 0 
-48 0 -48 0 -47 0 -48 0 -47 0 -48 0 -47 0 -48 0 
-48 0 -47 0 -48 0 -47 0 -48 0 -47 0 -48 0 -48 0 
-47 0 -48 0 -47 0 -48 0 -48 0 -47 0 -48 0 -47 0 
-48 0 -47 0 -48 0 -48 0 -47 0 -48 0 -47 0 -48 0 
-47 0 -48 0 -48 0 -47 0 -48 0 -47 0 -48 0 -48 0 
-47 0 -48 0 -47 0 -48 0 -47 0 -48 0 -48 0 -47 0 
-48 0 -47 0 -48 0 -47 0 -48 0 -48 0 -47 0 -48 0 
-47 0 -48 0 -48 0 0 0 100 AP
-47 1 -48 -5 -47 4 -48 -1 -47 -6 -48 -9 -48 -3 -47 5 
-48 -5 -47 8 -48 17 -47 22 -48 17 -48 23 -47 33 -48 14 
-47 -11 -48 -7 -47 -9 -48 -32 -48 -32 -47 -38 -48 -30 -47 -39 
-48 -30 -48 -27 -47 -23 -48 -15 -47 -12 -48 -7 -47 -4 -48 -3 
-48 -1 -47 -1 -48 0 -47 0 -48 0 -47 0 -48 0 -48 0 
-47 0 -48 0 -47 0 -48 0 -48 0 -47 0 -48 0 -47 0 
-48 0 -47 0 -48 0 -48 0 -47 0 -48 0 -47 0 -48 0 
-47 0 -48 -1 -48 0 -47 0 -48 0 -47 0 -48 0 -47 0 
-48 0 -48 0 -47 0 -48 0 -47 0 -48 0 -48 0 -47 0 
-48 0 -47 0 -48 0 -47 0 -48 0 -48 0 -47 0 -48 0 
-47 0 -48 0 -47 0 -48 0 -48 0 -47 0 -48 0 -47 0 
-48 0 -48 0 -47 0 -48 0 -47 0 -48 0 -47 0 -48 0 
-48 0 -47 0 -48 0 -47 0 100 AP
PP
0 sg
0 -813 -47 1 -48 -5 -47 4 -48 -1 -47 -6 -48 -9 -48 -3 
-47 5 -48 -5 -47 8 -48 17 -47 22 -48 17 -48 23 -47 33 
-48 14 -47 -11 -48 -7 -47 -9 -48 -32 -48 -32 -47 -38 -48 -30 
-47 -39 -48 -30 -48 -27 -47 -23 -48 -15 -47 -12 -48 -7 -47 -4 
-48 -3 -48 -1 -47 -1 -48 0 -47 0 -48 0 -47 0 -48 0 
-48 0 -47 0 -48 0 -47 0 -48 0 -48 0 -47 0 -48 0 
-47 0 -48 0 -47 0 -48 0 -48 0 -47 0 -48 0 -47 0 
-48 0 -47 0 -48 -1 -48 0 -47 0 -48 0 -47 0 -48 0 
-47 0 -48 0 -48 0 -47 0 -48 0 -47 0 -48 0 -48 0 
-47 0 -48 0 -47 0 -48 0 -47 0 -48 0 -48 0 -47 0 
-48 0 -47 0 -48 0 -47 0 -48 0 -48 0 -47 0 -48 0 
-47 0 -48 0 -48 0 -47 0 -48 0 -47 0 -48 0 -47 0 
-48 0 -48 0 -47 0 -48 0 -47 0 -48 0 -47 0 -48 0 
-48 0 -47 0 -48 0 -47 0 -48 0 -47 0 -48 0 -48 0 
-47 0 -48 0 -47 0 -48 0 -48 0 -47 0 -48 0 -47 0 
-48 0 -47 0 -48 0 -48 0 -47 0 -48 0 -47 0 -48 0 
-47 0 -48 0 -48 0 -47 0 -48 0 -47 0 -48 0 -48 0 
-47 0 -48 0 -47 0 -48 0 -47 0 -48 0 -48 0 -47 0 
-48 0 -47 0 -48 0 -47 0 -48 0 -48 0 -47 0 -48 0 
-47 0 -48 0 -47 0 -48 0 -48 0 -47 0 -48 0 -47 0 
-48 0 -48 0 -47 0 -48 0 -47 0 -48 0 -47 0 -48 0 
-48 0 -47 0 -48 0 -47 0 -48 0 -47 0 -48 0 -48 0 
-47 0 -48 0 -47 0 -48 0 -48 0 -47 0 -48 0 -47 0 
-48 0 -47 0 -48 0 -48 0 -47 0 -48 0 -47 0 -48 0 
-47 0 -48 0 -48 0 -47 0 -48 0 -47 0 -48 0 -48 0 
0 0 48 0 48 0 47 0 48 0 47 0 48 0 48 0 
47 0 48 0 47 0 48 0 47 0 48 0 48 0 47 0 
48 0 47 0 48 0 47 0 48 0 48 0 47 0 48 0 
47 0 48 0 48 0 47 0 48 0 47 0 48 0 47 0 
48 0 48 0 47 0 48 0 47 0 48 0 47 0 48 0 
48 0 47 0 48 0 47 0 48 0 48 0 47 0 48 0 
47 0 48 0 47 0 48 0 48 0 47 0 48 0 47 0 
48 0 47 0 48 0 48 0 47 0 48 0 47 0 48 0 
47 0 48 0 48 0 47 0 48 0 47 0 48 0 48 0 
47 0 48 0 47 0 48 0 47 0 48 0 48 0 47 0 
48 0 47 0 48 0 47 0 48 0 48 0 47 0 48 0 
47 0 48 0 48 0 47 0 48 0 47 0 48 0 47 0 
48 0 48 0 47 0 5725 1946 300 MP stroke
48 0 47 0 48 0 47 0 48 0 48 0 47 0 48 0 
47 0 48 0 47 0 48 0 48 0 47 0 48 0 47 0 
48 0 48 0 47 0 48 0 47 0 48 0 47 0 48 0 
48 0 47 0 48 0 47 0 48 0 47 0 48 0 48 0 
47 0 48 0 47 0 48 0 48 0 47 0 48 0 47 0 
48 0 47 0 48 1 48 0 47 0 48 0 47 0 48 0 
47 0 48 0 48 0 47 0 48 0 47 0 48 0 47 0 
48 0 48 0 47 0 48 0 47 0 48 0 48 0 47 0 
48 0 47 1 48 2 47 3 48 7 48 12 47 22 48 35 
47 51 48 84 47 101 48 142 48 155 47 150 48 196 47 163 
48 208 48 94 47 69 48 68 47 -52 48 -65 47 -67 48 -112 
48 -134 47 -109 48 -79 47 -16 48 -15 47 -13 48 27 48 36 
47 48 48 -7 47 -1 48 13 47 2 920 926 102 MP stroke
0.6 sg
48 0 47 0 48 0 48 0 47 0 48 0 47 0 48 0 
47 0 48 0 48 0 47 0 48 0 47 0 48 0 48 0 
47 0 48 0 47 0 48 0 47 0 48 0 48 0 47 0 
48 0 47 0 48 0 47 0 48 0 48 0 47 0 48 0 
47 0 48 0 48 0 47 0 48 0 47 0 48 0 47 0 
48 1 48 0 47 0 48 0 47 0 48 0 47 0 48 0 
48 0 47 0 48 0 47 0 48 0 47 0 48 0 48 0 
47 0 48 0 47 0 48 0 48 0 47 0 48 0 47 1 
48 1 47 2 48 5 48 9 47 16 48 26 47 40 48 58 
47 77 48 100 48 119 47 125 48 143 47 105 48 131 48 89 
47 66 48 30 47 -17 48 -54 47 -50 48 -106 48 -85 47 -68 
48 -60 47 -31 48 -4 47 -3 48 19 48 32 47 36 48 -9 
47 5 48 -2 47 -7 920 1206 100 MP
48 0 48 0 47 0 48 0 47 0 48 0 48 0 47 0 
48 0 47 0 48 0 47 0 48 0 48 0 47 0 48 0 
47 0 48 0 47 0 48 0 48 0 47 0 48 0 47 0 
48 0 48 0 47 0 48 0 47 0 48 0 47 0 48 0 
48 0 47 0 48 0 47 0 48 0 47 0 48 0 48 0 
47 0 48 0 47 0 48 0 48 0 47 0 48 0 47 0 
48 0 47 0 48 0 48 0 47 0 48 0 47 0 48 0 
47 0 48 0 48 0 47 0 48 0 47 0 48 0 47 0 
48 0 48 0 47 0 48 0 47 0 48 0 48 0 47 0 
48 0 47 0 48 0 47 0 48 0 48 0 47 0 48 0 
47 0 48 0 47 0 48 0 48 0 47 0 48 0 47 0 
48 0 48 0 47 0 48 0 47 0 48 0 47 0 48 0 
48 0 47 0 48 0 47 0 100 AP
-48 0 -47 0 -48 0 -48 0 -47 0 -48 0 -47 0 -48 0 
-47 0 -48 0 -48 0 -47 0 -48 0 -47 0 -48 0 -48 0 
-47 0 -48 0 -47 0 -48 0 -47 0 -48 0 -48 0 -47 0 
-48 0 -47 0 -48 0 -47 0 -48 0 -48 0 -47 0 -48 0 
-47 0 -48 0 -48 0 -47 0 -48 0 -47 0 -48 0 -47 0 
-48 0 -48 0 -47 0 -48 0 -47 0 -48 0 -47 0 -48 0 
-48 0 -47 0 -48 0 -47 0 -48 0 -47 0 -48 0 -48 0 
-47 0 -48 0 -47 0 -48 0 -48 0 -47 0 -48 0 -47 0 
-48 0 -47 0 -48 0 -48 0 -47 0 -48 0 -47 0 -48 0 
-47 0 -48 0 -48 0 -47 0 -48 0 -47 0 -48 0 -48 0 
-47 0 -48 0 -47 0 -48 0 -47 0 -48 0 -48 0 -47 0 
-48 0 -47 0 -48 0 -47 0 -48 0 -48 0 -47 0 -48 0 
-47 0 -48 0 -48 0 0 0 100 AP
-47 0 -48 0 -47 3 -48 -7 -47 -7 -48 -13 -48 -9 -47 2 
-48 -1 -47 19 -48 26 -47 30 -48 34 -48 44 -47 32 -48 12 
-47 3 -48 -2 -47 -25 -48 -49 -48 -44 -47 -59 -48 -60 -47 -58 
-48 -53 -48 -43 -47 -36 -48 -25 -47 -18 -48 -11 -47 -7 -48 -4 
-48 -2 -47 -1 -48 -1 -47 0 -48 0 -47 0 -48 0 -48 0 
-47 0 -48 0 -47 0 -48 0 -48 0 -47 0 -48 0 -47 0 
-48 0 -47 0 -48 0 -48 0 -47 0 -48 0 -47 0 -48 0 
-47 0 -48 -1 -48 0 -47 0 -48 0 -47 0 -48 0 -47 0 
-48 0 -48 0 -47 0 -48 0 -47 0 -48 0 -48 0 -47 0 
-48 0 -47 0 -48 0 -47 0 -48 0 -48 0 -47 0 -48 0 
-47 0 -48 0 -47 0 -48 0 -48 0 -47 0 -48 0 -47 0 
-48 0 -48 0 -47 0 -48 0 -47 0 -48 0 -47 0 -48 0 
-48 0 -47 0 -48 0 -47 0 100 AP
PP
0 sg
0 -409 -47 0 -48 0 -47 3 -48 -7 -47 -7 -48 -13 -48 -9 
-47 2 -48 -1 -47 19 -48 26 -47 30 -48 34 -48 44 -47 32 
-48 12 -47 3 -48 -2 -47 -25 -48 -49 -48 -44 -47 -59 -48 -60 
-47 -58 -48 -53 -48 -43 -47 -36 -48 -25 -47 -18 -48 -11 -47 -7 
-48 -4 -48 -2 -47 -1 -48 -1 -47 0 -48 0 -47 0 -48 0 
-48 0 -47 0 -48 0 -47 0 -48 0 -48 0 -47 0 -48 0 
-47 0 -48 0 -47 0 -48 0 -48 0 -47 0 -48 0 -47 0 
-48 0 -47 0 -48 -1 -48 0 -47 0 -48 0 -47 0 -48 0 
-47 0 -48 0 -48 0 -47 0 -48 0 -47 0 -48 0 -48 0 
-47 0 -48 0 -47 0 -48 0 -47 0 -48 0 -48 0 -47 0 
-48 0 -47 0 -48 0 -47 0 -48 0 -48 0 -47 0 -48 0 
-47 0 -48 0 -48 0 -47 0 -48 0 -47 0 -48 0 -47 0 
-48 0 -48 0 -47 0 -48 0 -47 0 -48 0 -47 0 -48 0 
-48 0 -47 0 -48 0 -47 0 -48 0 -47 0 -48 0 -48 0 
-47 0 -48 0 -47 0 -48 0 -48 0 -47 0 -48 0 -47 0 
-48 0 -47 0 -48 0 -48 0 -47 0 -48 0 -47 0 -48 0 
-47 0 -48 0 -48 0 -47 0 -48 0 -47 0 -48 0 -48 0 
-47 0 -48 0 -47 0 -48 0 -47 0 -48 0 -48 0 -47 0 
-48 0 -47 0 -48 0 -47 0 -48 0 -48 0 -47 0 -48 0 
-47 0 -48 0 -47 0 -48 0 -48 0 -47 0 -48 0 -47 0 
-48 0 -48 0 -47 0 -48 0 -47 0 -48 0 -47 0 -48 0 
-48 0 -47 0 -48 0 -47 0 -48 0 -47 0 -48 0 -48 0 
-47 0 -48 0 -47 0 -48 0 -48 0 -47 0 -48 0 -47 0 
-48 0 -47 0 -48 0 -48 0 -47 0 -48 0 -47 0 -48 0 
-47 0 -48 0 -48 0 -47 0 -48 0 -47 0 -48 0 -48 0 
0 0 48 0 48 0 47 0 48 0 47 0 48 0 48 0 
47 0 48 0 47 0 48 0 47 0 48 0 48 0 47 0 
48 0 47 0 48 0 47 0 48 0 48 0 47 0 48 0 
47 0 48 0 48 0 47 0 48 0 47 0 48 0 47 0 
48 0 48 0 47 0 48 0 47 0 48 0 47 0 48 0 
48 0 47 0 48 0 47 0 48 0 48 0 47 0 48 0 
47 0 48 0 47 0 48 0 48 0 47 0 48 0 47 0 
48 0 47 0 48 0 48 0 47 0 48 0 47 0 48 0 
47 0 48 0 48 0 47 0 48 0 47 0 48 0 48 0 
47 0 48 0 47 0 48 0 47 0 48 0 48 0 47 0 
48 0 47 0 48 0 47 0 48 0 48 0 47 0 48 0 
47 0 48 0 48 0 47 0 48 0 47 0 48 0 47 0 
48 0 48 0 47 0 5725 1946 300 MP stroke
48 0 47 0 48 0 47 0 48 0 48 0 47 0 48 0 
47 0 48 0 47 0 48 0 48 0 47 0 48 0 47 0 
48 0 48 0 47 0 48 0 47 0 48 0 47 0 48 0 
48 0 47 0 48 0 47 0 48 0 47 0 48 0 48 0 
47 0 48 0 47 0 48 0 48 0 47 0 48 0 47 0 
48 0 47 0 48 1 48 0 47 0 48 0 47 0 48 0 
47 0 48 0 48 0 47 0 48 0 47 0 48 0 47 0 
48 0 48 0 47 0 48 0 47 0 48 0 48 0 47 0 
48 0 47 1 48 1 47 2 48 5 48 9 47 16 48 26 
47 40 48 58 47 77 48 100 48 119 47 125 48 143 47 105 
48 131 48 89 47 66 48 30 47 -17 48 -54 47 -50 48 -106 
48 -85 47 -68 48 -60 47 -31 48 -4 47 -3 48 19 48 32 
47 36 48 -9 47 5 48 -2 47 -7 920 1206 102 MP stroke
24 w
37 0 48 0 47 0 48 0 47 0 48 0 48 0 47 0 
48 0 47 0 48 0 48 0 47 0 48 0 47 0 48 1 
47 2 48 3 48 6 47 10 48 17 47 27 48 39 47 51 
48 68 48 78 47 83 48 93 47 77 48 86 48 58 47 37 
48 14 47 -5 48 -29 47 -42 48 -62 48 -56 47 -46 48 -42 
47 -19 48 -4 47 -1 48 12 48 21 47 11 48 7 47 -1 
48 1 47 -3 920 1453 51 MP stroke
6 w
gr

0 j
0 -94 -94 0 0 94 94 0 873 1443 5 MP
/c8 { 0.000000 0.000000 1.000000 sr} bdef
c8
gs
PP
gr
0 sg
DP
0 -94 -94 0 0 94 94 0 1110 1809 5 MP
c8
gs
PP
gr
0 sg
DP
0 -94 -94 0 0 94 94 0 1348 1770 5 MP
c8
gs
PP
gr
0 sg
DP
0 -94 -94 0 0 94 94 0 1586 1603 5 MP
c8
gs
PP
gr
0 sg
DP
0 -94 -94 0 0 94 94 0 1824 1572 5 MP
c8
gs
PP
gr
0 sg
DP
0 -94 -94 0 0 94 94 0 2062 1753 5 MP
c8
gs
PP
gr
0 sg
DP
0 -94 -94 0 0 94 94 0 2300 1882 5 MP
c8
gs
PP
gr
0 sg
DP
0 -94 -94 0 0 94 94 0 2538 1898 5 MP
c8
gs
PP
gr
0 sg
DP
0 -94 -94 0 0 94 94 0 2776 1899 5 MP
c8
gs
PP
gr
0 sg
DP
0 -94 -94 0 0 94 94 0 3014 1899 5 MP
c8
gs
PP
gr
0 sg
DP
gs 920 351 2368 1596 rc
gr

1458 2234 mt 
(distance from the center) s
 637 1531 mt  -90 rotate
(hyphal density) s
90 rotate
1331  256 mt 
(YH: hyphal density prediction) s
 903 1989 mt 
( ) s
3271  393 mt 
( ) s
1 sg
0 626 900 0 0 -626 2328 1037 4 MP
PP
-900 0 0 626 900 0 0 -626 2328 1037 5 MP stroke
4 w
DO
SO
6 w
0 sg
2328 1037 mt 3228 1037 L
2328  411 mt 3228  411 L
2328 1037 mt 2328  411 L
3228 1037 mt 3228  411 L
2328 1037 mt 3228 1037 L
2328 1037 mt 2328  411 L
2328 1037 mt 3228 1037 L
2328  411 mt 3228  411 L
2328 1037 mt 2328  411 L
3228 1037 mt 3228  411 L
2813  547 mt 
(95% CI) s
gs 2328 411 901 627 rc
0.85 sg
0 106 373 0 0 -106 2402 557 4 MP
PP
0 sg
-373 0 0 106 373 0 0 -106 2402 557 5 MP stroke
gr

2813  693 mt 
(68% CI) s
gs 2328 411 901 627 rc
0.6 sg
0 107 373 0 0 -107 2402 704 4 MP
PP
0 sg
-373 0 0 107 373 0 0 -107 2402 704 5 MP stroke
gr

2813  840 mt 
(mean) s
gs 2328 411 901 627 rc
24 w
373 0 2402 797 2 MP stroke
gr

24 w
2813  986 mt 
(data) s
gs 2328 411 901 627 rc
6 w
gr

6 w
gs 2468 822 243 243 rc
0 -94 -94 0 0 94 94 0 2542 896 5 MP
c8
gs
PP
gr
0 sg
DP
gr

gs 2328 411 901 627 rc
gr

1 sg
0 1595 2368 0 0 -1595 4035 1946 4 MP
PP
-2368 0 0 1595 2368 0 0 -1595 4035 1946 5 MP stroke
4 w
DO
SO
6 w
0 sg
4035 1946 mt 6403 1946 L
4035  351 mt 6403  351 L
4035 1946 mt 4035  351 L
6403 1946 mt 6403  351 L
4035 1946 mt 6403 1946 L
4035 1946 mt 4035  351 L
4035 1946 mt 4035 1922 L
4035  351 mt 4035  374 L
4002 2091 mt 
(0) s
4508 1946 mt 4508 1922 L
4508  351 mt 4508  374 L
4475 2091 mt 
(5) s
4982 1946 mt 4982 1922 L
4982  351 mt 4982  374 L
4916 2091 mt 
(10) s
5455 1946 mt 5455 1922 L
5455  351 mt 5455  374 L
5389 2091 mt 
(15) s
5929 1946 mt 5929 1922 L
5929  351 mt 5929  374 L
5863 2091 mt 
(20) s
6403 1946 mt 6403 1922 L
6403  351 mt 6403  374 L
6337 2091 mt 
(25) s
4035 1946 mt 4058 1946 L
6403 1946 mt 6379 1946 L
3934 1990 mt 
(0) s
4035 1627 mt 4058 1627 L
6403 1627 mt 6379 1627 L
3834 1671 mt 
(0.1) s
4035 1308 mt 4058 1308 L
6403 1308 mt 6379 1308 L
3834 1352 mt 
(0.2) s
4035  988 mt 4058  988 L
6403  988 mt 6379  988 L
3834 1032 mt 
(0.3) s
4035  670 mt 4058  670 L
6403  670 mt 6379  670 L
3834  714 mt 
(0.4) s
4035  351 mt 4058  351 L
6403  351 mt 6379  351 L
3834  395 mt 
(0.5) s
4035 1946 mt 6403 1946 L
4035  351 mt 6403  351 L
4035 1946 mt 4035  351 L
6403 1946 mt 6403  351 L
gs 4035 351 2369 1596 rc
0.85 sg
48 0 47 0 48 0 48 0 47 0 48 0 47 0 48 0 
48 0 47 0 48 0 47 0 48 0 48 0 47 0 48 0 
47 0 48 0 48 0 47 0 48 0 47 0 48 0 48 0 
47 0 48 0 47 0 48 0 48 0 47 0 48 0 47 0 
48 0 48 0 47 0 48 0 47 0 48 0 48 1 47 0 
48 0 47 0 48 0 48 0 47 0 48 0 47 0 48 0 
48 0 47 0 48 0 47 0 48 0 48 0 47 0 48 0 
47 0 48 0 48 0 47 0 48 0 47 1 48 2 48 5 
47 9 48 18 47 32 48 52 48 84 47 120 48 164 47 197 
48 211 48 201 47 149 48 80 47 0 48 -69 48 -121 47 -150 
48 -164 47 -163 48 -154 48 -138 47 -119 48 -93 47 -67 48 -43 
48 -24 47 -12 48 -5 47 -3 48 -1 48 0 47 0 48 0 
47 1 48 0 47 -1 4035 1946 100 MP
48 0 48 0 47 0 48 0 47 0 48 0 48 0 47 0 
48 0 47 0 48 0 48 0 47 0 48 0 47 0 48 0 
48 0 47 0 48 0 47 0 48 0 48 0 47 0 48 0 
47 0 48 0 48 0 47 0 48 0 47 0 48 0 48 0 
47 0 48 0 47 0 48 0 48 0 47 0 48 0 47 0 
48 0 48 0 47 0 48 0 47 0 48 0 48 0 47 0 
48 0 47 0 48 0 48 0 47 0 48 0 47 0 48 0 
48 0 47 0 48 0 47 0 48 0 48 0 47 0 48 0 
47 0 48 0 48 0 47 0 48 0 47 0 48 0 48 0 
47 0 48 0 47 0 48 0 48 0 47 0 48 0 47 0 
48 0 48 0 47 0 48 0 47 0 48 0 48 0 47 0 
48 0 47 0 48 0 48 0 47 0 48 0 47 0 48 0 
48 0 47 0 48 0 47 0 100 AP
-48 0 -47 0 -48 0 -48 0 -47 0 -48 0 -47 0 -48 0 
-48 0 -47 0 -48 0 -47 0 -48 0 -48 0 -47 0 -48 0 
-47 0 -48 0 -48 0 -47 0 -48 0 -47 0 -48 0 -48 0 
-47 0 -48 0 -47 0 -48 0 -48 0 -47 0 -48 0 -47 0 
-48 0 -48 0 -47 0 -48 0 -47 0 -48 0 -48 0 -47 0 
-48 0 -47 0 -48 0 -48 0 -47 0 -48 0 -47 0 -48 0 
-48 0 -47 0 -48 0 -47 0 -48 0 -48 0 -47 0 -48 0 
-47 0 -48 0 -48 0 -47 0 -48 0 -47 0 -48 0 -48 0 
-47 0 -48 0 -47 0 -48 0 -48 0 -47 0 -48 0 -47 0 
-48 0 -48 0 -47 0 -48 0 -47 0 -48 0 -48 0 -47 0 
-48 0 -47 0 -48 0 -48 0 -47 0 -48 0 -47 0 -48 0 
-48 0 -47 0 -48 0 -47 0 -48 0 -48 0 -47 0 -48 0 
-47 0 -48 0 -48 0 0 0 100 AP
-47 1 -48 0 -47 -1 -48 0 -47 0 -48 0 -48 1 -47 2 
-48 5 -47 11 -48 22 -48 38 -47 61 -48 84 -47 107 -48 123 
-48 137 -47 145 -48 148 -47 140 -48 113 -48 67 -47 3 -48 -73 
-47 -141 -48 -181 -48 -195 -47 -177 -48 -148 -47 -109 -48 -75 -48 -47 
-47 -28 -48 -16 -47 -9 -48 -4 -48 -2 -47 -1 -48 0 -47 0 
-48 0 -48 0 -47 0 -48 0 -47 0 -48 0 -48 0 -47 0 
-48 0 -47 0 -48 0 -48 0 -47 0 -48 0 -47 0 -48 0 
-48 0 -47 0 -48 0 -47 0 -48 -1 -48 0 -47 0 -48 0 
-47 0 -48 0 -48 0 -47 0 -48 0 -47 0 -48 0 -48 0 
-47 0 -48 0 -47 0 -48 0 -48 0 -47 0 -48 0 -47 0 
-48 0 -48 0 -47 0 -48 0 -47 0 -48 0 -48 0 -47 0 
-48 0 -47 0 -48 0 -48 0 -47 0 -48 0 -47 0 -48 0 
-48 0 -47 0 -48 0 -47 0 100 AP
PP
0 sg
0 0 -47 1 -48 0 -47 -1 -48 0 -47 0 -48 0 -48 1 
-47 2 -48 5 -47 11 -48 22 -48 38 -47 61 -48 84 -47 107 
-48 123 -48 137 -47 145 -48 148 -47 140 -48 113 -48 67 -47 3 
-48 -73 -47 -141 -48 -181 -48 -195 -47 -177 -48 -148 -47 -109 -48 -75 
-48 -47 -47 -28 -48 -16 -47 -9 -48 -4 -48 -2 -47 -1 -48 0 
-47 0 -48 0 -48 0 -47 0 -48 0 -47 0 -48 0 -48 0 
-47 0 -48 0 -47 0 -48 0 -48 0 -47 0 -48 0 -47 0 
-48 0 -48 0 -47 0 -48 0 -47 0 -48 -1 -48 0 -47 0 
-48 0 -47 0 -48 0 -48 0 -47 0 -48 0 -47 0 -48 0 
-48 0 -47 0 -48 0 -47 0 -48 0 -48 0 -47 0 -48 0 
-47 0 -48 0 -48 0 -47 0 -48 0 -47 0 -48 0 -48 0 
-47 0 -48 0 -47 0 -48 0 -48 0 -47 0 -48 0 -47 0 
-48 0 -48 0 -47 0 -48 0 -47 0 -48 0 -47 0 -48 0 
-48 0 -47 0 -48 0 -47 0 -48 0 -48 0 -47 0 -48 0 
-47 0 -48 0 -48 0 -47 0 -48 0 -47 0 -48 0 -48 0 
-47 0 -48 0 -47 0 -48 0 -48 0 -47 0 -48 0 -47 0 
-48 0 -48 0 -47 0 -48 0 -47 0 -48 0 -48 0 -47 0 
-48 0 -47 0 -48 0 -48 0 -47 0 -48 0 -47 0 -48 0 
-48 0 -47 0 -48 0 -47 0 -48 0 -48 0 -47 0 -48 0 
-47 0 -48 0 -48 0 -47 0 -48 0 -47 0 -48 0 -48 0 
-47 0 -48 0 -47 0 -48 0 -48 0 -47 0 -48 0 -47 0 
-48 0 -48 0 -47 0 -48 0 -47 0 -48 0 -48 0 -47 0 
-48 0 -47 0 -48 0 -48 0 -47 0 -48 0 -47 0 -48 0 
-48 0 -47 0 -48 0 -47 0 -48 0 -48 0 -47 0 -48 0 
-47 0 -48 0 -48 0 -47 0 -48 0 -47 0 -48 0 -48 0 
0 0 48 0 48 0 47 0 48 0 47 0 48 0 48 0 
47 0 48 0 47 0 48 0 48 0 47 0 48 0 47 0 
48 0 48 0 47 0 48 0 47 0 48 0 48 0 47 0 
48 0 47 0 48 0 48 0 47 0 48 0 47 0 48 0 
48 0 47 0 48 0 47 0 48 0 48 0 47 0 48 0 
47 0 48 0 48 0 47 0 48 0 47 0 48 0 48 0 
47 0 48 0 47 0 48 0 48 0 47 0 48 0 47 0 
48 0 48 0 47 0 48 0 47 0 48 0 48 0 47 0 
48 0 47 0 48 0 48 0 47 0 48 0 47 0 48 0 
48 0 47 0 48 0 47 0 48 0 48 0 47 0 48 0 
47 0 48 0 48 0 47 0 48 0 47 0 48 0 48 0 
47 0 48 0 47 0 48 0 48 0 47 0 48 0 47 0 
48 0 48 0 47 0 8842 1946 300 MP stroke
48 0 47 0 48 0 47 0 48 0 48 0 47 0 48 0 
47 0 48 0 48 0 47 0 48 0 47 0 48 0 48 0 
47 0 48 0 47 0 48 0 48 0 47 0 48 0 47 0 
48 0 48 0 47 0 48 0 47 0 48 0 48 0 47 0 
48 0 47 0 48 0 48 0 47 0 48 0 47 0 48 0 
48 1 47 0 48 0 47 0 48 0 48 0 47 0 48 0 
47 0 48 0 48 0 47 0 48 0 47 0 48 0 48 0 
47 0 48 0 47 0 48 0 48 0 47 0 48 0 47 1 
48 2 48 5 47 9 48 18 47 32 48 52 48 84 47 120 
48 164 47 197 48 211 48 201 47 149 48 80 47 0 48 -69 
48 -121 47 -150 48 -164 47 -163 48 -154 48 -138 47 -119 48 -93 
47 -67 48 -43 48 -24 47 -12 48 -5 47 -3 48 -1 48 0 
47 0 48 0 47 1 48 0 47 -1 4035 1946 102 MP stroke
0.6 sg
48 0 47 0 48 0 48 0 47 0 48 0 47 0 48 0 
48 0 47 0 48 0 47 0 48 0 48 0 47 0 48 0 
47 0 48 0 48 0 47 0 48 0 47 0 48 0 48 0 
47 0 48 0 47 0 48 0 48 0 47 0 48 0 47 0 
48 0 48 0 47 0 48 0 47 0 48 0 48 1 47 0 
48 0 47 0 48 0 48 0 47 0 48 0 47 0 48 0 
48 0 47 0 48 0 47 0 48 0 48 0 47 0 48 0 
47 0 48 0 48 0 47 0 48 0 47 1 48 2 48 5 
47 9 48 17 47 31 48 52 48 82 47 118 48 160 47 194 
48 208 48 196 47 148 48 77 47 0 48 -69 48 -118 47 -148 
48 -161 47 -159 48 -151 48 -135 47 -117 48 -91 47 -66 48 -42 
48 -23 47 -12 48 -6 47 -2 48 -1 48 0 47 0 48 0 
47 1 48 0 47 -1 4035 1946 100 MP
48 0 48 0 47 0 48 0 47 0 48 0 48 0 47 0 
48 0 47 0 48 0 48 0 47 0 48 0 47 0 48 0 
48 0 47 0 48 0 47 0 48 0 48 0 47 0 48 0 
47 0 48 0 48 0 47 0 48 0 47 0 48 0 48 0 
47 0 48 0 47 0 48 0 48 0 47 0 48 0 47 0 
48 0 48 0 47 0 48 0 47 0 48 0 48 0 47 0 
48 0 47 0 48 0 48 0 47 0 48 0 47 0 48 0 
48 0 47 0 48 0 47 0 48 0 48 0 47 0 48 0 
47 0 48 0 48 0 47 0 48 0 47 0 48 0 48 0 
47 0 48 0 47 0 48 0 48 0 47 0 48 0 47 0 
48 0 48 0 47 0 48 0 47 0 48 0 48 0 47 0 
48 0 47 0 48 0 48 0 47 0 48 0 47 0 48 0 
48 0 47 0 48 0 47 0 100 AP
-48 0 -47 0 -48 0 -48 0 -47 0 -48 0 -47 0 -48 0 
-48 0 -47 0 -48 0 -47 0 -48 0 -48 0 -47 0 -48 0 
-47 0 -48 0 -48 0 -47 0 -48 0 -47 0 -48 0 -48 0 
-47 0 -48 0 -47 0 -48 0 -48 0 -47 0 -48 0 -47 0 
-48 0 -48 0 -47 0 -48 0 -47 0 -48 0 -48 0 -47 0 
-48 0 -47 0 -48 0 -48 0 -47 0 -48 0 -47 0 -48 0 
-48 0 -47 0 -48 0 -47 0 -48 0 -48 0 -47 0 -48 0 
-47 0 -48 0 -48 0 -47 0 -48 0 -47 0 -48 0 -48 0 
-47 0 -48 0 -47 0 -48 0 -48 0 -47 0 -48 0 -47 0 
-48 0 -48 0 -47 0 -48 0 -47 0 -48 0 -48 0 -47 0 
-48 0 -47 0 -48 0 -48 0 -47 0 -48 0 -47 0 -48 0 
-48 0 -47 0 -48 0 -47 0 -48 0 -48 0 -47 0 -48 0 
-47 0 -48 0 -48 0 0 0 100 AP
-47 1 -48 0 -47 -1 -48 0 -47 0 -48 0 -48 1 -47 2 
-48 5 -47 12 -48 22 -48 40 -47 62 -48 87 -47 110 -48 128 
-48 142 -47 150 -48 154 -47 142 -48 114 -48 67 -47 3 -48 -76 
-47 -142 -48 -186 -48 -200 -47 -184 -48 -151 -47 -113 -48 -77 -48 -49 
-47 -29 -48 -17 -47 -8 -48 -5 -48 -2 -47 -1 -48 0 -47 0 
-48 0 -48 0 -47 0 -48 0 -47 0 -48 0 -48 0 -47 0 
-48 0 -47 0 -48 0 -48 0 -47 0 -48 0 -47 0 -48 0 
-48 0 -47 0 -48 0 -47 0 -48 -1 -48 0 -47 0 -48 0 
-47 0 -48 0 -48 0 -47 0 -48 0 -47 0 -48 0 -48 0 
-47 0 -48 0 -47 0 -48 0 -48 0 -47 0 -48 0 -47 0 
-48 0 -48 0 -47 0 -48 0 -47 0 -48 0 -48 0 -47 0 
-48 0 -47 0 -48 0 -48 0 -47 0 -48 0 -47 0 -48 0 
-48 0 -47 0 -48 0 -47 0 100 AP
PP
0 sg
0 0 -47 1 -48 0 -47 -1 -48 0 -47 0 -48 0 -48 1 
-47 2 -48 5 -47 12 -48 22 -48 40 -47 62 -48 87 -47 110 
-48 128 -48 142 -47 150 -48 154 -47 142 -48 114 -48 67 -47 3 
-48 -76 -47 -142 -48 -186 -48 -200 -47 -184 -48 -151 -47 -113 -48 -77 
-48 -49 -47 -29 -48 -17 -47 -8 -48 -5 -48 -2 -47 -1 -48 0 
-47 0 -48 0 -48 0 -47 0 -48 0 -47 0 -48 0 -48 0 
-47 0 -48 0 -47 0 -48 0 -48 0 -47 0 -48 0 -47 0 
-48 0 -48 0 -47 0 -48 0 -47 0 -48 -1 -48 0 -47 0 
-48 0 -47 0 -48 0 -48 0 -47 0 -48 0 -47 0 -48 0 
-48 0 -47 0 -48 0 -47 0 -48 0 -48 0 -47 0 -48 0 
-47 0 -48 0 -48 0 -47 0 -48 0 -47 0 -48 0 -48 0 
-47 0 -48 0 -47 0 -48 0 -48 0 -47 0 -48 0 -47 0 
-48 0 -48 0 -47 0 -48 0 -47 0 -48 0 -47 0 -48 0 
-48 0 -47 0 -48 0 -47 0 -48 0 -48 0 -47 0 -48 0 
-47 0 -48 0 -48 0 -47 0 -48 0 -47 0 -48 0 -48 0 
-47 0 -48 0 -47 0 -48 0 -48 0 -47 0 -48 0 -47 0 
-48 0 -48 0 -47 0 -48 0 -47 0 -48 0 -48 0 -47 0 
-48 0 -47 0 -48 0 -48 0 -47 0 -48 0 -47 0 -48 0 
-48 0 -47 0 -48 0 -47 0 -48 0 -48 0 -47 0 -48 0 
-47 0 -48 0 -48 0 -47 0 -48 0 -47 0 -48 0 -48 0 
-47 0 -48 0 -47 0 -48 0 -48 0 -47 0 -48 0 -47 0 
-48 0 -48 0 -47 0 -48 0 -47 0 -48 0 -48 0 -47 0 
-48 0 -47 0 -48 0 -48 0 -47 0 -48 0 -47 0 -48 0 
-48 0 -47 0 -48 0 -47 0 -48 0 -48 0 -47 0 -48 0 
-47 0 -48 0 -48 0 -47 0 -48 0 -47 0 -48 0 -48 0 
0 0 48 0 48 0 47 0 48 0 47 0 48 0 48 0 
47 0 48 0 47 0 48 0 48 0 47 0 48 0 47 0 
48 0 48 0 47 0 48 0 47 0 48 0 48 0 47 0 
48 0 47 0 48 0 48 0 47 0 48 0 47 0 48 0 
48 0 47 0 48 0 47 0 48 0 48 0 47 0 48 0 
47 0 48 0 48 0 47 0 48 0 47 0 48 0 48 0 
47 0 48 0 47 0 48 0 48 0 47 0 48 0 47 0 
48 0 48 0 47 0 48 0 47 0 48 0 48 0 47 0 
48 0 47 0 48 0 48 0 47 0 48 0 47 0 48 0 
48 0 47 0 48 0 47 0 48 0 48 0 47 0 48 0 
47 0 48 0 48 0 47 0 48 0 47 0 48 0 48 0 
47 0 48 0 47 0 48 0 48 0 47 0 48 0 47 0 
48 0 48 0 47 0 8842 1946 300 MP stroke
48 0 47 0 48 0 47 0 48 0 48 0 47 0 48 0 
47 0 48 0 48 0 47 0 48 0 47 0 48 0 48 0 
47 0 48 0 47 0 48 0 48 0 47 0 48 0 47 0 
48 0 48 0 47 0 48 0 47 0 48 0 48 0 47 0 
48 0 47 0 48 0 48 0 47 0 48 0 47 0 48 0 
48 1 47 0 48 0 47 0 48 0 48 0 47 0 48 0 
47 0 48 0 48 0 47 0 48 0 47 0 48 0 48 0 
47 0 48 0 47 0 48 0 48 0 47 0 48 0 47 1 
48 2 48 5 47 9 48 17 47 31 48 52 48 82 47 118 
48 160 47 194 48 208 48 196 47 148 48 77 47 0 48 -69 
48 -118 47 -148 48 -161 47 -159 48 -151 48 -135 47 -117 48 -91 
47 -66 48 -42 48 -23 47 -12 48 -6 47 -2 48 -1 48 0 
47 0 48 0 47 1 48 0 47 -1 4035 1946 102 MP stroke
24 w
37 0 48 0 47 0 48 0 48 0 47 0 48 0 47 0 
48 0 48 0 47 0 48 0 47 1 48 2 48 5 47 9 
48 16 47 30 48 50 48 79 47 115 48 155 47 187 48 204 
48 190 47 145 48 76 47 -2 48 -67 48 -117 47 -144 48 -156 
47 -154 48 -145 48 -132 47 -112 48 -89 47 -63 48 -41 48 -23 
47 -11 48 -6 47 -2 48 -1 48 0 47 0 48 0 47 1 
48 0 47 -1 4035 1946 51 MP stroke
6 w
gr

0 -94 -94 0 0 94 94 0 3988 1899 5 MP
c8
gs
PP
gr
0 sg
DP
0 -94 -94 0 0 94 94 0 4225 1899 5 MP
c8
gs
PP
gr
0 sg
DP
0 -94 -94 0 0 94 94 0 4463 1879 5 MP
c8
gs
PP
gr
0 sg
DP
0 -94 -94 0 0 94 94 0 4701 1530 5 MP
c8
gs
PP
gr
0 sg
DP
0 -94 -94 0 0 94 94 0 4939 887 5 MP
c8
gs
PP
gr
0 sg
DP
0 -94 -94 0 0 94 94 0 5177 893 5 MP
c8
gs
PP
gr
0 sg
DP
0 -94 -94 0 0 94 94 0 5415 1705 5 MP
c8
gs
PP
gr
0 sg
DP
0 -94 -94 0 0 94 94 0 5653 1890 5 MP
c8
gs
PP
gr
0 sg
DP
0 -94 -94 0 0 94 94 0 5891 1899 5 MP
c8
gs
PP
gr
0 sg
DP
0 -94 -94 0 0 94 94 0 6129 1899 5 MP
c8
gs
PP
gr
0 sg
DP
gs 4035 351 2369 1596 rc
gr

4574 2234 mt 
(distance from the center) s
3752 1419 mt  -90 rotate
(tip density) s
90 rotate
4557  256 mt 
(YH: tip density prediction) s
4018 1989 mt 
( ) s
6387  393 mt 
( ) s
1 sg
0 626 899 0 0 -626 5445 1037 4 MP
PP
-899 0 0 626 899 0 0 -626 5445 1037 5 MP stroke
4 w
DO
SO
6 w
0 sg
5445 1037 mt 6344 1037 L
5445  411 mt 6344  411 L
5445 1037 mt 5445  411 L
6344 1037 mt 6344  411 L
5445 1037 mt 6344 1037 L
5445 1037 mt 5445  411 L
5445 1037 mt 6344 1037 L
5445  411 mt 6344  411 L
5445 1037 mt 5445  411 L
6344 1037 mt 6344  411 L
5930  547 mt 
(95% CI) s
gs 5445 411 900 627 rc
0.85 sg
0 106 373 0 0 -106 5519 557 4 MP
PP
0 sg
-373 0 0 106 373 0 0 -106 5519 557 5 MP stroke
gr

5930  693 mt 
(68% CI) s
gs 5445 411 900 627 rc
0.6 sg
0 107 373 0 0 -107 5519 704 4 MP
PP
0 sg
-373 0 0 107 373 0 0 -107 5519 704 5 MP stroke
gr

5930  840 mt 
(mean) s
gs 5445 411 900 627 rc
24 w
373 0 5519 797 2 MP stroke
gr

24 w
5930  986 mt 
(data) s
gs 5445 411 900 627 rc
6 w
gr

6 w
gs 5584 822 243 243 rc
0 -94 -94 0 0 94 94 0 5658 896 5 MP
c8
gs
PP
gr
0 sg
DP
gr

gs 5445 411 900 627 rc
gr


end %%Color Dict

eplot
%%EndObject

epage
end

showpage

%%Trailer
%%EOF
