%!PS-Adobe-2.0 EPSF-1.2
%%Creator: MATLAB, The MathWorks, Inc. Version 8.1.0.604 (R2013a). Operating System: Linux 3.13.0-40-generic #69-Ubuntu SMP Thu Nov 13 17:53:56 UTC 2014 x86_64.
%%Title: /home/xiaolin/Documents/model_selection/model_selection_log003new/YFH/data_figures/sampleHist.eps
%%CreationDate: 10/25/2015  06:58:59
%%DocumentNeededFonts: Helvetica
%%DocumentProcessColors: Cyan Magenta Yellow Black
%%Pages: 1
%%BoundingBox:    64   194   546   589
%%EndComments

%%BeginProlog
% MathWorks dictionary
/MathWorks 160 dict begin
% definition operators
/bdef {bind def} bind def
/ldef {load def} bind def
/xdef {exch def} bdef
/xstore {exch store} bdef
% operator abbreviations
/c  /clip ldef
/cc /concat ldef
/cp /closepath ldef
/gr /grestore ldef
/gs /gsave ldef
/mt /moveto ldef
/np /newpath ldef
/cm /currentmatrix ldef
/sm /setmatrix ldef
/rm /rmoveto ldef
/rl /rlineto ldef
/s {show newpath} bdef
/sc {setcmykcolor} bdef
/sr /setrgbcolor ldef
/sg /setgray ldef
/w /setlinewidth ldef
/j /setlinejoin ldef
/cap /setlinecap ldef
/rc {rectclip} bdef
/rf {rectfill} bdef
% page state control
/pgsv () def
/bpage {/pgsv save def} bdef
/epage {pgsv restore} bdef
/bplot /gsave ldef
/eplot {stroke grestore} bdef
% orientation switch
/portraitMode 0 def /landscapeMode 1 def /rotateMode 2 def
% coordinate system mappings
/dpi2point 0 def
% font control
/FontSize 0 def
/FMS {/FontSize xstore findfont [FontSize 0 0 FontSize neg 0 0]
  makefont setfont} bdef
/reencode {exch dup where {pop load} {pop StandardEncoding} ifelse
  exch dup 3 1 roll findfont dup length dict begin
  { 1 index /FID ne {def}{pop pop} ifelse } forall
  /Encoding exch def currentdict end definefont pop} bdef
/isroman {findfont /CharStrings get /Agrave known} bdef
/FMSR {3 1 roll 1 index dup isroman {reencode} {pop pop} ifelse
  exch FMS} bdef
/csm {1 dpi2point div -1 dpi2point div scale neg translate
 dup landscapeMode eq {pop -90 rotate}
  {rotateMode eq {90 rotate} if} ifelse} bdef
% line types: solid, dotted, dashed, dotdash
/SO { [] 0 setdash } bdef
/DO { [.5 dpi2point mul 4 dpi2point mul] 0 setdash } bdef
/DA { [6 dpi2point mul] 0 setdash } bdef
/DD { [.5 dpi2point mul 4 dpi2point mul 6 dpi2point mul 4
  dpi2point mul] 0 setdash } bdef
% macros for lines and objects
/L {lineto stroke} bdef
/MP {3 1 roll moveto 1 sub {rlineto} repeat} bdef
/AP {{rlineto} repeat} bdef
/PDlw -1 def
/W {/PDlw currentlinewidth def setlinewidth} def
/PP {closepath eofill} bdef
/DP {closepath stroke} bdef
/MR {4 -2 roll moveto dup  0 exch rlineto exch 0 rlineto
  neg 0 exch rlineto closepath} bdef
/FR {MR stroke} bdef
/PR {MR fill} bdef
/L1i {{currentfile picstr readhexstring pop} image} bdef
/tMatrix matrix def
/MakeOval {newpath tMatrix currentmatrix pop translate scale
0 0 1 0 360 arc tMatrix setmatrix} bdef
/FO {MakeOval stroke} bdef
/PO {MakeOval fill} bdef
/PD {currentlinewidth 2 div 0 360 arc fill
   PDlw -1 eq not {PDlw w /PDlw -1 def} if} def
/FA {newpath tMatrix currentmatrix pop translate scale
  0 0 1 5 -2 roll arc tMatrix setmatrix stroke} bdef
/PA {newpath tMatrix currentmatrix pop	translate 0 0 moveto scale
  0 0 1 5 -2 roll arc closepath tMatrix setmatrix fill} bdef
/FAn {newpath tMatrix currentmatrix pop translate scale
  0 0 1 5 -2 roll arcn tMatrix setmatrix stroke} bdef
/PAn {newpath tMatrix currentmatrix pop translate 0 0 moveto scale
  0 0 1 5 -2 roll arcn closepath tMatrix setmatrix fill} bdef
/vradius 0 def /hradius 0 def /lry 0 def
/lrx 0 def /uly 0 def /ulx 0 def /rad 0 def
/MRR {/vradius xdef /hradius xdef /lry xdef /lrx xdef /uly xdef
  /ulx xdef newpath tMatrix currentmatrix pop ulx hradius add uly
  vradius add translate hradius vradius scale 0 0 1 180 270 arc 
  tMatrix setmatrix lrx hradius sub uly vradius add translate
  hradius vradius scale 0 0 1 270 360 arc tMatrix setmatrix
  lrx hradius sub lry vradius sub translate hradius vradius scale
  0 0 1 0 90 arc tMatrix setmatrix ulx hradius add lry vradius sub
  translate hradius vradius scale 0 0 1 90 180 arc tMatrix setmatrix
  closepath} bdef
/FRR {MRR stroke } bdef
/PRR {MRR fill } bdef
/MlrRR {/lry xdef /lrx xdef /uly xdef /ulx xdef /rad lry uly sub 2 div def
  newpath tMatrix currentmatrix pop ulx rad add uly rad add translate
  rad rad scale 0 0 1 90 270 arc tMatrix setmatrix lrx rad sub lry rad
  sub translate rad rad scale 0 0 1 270 90 arc tMatrix setmatrix
  closepath} bdef
/FlrRR {MlrRR stroke } bdef
/PlrRR {MlrRR fill } bdef
/MtbRR {/lry xdef /lrx xdef /uly xdef /ulx xdef /rad lrx ulx sub 2 div def
  newpath tMatrix currentmatrix pop ulx rad add uly rad add translate
  rad rad scale 0 0 1 180 360 arc tMatrix setmatrix lrx rad sub lry rad
  sub translate rad rad scale 0 0 1 0 180 arc tMatrix setmatrix
  closepath} bdef
/FtbRR {MtbRR stroke } bdef
/PtbRR {MtbRR fill } bdef
/stri 6 array def /dtri 6 array def
/smat 6 array def /dmat 6 array def
/tmat1 6 array def /tmat2 6 array def /dif 3 array def
/asub {/ind2 exch def /ind1 exch def dup dup
  ind1 get exch ind2 get sub exch } bdef
/tri_to_matrix {
  2 0 asub 3 1 asub 4 0 asub 5 1 asub
  dup 0 get exch 1 get 7 -1 roll astore } bdef
/compute_transform {
  dmat dtri tri_to_matrix tmat1 invertmatrix 
  smat stri tri_to_matrix tmat2 concatmatrix } bdef
/ds {stri astore pop} bdef
/dt {dtri astore pop} bdef
/db {2 copy /cols xdef /rows xdef mul dup string
  currentfile exch readhexstring pop
  /bmap xdef pop pop} bdef
/it {gs np dtri aload pop moveto lineto lineto cp c
  cols rows 8 compute_transform 
  {bmap} image gr}bdef
/il {newpath moveto lineto stroke}bdef
currentdict end def
%%EndProlog

%%BeginSetup
MathWorks begin

0 cap

end
%%EndSetup

%%Page: 1 1
%%BeginPageSetup
%%PageBoundingBox:    64   194   546   589
MathWorks begin
bpage
%%EndPageSetup

%%BeginObject: obj1
bplot

/dpi2point 12 def
portraitMode 0216 7344 csm

  554   274  5793  4731 MR c np
85 dict begin %Colortable dictionary
/c0 { 0.000000 0.000000 0.000000 sr} bdef
/c1 { 1.000000 1.000000 1.000000 sr} bdef
/c2 { 0.900000 0.000000 0.000000 sr} bdef
/c3 { 0.000000 0.820000 0.000000 sr} bdef
/c4 { 0.000000 0.000000 0.800000 sr} bdef
/c5 { 0.910000 0.820000 0.320000 sr} bdef
/c6 { 1.000000 0.260000 0.820000 sr} bdef
/c7 { 0.000000 0.820000 0.820000 sr} bdef
c0
1 j
1 sg
   0    0 6913 5186 PR
6 w
0 1769 1326 0 0 -1769 1006 2158 4 MP
PP
-1326 0 0 1769 1326 0 0 -1769 1006 2158 5 MP stroke
4 w
DO
SO
6 w
0 sg
1006 2158 mt 2332 2158 L
1006  389 mt 2332  389 L
1006 2158 mt 1006  389 L
2332 2158 mt 2332  389 L
1006 2158 mt 2332 2158 L
1006 2158 mt 1006  389 L
1006 2158 mt 1006 2140 L
1006  389 mt 1006  406 L
%%IncludeResource: font Helvetica
/Helvetica /ISOLatin1Encoding 120 FMSR

 890 2303 mt 
(0.75) s
1670 2158 mt 1670 2140 L
1670  389 mt 1670  406 L
1587 2303 mt 
(0.8) s
2332 2158 mt 2332 2140 L
2332  389 mt 2332  406 L
2216 2303 mt 
(0.85) s
1006 2158 mt 1024 2158 L
2332 2158 mt 2315 2158 L
 906 2202 mt 
(0) s
1006 1905 mt 1024 1905 L
2332 1905 mt 2315 1905 L
 772 1949 mt 
(100) s
1006 1652 mt 1024 1652 L
2332 1652 mt 2315 1652 L
 772 1696 mt 
(200) s
1006 1399 mt 1024 1399 L
2332 1399 mt 2315 1399 L
 772 1443 mt 
(300) s
1006 1147 mt 1024 1147 L
2332 1147 mt 2315 1147 L
 772 1191 mt 
(400) s
1006  894 mt 1024  894 L
2332  894 mt 2315  894 L
 772  938 mt 
(500) s
1006  641 mt 1024  641 L
2332  641 mt 2315  641 L
 772  685 mt 
(600) s
1006  389 mt 1024  389 L
2332  389 mt 2315  389 L
 772  433 mt 
(700) s
1006 2158 mt 2332 2158 L
1006  389 mt 2332  389 L
1006 2158 mt 1006  389 L
2332 2158 mt 2332  389 L
gs 1006 389 1327 1770 MR c np
/c8 { 0.000000 0.000000 0.562500 sr} bdef
c8
0 6 12 0 0 -6 1397 2158 4 MP
PP
0 sg
-12 0 0 6 12 0 0 -6 1397 2158 5 MP stroke
c8
0 6 13 0 0 -6 1409 2158 4 MP
PP
0 sg
-13 0 0 6 13 0 0 -6 1409 2158 5 MP stroke
c8
0 13 13 0 0 -13 1422 2158 4 MP
PP
0 sg
-13 0 0 13 13 0 0 -13 1422 2158 5 MP stroke
c8
0 38 12 0 0 -38 1435 2158 4 MP
PP
0 sg
-12 0 0 38 12 0 0 -38 1435 2158 5 MP stroke
c8
0 51 13 0 0 -51 1447 2158 4 MP
PP
0 sg
-13 0 0 51 13 0 0 -51 1447 2158 5 MP stroke
c8
0 104 12 0 0 -104 1460 2158 4 MP
PP
0 sg
-12 0 0 104 12 0 0 -104 1460 2158 5 MP stroke
c8
0 200 13 0 0 -200 1472 2158 4 MP
PP
0 sg
-13 0 0 200 13 0 0 -200 1472 2158 5 MP stroke
c8
0 238 13 0 0 -238 1485 2158 4 MP
PP
0 sg
-13 0 0 238 13 0 0 -238 1485 2158 5 MP stroke
c8
0 357 12 0 0 -357 1498 2158 4 MP
PP
0 sg
-12 0 0 357 12 0 0 -357 1498 2158 5 MP stroke
c8
0 468 13 0 0 -468 1510 2158 4 MP
PP
0 sg
-13 0 0 468 13 0 0 -468 1510 2158 5 MP stroke
c8
0 678 12 0 0 -678 1523 2158 4 MP
PP
0 sg
-12 0 0 678 12 0 0 -678 1523 2158 5 MP stroke
c8
0 693 13 0 0 -693 1535 2158 4 MP
PP
0 sg
-13 0 0 693 13 0 0 -693 1535 2158 5 MP stroke
c8
0 1208 13 0 0 -1208 1548 2158 4 MP
PP
0 sg
-13 0 0 1208 13 0 0 -1208 1548 2158 5 MP stroke
c8
0 1256 12 0 0 -1256 1561 2158 4 MP
PP
0 sg
-12 0 0 1256 12 0 0 -1256 1561 2158 5 MP stroke
c8
0 1737 13 0 0 -1737 1573 2158 4 MP
PP
0 sg
-13 0 0 1737 13 0 0 -1737 1573 2158 5 MP stroke
c8
0 1395 12 0 0 -1395 1586 2158 4 MP
PP
0 sg
-12 0 0 1395 12 0 0 -1395 1586 2158 5 MP stroke
c8
0 1315 13 0 0 -1315 1598 2158 4 MP
PP
0 sg
-13 0 0 1315 13 0 0 -1315 1598 2158 5 MP stroke
c8
0 973 13 0 0 -973 1611 2158 4 MP
PP
0 sg
-13 0 0 973 13 0 0 -973 1611 2158 5 MP stroke
c8
0 483 12 0 0 -483 1624 2158 4 MP
PP
0 sg
-12 0 0 483 12 0 0 -483 1624 2158 5 MP stroke
c8
0 445 13 0 0 -445 1636 2158 4 MP
PP
0 sg
-13 0 0 445 13 0 0 -445 1636 2158 5 MP stroke
c8
0 369 12 0 0 -369 1649 2158 4 MP
PP
0 sg
-12 0 0 369 12 0 0 -369 1649 2158 5 MP stroke
c8
0 218 13 0 0 -218 1661 2158 4 MP
PP
0 sg
-13 0 0 218 13 0 0 -218 1661 2158 5 MP stroke
c8
0 134 12 0 0 -134 1674 2158 4 MP
PP
0 sg
-12 0 0 134 12 0 0 -134 1674 2158 5 MP stroke
c8
0 129 13 0 0 -129 1686 2158 4 MP
PP
0 sg
-13 0 0 129 13 0 0 -129 1686 2158 5 MP stroke
c8
0 54 13 0 0 -54 1699 2158 4 MP
PP
0 sg
-13 0 0 54 13 0 0 -54 1699 2158 5 MP stroke
c8
0 41 12 0 0 -41 1712 2158 4 MP
PP
0 sg
-12 0 0 41 12 0 0 -41 1712 2158 5 MP stroke
c8
0 21 13 0 0 -21 1724 2158 4 MP
PP
0 sg
-13 0 0 21 13 0 0 -21 1724 2158 5 MP stroke
c8
0 8 12 0 0 -8 1737 2158 4 MP
PP
0 sg
-12 0 0 8 12 0 0 -8 1737 2158 5 MP stroke
c8
0 3 13 0 0 -3 1749 2158 4 MP
PP
0 sg
-13 0 0 3 13 0 0 -3 1749 2158 5 MP stroke
c8
0 8 13 0 0 -8 1762 2158 4 MP
PP
0 sg
-13 0 0 8 13 0 0 -8 1762 2158 5 MP stroke
gr

%%IncludeResource: font Symbol
/Symbol /ISOLatin1Encoding 120 FMSR

1633 2440 mt 
(u) s
%%IncludeResource: font Helvetica
/Helvetica /ISOLatin1Encoding 120 FMSR

 690 1537 mt  -90 rotate
(frequency) s
90 rotate
1 sg
0 1770 1326 0 0 -1770 2948 2158 4 MP
PP
-1326 0 0 1770 1326 0 0 -1770 2948 2158 5 MP stroke
4 w
DO
SO
6 w
0 sg
2948 2158 mt 4274 2158 L
2948  388 mt 4274  388 L
2948 2158 mt 2948  388 L
4274 2158 mt 4274  388 L
2948 2158 mt 4274 2158 L
2948 2158 mt 2948  388 L
2948 2158 mt 2948 2140 L
2948  389 mt 2948  406 L
2915 2303 mt 
(0) s
3390 2158 mt 3390 2140 L
3390  389 mt 3390  406 L
3357 2303 mt 
(2) s
3832 2158 mt 3832 2140 L
3832  389 mt 3832  406 L
3799 2303 mt 
(4) s
4274 2158 mt 4274 2140 L
4274  389 mt 4274  406 L
4241 2303 mt 
(6) s
3957 2505 mt 
(x 10) s
%%IncludeResource: font Helvetica
/Helvetica /ISOLatin1Encoding 80 FMSR

4183 2431 mt 
(-5) s
2948 2158 mt 2965 2158 L
4274 2158 mt 4256 2158 L
%%IncludeResource: font Helvetica
/Helvetica /ISOLatin1Encoding 120 FMSR

2847 2202 mt 
(0) s
2948 1863 mt 2965 1863 L
4274 1863 mt 4256 1863 L
2713 1907 mt 
(100) s
2948 1568 mt 2965 1568 L
4274 1568 mt 4256 1568 L
2713 1612 mt 
(200) s
2948 1273 mt 2965 1273 L
4274 1273 mt 4256 1273 L
2713 1317 mt 
(300) s
2948  978 mt 2965  978 L
4274  978 mt 4256  978 L
2713 1022 mt 
(400) s
2948  683 mt 2965  683 L
4274  683 mt 4256  683 L
2713  727 mt 
(500) s
2948  389 mt 2965  389 L
4274  389 mt 4256  389 L
2713  433 mt 
(600) s
2948 2158 mt 4274 2158 L
2948  388 mt 4274  388 L
2948 2158 mt 2948  388 L
4274 2158 mt 4274  388 L
gs 2948 389 1327 1770 MR c np
c8
0 570 39 0 0 -570 2948 2158 4 MP
PP
0 sg
-39 0 0 570 39 0 0 -570 2948 2158 5 MP stroke
c8
0 493 39 0 0 -493 2987 2158 4 MP
PP
0 sg
-39 0 0 493 39 0 0 -493 2987 2158 5 MP stroke
c8
0 460 39 0 0 -460 3026 2158 4 MP
PP
0 sg
-39 0 0 460 39 0 0 -460 3026 2158 5 MP stroke
c8
0 608 39 0 0 -608 3065 2158 4 MP
PP
0 sg
-39 0 0 608 39 0 0 -608 3065 2158 5 MP stroke
c8
0 1548 39 0 0 -1548 3104 2158 4 MP
PP
0 sg
-39 0 0 1548 39 0 0 -1548 3104 2158 5 MP stroke
c8
0 655 40 0 0 -655 3143 2158 4 MP
PP
0 sg
-40 0 0 655 40 0 0 -655 3143 2158 5 MP stroke
c8
0 685 39 0 0 -685 3183 2158 4 MP
PP
0 sg
-39 0 0 685 39 0 0 -685 3183 2158 5 MP stroke
c8
0 761 39 0 0 -761 3222 2158 4 MP
PP
0 sg
-39 0 0 761 39 0 0 -761 3222 2158 5 MP stroke
c8
0 593 39 0 0 -593 3261 2158 4 MP
PP
0 sg
-39 0 0 593 39 0 0 -593 3261 2158 5 MP stroke
c8
0 823 39 0 0 -823 3300 2158 4 MP
PP
0 sg
-39 0 0 823 39 0 0 -823 3300 2158 5 MP stroke
c8
0 864 39 0 0 -864 3339 2158 4 MP
PP
0 sg
-39 0 0 864 39 0 0 -864 3339 2158 5 MP stroke
c8
0 682 39 0 0 -682 3378 2158 4 MP
PP
0 sg
-39 0 0 682 39 0 0 -682 3378 2158 5 MP stroke
c8
0 490 40 0 0 -490 3417 2158 4 MP
PP
0 sg
-40 0 0 490 40 0 0 -490 3417 2158 5 MP stroke
c8
0 514 39 0 0 -514 3457 2158 4 MP
PP
0 sg
-39 0 0 514 39 0 0 -514 3457 2158 5 MP stroke
c8
0 340 39 0 0 -340 3496 2158 4 MP
PP
0 sg
-39 0 0 340 39 0 0 -340 3496 2158 5 MP stroke
c8
0 343 39 0 0 -343 3535 2158 4 MP
PP
0 sg
-39 0 0 343 39 0 0 -343 3535 2158 5 MP stroke
c8
0 572 39 0 0 -572 3574 2158 4 MP
PP
0 sg
-39 0 0 572 39 0 0 -572 3574 2158 5 MP stroke
c8
0 375 39 0 0 -375 3613 2158 4 MP
PP
0 sg
-39 0 0 375 39 0 0 -375 3613 2158 5 MP stroke
c8
0 399 39 0 0 -399 3652 2158 4 MP
PP
0 sg
-39 0 0 399 39 0 0 -399 3652 2158 5 MP stroke
c8
0 360 40 0 0 -360 3691 2158 4 MP
PP
0 sg
-40 0 0 360 40 0 0 -360 3691 2158 5 MP stroke
c8
0 360 39 0 0 -360 3731 2158 4 MP
PP
0 sg
-39 0 0 360 39 0 0 -360 3731 2158 5 MP stroke
c8
0 366 39 0 0 -366 3770 2158 4 MP
PP
0 sg
-39 0 0 366 39 0 0 -366 3770 2158 5 MP stroke
c8
0 307 39 0 0 -307 3809 2158 4 MP
PP
0 sg
-39 0 0 307 39 0 0 -307 3809 2158 5 MP stroke
c8
0 343 39 0 0 -343 3848 2158 4 MP
PP
0 sg
-39 0 0 343 39 0 0 -343 3848 2158 5 MP stroke
c8
0 245 39 0 0 -245 3887 2158 4 MP
PP
0 sg
-39 0 0 245 39 0 0 -245 3887 2158 5 MP stroke
c8
0 313 40 0 0 -313 3926 2158 4 MP
PP
0 sg
-40 0 0 313 40 0 0 -313 3926 2158 5 MP stroke
c8
0 266 39 0 0 -266 3966 2158 4 MP
PP
0 sg
-39 0 0 266 39 0 0 -266 3966 2158 5 MP stroke
c8
0 254 39 0 0 -254 4005 2158 4 MP
PP
0 sg
-39 0 0 254 39 0 0 -254 4005 2158 5 MP stroke
c8
0 136 39 0 0 -136 4044 2158 4 MP
PP
0 sg
-39 0 0 136 39 0 0 -136 4044 2158 5 MP stroke
c8
0 33 39 0 0 -33 4083 2158 4 MP
PP
0 sg
-39 0 0 33 39 0 0 -33 4083 2158 5 MP stroke
gr

%%IncludeResource: font Symbol
/Symbol /ISOLatin1Encoding 120 FMSR

3546 2408 mt 
(a) s
%%IncludeResource: font Helvetica
/Helvetica /ISOLatin1Encoding 96 FMSR

3621 2468 mt 
(2) s
%%IncludeResource: font Helvetica
/Helvetica /ISOLatin1Encoding 120 FMSR

2631 1537 mt  -90 rotate
(frequency) s
90 rotate
1 sg
0 1769 1326 0 0 -1769 4889 2158 4 MP
PP
-1326 0 0 1769 1326 0 0 -1769 4889 2158 5 MP stroke
4 w
DO
SO
6 w
0 sg
4889 2158 mt 6215 2158 L
4889  389 mt 6215  389 L
4889 2158 mt 4889  389 L
6215 2158 mt 6215  389 L
4889 2158 mt 6215 2158 L
4889 2158 mt 4889  389 L
4889 2158 mt 4889 2140 L
4889  389 mt 4889  406 L
4773 2303 mt 
(0.05) s
5331 2158 mt 5331 2140 L
5331  389 mt 5331  406 L
5248 2303 mt 
(0.1) s
5773 2158 mt 5773 2140 L
5773  389 mt 5773  406 L
5657 2303 mt 
(0.15) s
6215 2158 mt 6215 2140 L
6215  389 mt 6215  406 L
6132 2303 mt 
(0.2) s
4889 2158 mt 4906 2158 L
6215 2158 mt 6197 2158 L
4788 2202 mt 
(0) s
4889 1905 mt 4906 1905 L
6215 1905 mt 6197 1905 L
4654 1949 mt 
(100) s
4889 1652 mt 4906 1652 L
6215 1652 mt 6197 1652 L
4654 1696 mt 
(200) s
4889 1399 mt 4906 1399 L
6215 1399 mt 6197 1399 L
4654 1443 mt 
(300) s
4889 1147 mt 4906 1147 L
6215 1147 mt 6197 1147 L
4654 1191 mt 
(400) s
4889  894 mt 4906  894 L
6215  894 mt 6197  894 L
4654  938 mt 
(500) s
4889  641 mt 4906  641 L
6215  641 mt 6197  641 L
4654  685 mt 
(600) s
4889  389 mt 4906  389 L
6215  389 mt 6197  389 L
4654  433 mt 
(700) s
4889 2158 mt 6215 2158 L
4889  389 mt 6215  389 L
4889 2158 mt 4889  389 L
6215 2158 mt 6215  389 L
gs 4889 389 1327 1770 MR c np
c8
0 13 19 0 0 -13 5116 2158 4 MP
PP
0 sg
-19 0 0 13 19 0 0 -13 5116 2158 5 MP stroke
c8
0 3 19 0 0 -3 5135 2158 4 MP
PP
0 sg
-19 0 0 3 19 0 0 -3 5135 2158 5 MP stroke
c8
0 11 20 0 0 -11 5154 2158 4 MP
PP
0 sg
-20 0 0 11 20 0 0 -11 5154 2158 5 MP stroke
c8
0 26 19 0 0 -26 5174 2158 4 MP
PP
0 sg
-19 0 0 26 19 0 0 -26 5174 2158 5 MP stroke
c8
0 61 19 0 0 -61 5193 2158 4 MP
PP
0 sg
-19 0 0 61 19 0 0 -61 5193 2158 5 MP stroke
c8
0 76 19 0 0 -76 5212 2158 4 MP
PP
0 sg
-19 0 0 76 19 0 0 -76 5212 2158 5 MP stroke
c8
0 91 19 0 0 -91 5231 2158 4 MP
PP
0 sg
-19 0 0 91 19 0 0 -91 5231 2158 5 MP stroke
c8
0 172 19 0 0 -172 5250 2158 4 MP
PP
0 sg
-19 0 0 172 19 0 0 -172 5250 2158 5 MP stroke
c8
0 271 19 0 0 -271 5269 2158 4 MP
PP
0 sg
-19 0 0 271 19 0 0 -271 5269 2158 5 MP stroke
c8
0 491 19 0 0 -491 5288 2158 4 MP
PP
0 sg
-19 0 0 491 19 0 0 -491 5288 2158 5 MP stroke
c8
0 738 19 0 0 -738 5307 2158 4 MP
PP
0 sg
-19 0 0 738 19 0 0 -738 5307 2158 5 MP stroke
c8
0 994 20 0 0 -994 5326 2158 4 MP
PP
0 sg
-20 0 0 994 20 0 0 -994 5326 2158 5 MP stroke
c8
0 966 19 0 0 -966 5346 2158 4 MP
PP
0 sg
-19 0 0 966 19 0 0 -966 5346 2158 5 MP stroke
c8
0 1729 19 0 0 -1729 5365 2158 4 MP
PP
0 sg
-19 0 0 1729 19 0 0 -1729 5365 2158 5 MP stroke
c8
0 1431 19 0 0 -1431 5384 2158 4 MP
PP
0 sg
-19 0 0 1431 19 0 0 -1431 5384 2158 5 MP stroke
c8
0 1762 19 0 0 -1762 5403 2158 4 MP
PP
0 sg
-19 0 0 1762 19 0 0 -1762 5403 2158 5 MP stroke
c8
0 1203 19 0 0 -1203 5422 2158 4 MP
PP
0 sg
-19 0 0 1203 19 0 0 -1203 5422 2158 5 MP stroke
c8
0 749 19 0 0 -749 5441 2158 4 MP
PP
0 sg
-19 0 0 749 19 0 0 -749 5441 2158 5 MP stroke
c8
0 562 19 0 0 -562 5460 2158 4 MP
PP
0 sg
-19 0 0 562 19 0 0 -562 5460 2158 5 MP stroke
c8
0 450 20 0 0 -450 5479 2158 4 MP
PP
0 sg
-20 0 0 450 20 0 0 -450 5479 2158 5 MP stroke
c8
0 402 19 0 0 -402 5499 2158 4 MP
PP
0 sg
-19 0 0 402 19 0 0 -402 5499 2158 5 MP stroke
c8
0 271 19 0 0 -271 5518 2158 4 MP
PP
0 sg
-19 0 0 271 19 0 0 -271 5518 2158 5 MP stroke
c8
0 59 19 0 0 -59 5537 2158 4 MP
PP
0 sg
-19 0 0 59 19 0 0 -59 5537 2158 5 MP stroke
c8
0 74 19 0 0 -74 5556 2158 4 MP
PP
0 sg
-19 0 0 74 19 0 0 -74 5556 2158 5 MP stroke
c8
0 33 19 0 0 -33 5575 2158 4 MP
PP
0 sg
-19 0 0 33 19 0 0 -33 5575 2158 5 MP stroke
c8
0 6 19 0 0 -6 5594 2158 4 MP
PP
0 sg
-19 0 0 6 19 0 0 -6 5594 2158 5 MP stroke
c8
0 3 19 0 0 -3 5613 2158 4 MP
PP
0 sg
-19 0 0 3 19 0 0 -3 5613 2158 5 MP stroke
c8
0 0 20 0 0 0 5632 2158 4 MP
PP
0 sg
-20 0 0 0 20 0 0 0 5632 2158 5 MP stroke
c8
0 0 19 0 0 0 5652 2158 4 MP
PP
0 sg
-19 0 0 0 19 0 0 0 5652 2158 5 MP stroke
c8
0 3 19 0 0 -3 5671 2158 4 MP
PP
0 sg
-19 0 0 3 19 0 0 -3 5671 2158 5 MP stroke
gr

%%IncludeResource: font Symbol
/Symbol /ISOLatin1Encoding 120 FMSR

5487 2408 mt 
(a) s
%%IncludeResource: font Helvetica
/Helvetica /ISOLatin1Encoding 96 FMSR

5562 2468 mt 
(1) s
%%IncludeResource: font Helvetica
/Helvetica /ISOLatin1Encoding 120 FMSR

4572 1537 mt  -90 rotate
(frequency) s
90 rotate
1 sg
0 1769 1327 0 0 -1769 1006 4615 4 MP
PP
-1327 0 0 1769 1327 0 0 -1769 1006 4615 5 MP stroke
4 w
DO
SO
6 w
0 sg
1006 4615 mt 2333 4615 L
1006 2846 mt 2333 2846 L
1006 4615 mt 1006 2846 L
2333 4615 mt 2333 2846 L
1006 4615 mt 2333 4615 L
1006 4615 mt 1006 2846 L
1006 4615 mt 1006 4597 L
1006 2846 mt 1006 2863 L
 923 4760 mt 
(0.2) s
1670 4615 mt 1670 4597 L
1670 2846 mt 1670 2863 L
1587 4760 mt 
(0.3) s
2333 4615 mt 2333 4597 L
2333 2846 mt 2333 2863 L
2250 4760 mt 
(0.4) s
1006 4615 mt 1024 4615 L
2333 4615 mt 2315 4615 L
 906 4659 mt 
(0) s
1006 4362 mt 1024 4362 L
2333 4362 mt 2315 4362 L
 772 4406 mt 
(100) s
1006 4109 mt 1024 4109 L
2333 4109 mt 2315 4109 L
 772 4153 mt 
(200) s
1006 3856 mt 1024 3856 L
2333 3856 mt 2315 3856 L
 772 3900 mt 
(300) s
1006 3604 mt 1024 3604 L
2333 3604 mt 2315 3604 L
 772 3648 mt 
(400) s
1006 3351 mt 1024 3351 L
2333 3351 mt 2315 3351 L
 772 3395 mt 
(500) s
1006 3098 mt 1024 3098 L
2333 3098 mt 2315 3098 L
 772 3142 mt 
(600) s
1006 2846 mt 1024 2846 L
2333 2846 mt 2315 2846 L
 772 2890 mt 
(700) s
1006 4615 mt 2333 4615 L
1006 2846 mt 2333 2846 L
1006 4615 mt 1006 2846 L
2333 4615 mt 2333 2846 L
gs 1006 2846 1328 1770 MR c np
c8
0 3 24 0 0 -3 1395 4615 4 MP
PP
0 sg
-24 0 0 3 24 0 0 -3 1395 4615 5 MP stroke
c8
0 13 23 0 0 -13 1419 4615 4 MP
PP
0 sg
-23 0 0 13 23 0 0 -13 1419 4615 5 MP stroke
c8
0 8 23 0 0 -8 1442 4615 4 MP
PP
0 sg
-23 0 0 8 23 0 0 -8 1442 4615 5 MP stroke
c8
0 13 24 0 0 -13 1465 4615 4 MP
PP
0 sg
-24 0 0 13 24 0 0 -13 1465 4615 5 MP stroke
c8
0 54 23 0 0 -54 1489 4615 4 MP
PP
0 sg
-23 0 0 54 23 0 0 -54 1489 4615 5 MP stroke
c8
0 46 24 0 0 -46 1512 4615 4 MP
PP
0 sg
-24 0 0 46 24 0 0 -46 1512 4615 5 MP stroke
c8
0 155 23 0 0 -155 1536 4615 4 MP
PP
0 sg
-23 0 0 155 23 0 0 -155 1536 4615 5 MP stroke
c8
0 172 23 0 0 -172 1559 4615 4 MP
PP
0 sg
-23 0 0 172 23 0 0 -172 1559 4615 5 MP stroke
c8
0 329 24 0 0 -329 1582 4615 4 MP
PP
0 sg
-24 0 0 329 24 0 0 -329 1582 4615 5 MP stroke
c8
0 387 23 0 0 -387 1606 4615 4 MP
PP
0 sg
-23 0 0 387 23 0 0 -387 1606 4615 5 MP stroke
c8
0 668 24 0 0 -668 1629 4615 4 MP
PP
0 sg
-24 0 0 668 24 0 0 -668 1629 4615 5 MP stroke
c8
0 895 23 0 0 -895 1653 4615 4 MP
PP
0 sg
-23 0 0 895 23 0 0 -895 1653 4615 5 MP stroke
c8
0 1117 23 0 0 -1117 1676 4615 4 MP
PP
0 sg
-23 0 0 1117 23 0 0 -1117 1676 4615 5 MP stroke
c8
0 1484 24 0 0 -1484 1699 4615 4 MP
PP
0 sg
-24 0 0 1484 24 0 0 -1484 1699 4615 5 MP stroke
c8
0 1368 23 0 0 -1368 1723 4615 4 MP
PP
0 sg
-23 0 0 1368 23 0 0 -1368 1723 4615 5 MP stroke
c8
0 1711 24 0 0 -1711 1746 4615 4 MP
PP
0 sg
-24 0 0 1711 24 0 0 -1711 1746 4615 5 MP stroke
c8
0 1277 23 0 0 -1277 1770 4615 4 MP
PP
0 sg
-23 0 0 1277 23 0 0 -1277 1770 4615 5 MP stroke
c8
0 865 23 0 0 -865 1793 4615 4 MP
PP
0 sg
-23 0 0 865 23 0 0 -865 1793 4615 5 MP stroke
c8
0 597 24 0 0 -597 1816 4615 4 MP
PP
0 sg
-24 0 0 597 24 0 0 -597 1816 4615 5 MP stroke
c8
0 491 23 0 0 -491 1840 4615 4 MP
PP
0 sg
-23 0 0 491 23 0 0 -491 1840 4615 5 MP stroke
c8
0 407 24 0 0 -407 1863 4615 4 MP
PP
0 sg
-24 0 0 407 24 0 0 -407 1863 4615 5 MP stroke
c8
0 296 23 0 0 -296 1887 4615 4 MP
PP
0 sg
-23 0 0 296 23 0 0 -296 1887 4615 5 MP stroke
c8
0 142 23 0 0 -142 1910 4615 4 MP
PP
0 sg
-23 0 0 142 23 0 0 -142 1910 4615 5 MP stroke
c8
0 66 24 0 0 -66 1933 4615 4 MP
PP
0 sg
-24 0 0 66 24 0 0 -66 1933 4615 5 MP stroke
c8
0 51 23 0 0 -51 1957 4615 4 MP
PP
0 sg
-23 0 0 51 23 0 0 -51 1957 4615 5 MP stroke
c8
0 23 24 0 0 -23 1980 4615 4 MP
PP
0 sg
-24 0 0 23 24 0 0 -23 1980 4615 5 MP stroke
c8
0 0 23 0 0 0 2004 4615 4 MP
PP
0 sg
-23 0 0 0 23 0 0 0 2004 4615 5 MP stroke
c8
0 8 23 0 0 -8 2027 4615 4 MP
PP
0 sg
-23 0 0 8 23 0 0 -8 2027 4615 5 MP stroke
c8
0 0 24 0 0 0 2050 4615 4 MP
PP
0 sg
-24 0 0 0 24 0 0 0 2050 4615 5 MP stroke
c8
0 3 23 0 0 -3 2074 4615 4 MP
PP
0 sg
-23 0 0 3 23 0 0 -3 2074 4615 5 MP stroke
gr

%%IncludeResource: font Symbol
/Symbol /ISOLatin1Encoding 120 FMSR

1610 4865 mt 
(b) s
%%IncludeResource: font Helvetica
/Helvetica /ISOLatin1Encoding 96 FMSR

1675 4925 mt 
(2) s
%%IncludeResource: font Helvetica
/Helvetica /ISOLatin1Encoding 120 FMSR

 690 3994 mt  -90 rotate
(frequency) s
90 rotate
1 sg
0 1769 1326 0 0 -1769 2948 4615 4 MP
PP
-1326 0 0 1769 1326 0 0 -1769 2948 4615 5 MP stroke
4 w
DO
SO
6 w
0 sg
2948 4615 mt 4274 4615 L
2948 2846 mt 4274 2846 L
2948 4615 mt 2948 2846 L
4274 4615 mt 4274 2846 L
2948 4615 mt 4274 4615 L
2948 4615 mt 2948 2846 L
2948 4615 mt 2948 4597 L
2948 2846 mt 2948 2863 L
2915 4760 mt 
(0) s
3611 4615 mt 3611 4597 L
3611 2846 mt 3611 2863 L
3495 4760 mt 
(0.01) s
4274 4615 mt 4274 4597 L
4274 2846 mt 4274 2863 L
4158 4760 mt 
(0.02) s
2948 4615 mt 2965 4615 L
4274 4615 mt 4256 4615 L
2847 4659 mt 
(0) s
2948 4261 mt 2965 4261 L
4274 4261 mt 4256 4261 L
2713 4305 mt 
(100) s
2948 3907 mt 2965 3907 L
4274 3907 mt 4256 3907 L
2713 3951 mt 
(200) s
2948 3553 mt 2965 3553 L
4274 3553 mt 4256 3553 L
2713 3597 mt 
(300) s
2948 3199 mt 2965 3199 L
4274 3199 mt 4256 3199 L
2713 3243 mt 
(400) s
2948 2846 mt 2965 2846 L
4274 2846 mt 4256 2846 L
2713 2890 mt 
(500) s
2948 4615 mt 4274 4615 L
2948 2846 mt 4274 2846 L
2948 4615 mt 2948 2846 L
4274 4615 mt 4274 2846 L
gs 2948 2846 1327 1770 MR c np
c8
0 15 33 0 0 -15 3131 4615 4 MP
PP
0 sg
-33 0 0 15 33 0 0 -15 3131 4615 5 MP stroke
c8
0 46 33 0 0 -46 3164 4615 4 MP
PP
0 sg
-33 0 0 46 33 0 0 -46 3164 4615 5 MP stroke
c8
0 170 33 0 0 -170 3197 4615 4 MP
PP
0 sg
-33 0 0 170 33 0 0 -170 3197 4615 5 MP stroke
c8
0 319 33 0 0 -319 3230 4615 4 MP
PP
0 sg
-33 0 0 319 33 0 0 -319 3230 4615 5 MP stroke
c8
0 478 33 0 0 -478 3263 4615 4 MP
PP
0 sg
-33 0 0 478 33 0 0 -478 3263 4615 5 MP stroke
c8
0 818 34 0 0 -818 3296 4615 4 MP
PP
0 sg
-34 0 0 818 34 0 0 -818 3296 4615 5 MP stroke
c8
0 814 33 0 0 -814 3330 4615 4 MP
PP
0 sg
-33 0 0 814 33 0 0 -814 3330 4615 5 MP stroke
c8
0 1119 33 0 0 -1119 3363 4615 4 MP
PP
0 sg
-33 0 0 1119 33 0 0 -1119 3363 4615 5 MP stroke
c8
0 1380 33 0 0 -1380 3396 4615 4 MP
PP
0 sg
-33 0 0 1380 33 0 0 -1380 3396 4615 5 MP stroke
c8
0 1352 33 0 0 -1352 3429 4615 4 MP
PP
0 sg
-33 0 0 1352 33 0 0 -1352 3429 4615 5 MP stroke
c8
0 1264 33 0 0 -1264 3462 4615 4 MP
PP
0 sg
-33 0 0 1264 33 0 0 -1264 3462 4615 5 MP stroke
c8
0 1589 33 0 0 -1589 3495 4615 4 MP
PP
0 sg
-33 0 0 1589 33 0 0 -1589 3495 4615 5 MP stroke
c8
0 1387 33 0 0 -1387 3528 4615 4 MP
PP
0 sg
-33 0 0 1387 33 0 0 -1387 3528 4615 5 MP stroke
c8
0 998 34 0 0 -998 3561 4615 4 MP
PP
0 sg
-34 0 0 998 34 0 0 -998 3561 4615 5 MP stroke
c8
0 924 33 0 0 -924 3595 4615 4 MP
PP
0 sg
-33 0 0 924 33 0 0 -924 3595 4615 5 MP stroke
c8
0 1037 33 0 0 -1037 3628 4615 4 MP
PP
0 sg
-33 0 0 1037 33 0 0 -1037 3628 4615 5 MP stroke
c8
0 949 33 0 0 -949 3661 4615 4 MP
PP
0 sg
-33 0 0 949 33 0 0 -949 3661 4615 5 MP stroke
c8
0 853 33 0 0 -853 3694 4615 4 MP
PP
0 sg
-33 0 0 853 33 0 0 -853 3694 4615 5 MP stroke
c8
0 1331 33 0 0 -1331 3727 4615 4 MP
PP
0 sg
-33 0 0 1331 33 0 0 -1331 3727 4615 5 MP stroke
c8
0 365 33 0 0 -365 3760 4615 4 MP
PP
0 sg
-33 0 0 365 33 0 0 -365 3760 4615 5 MP stroke
c8
0 202 33 0 0 -202 3793 4615 4 MP
PP
0 sg
-33 0 0 202 33 0 0 -202 3793 4615 5 MP stroke
c8
0 82 34 0 0 -82 3826 4615 4 MP
PP
0 sg
-34 0 0 82 34 0 0 -82 3826 4615 5 MP stroke
c8
0 78 33 0 0 -78 3860 4615 4 MP
PP
0 sg
-33 0 0 78 33 0 0 -78 3860 4615 5 MP stroke
c8
0 64 33 0 0 -64 3893 4615 4 MP
PP
0 sg
-33 0 0 64 33 0 0 -64 3893 4615 5 MP stroke
c8
0 22 33 0 0 -22 3926 4615 4 MP
PP
0 sg
-33 0 0 22 33 0 0 -22 3926 4615 5 MP stroke
c8
0 29 33 0 0 -29 3959 4615 4 MP
PP
0 sg
-33 0 0 29 33 0 0 -29 3959 4615 5 MP stroke
c8
0 11 33 0 0 -11 3992 4615 4 MP
PP
0 sg
-33 0 0 11 33 0 0 -11 3992 4615 5 MP stroke
c8
0 0 33 0 0 0 4025 4615 4 MP
PP
0 sg
-33 0 0 0 33 0 0 0 4025 4615 5 MP stroke
c8
0 4 33 0 0 -4 4058 4615 4 MP
PP
0 sg
-33 0 0 4 33 0 0 -4 4058 4615 5 MP stroke
c8
0 4 34 0 0 -4 4091 4615 4 MP
PP
0 sg
-34 0 0 4 34 0 0 -4 4091 4615 5 MP stroke
gr

%%IncludeResource: font Symbol
/Symbol /ISOLatin1Encoding 120 FMSR

3547 4892 mt 
(s) s
%%IncludeResource: font Symbol
/Symbol /ISOLatin1Encoding 96 FMSR

3619 4952 mt 
(r) s
%%IncludeResource: font Helvetica
/Helvetica /ISOLatin1Encoding 96 FMSR

3619 4832 mt 
(2) s
%%IncludeResource: font Helvetica
/Helvetica /ISOLatin1Encoding 120 FMSR

2631 3994 mt  -90 rotate
(frequency) s
90 rotate
1 sg
0 1769 1326 0 0 -1769 4889 4615 4 MP
PP
-1326 0 0 1769 1326 0 0 -1769 4889 4615 5 MP stroke
4 w
DO
SO
6 w
0 sg
4889 4615 mt 6215 4615 L
4889 2846 mt 6215 2846 L
4889 4615 mt 4889 2846 L
6215 4615 mt 6215 2846 L
4889 4615 mt 6215 4615 L
4889 4615 mt 4889 2846 L
4889 4615 mt 4889 4597 L
4889 2846 mt 4889 2863 L
4856 4760 mt 
(0) s
5552 4615 mt 5552 4597 L
5552 2846 mt 5552 2863 L
5519 4760 mt 
(1) s
6215 4615 mt 6215 4597 L
6215 2846 mt 6215 2863 L
6182 4760 mt 
(2) s
5898 4962 mt 
(x 10) s
%%IncludeResource: font Helvetica
/Helvetica /ISOLatin1Encoding 80 FMSR

6124 4888 mt 
(-3) s
4889 4615 mt 4906 4615 L
6215 4615 mt 6197 4615 L
%%IncludeResource: font Helvetica
/Helvetica /ISOLatin1Encoding 120 FMSR

4788 4659 mt 
(0) s
4889 4261 mt 4906 4261 L
6215 4261 mt 6197 4261 L
4654 4305 mt 
(200) s
4889 3907 mt 4906 3907 L
6215 3907 mt 6197 3907 L
4654 3951 mt 
(400) s
4889 3553 mt 4906 3553 L
6215 3553 mt 6197 3553 L
4654 3597 mt 
(600) s
4889 3199 mt 4906 3199 L
6215 3199 mt 6197 3199 L
4654 3243 mt 
(800) s
4889 2846 mt 4906 2846 L
6215 2846 mt 6197 2846 L
4588 2890 mt 
(1000) s
4889 4615 mt 6215 4615 L
4889 2846 mt 6215 2846 L
4889 4615 mt 4889 2846 L
6215 4615 mt 6215 2846 L
gs 4889 2846 1327 1770 MR c np
c8
0 287 38 0 0 -287 4951 4615 4 MP
PP
0 sg
-38 0 0 287 38 0 0 -287 4951 4615 5 MP stroke
c8
0 1522 39 0 0 -1522 4989 4615 4 MP
PP
0 sg
-39 0 0 1522 39 0 0 -1522 4989 4615 5 MP stroke
c8
0 1419 39 0 0 -1419 5028 4615 4 MP
PP
0 sg
-39 0 0 1419 39 0 0 -1419 5028 4615 5 MP stroke
c8
0 1018 38 0 0 -1018 5067 4615 4 MP
PP
0 sg
-38 0 0 1018 38 0 0 -1018 5067 4615 5 MP stroke
c8
0 701 39 0 0 -701 5105 4615 4 MP
PP
0 sg
-39 0 0 701 39 0 0 -701 5105 4615 5 MP stroke
c8
0 703 38 0 0 -703 5144 4615 4 MP
PP
0 sg
-38 0 0 703 38 0 0 -703 5144 4615 5 MP stroke
c8
0 570 39 0 0 -570 5182 4615 4 MP
PP
0 sg
-39 0 0 570 39 0 0 -570 5182 4615 5 MP stroke
c8
0 399 39 0 0 -399 5221 4615 4 MP
PP
0 sg
-39 0 0 399 39 0 0 -399 5221 4615 5 MP stroke
c8
0 328 38 0 0 -328 5260 4615 4 MP
PP
0 sg
-38 0 0 328 38 0 0 -328 5260 4615 5 MP stroke
c8
0 363 39 0 0 -363 5298 4615 4 MP
PP
0 sg
-39 0 0 363 39 0 0 -363 5298 4615 5 MP stroke
c8
0 338 39 0 0 -338 5337 4615 4 MP
PP
0 sg
-39 0 0 338 39 0 0 -338 5337 4615 5 MP stroke
c8
0 276 38 0 0 -276 5376 4615 4 MP
PP
0 sg
-38 0 0 276 38 0 0 -276 5376 4615 5 MP stroke
c8
0 192 39 0 0 -192 5414 4615 4 MP
PP
0 sg
-39 0 0 192 39 0 0 -192 5414 4615 5 MP stroke
c8
0 179 39 0 0 -179 5453 4615 4 MP
PP
0 sg
-39 0 0 179 39 0 0 -179 5453 4615 5 MP stroke
c8
0 121 38 0 0 -121 5492 4615 4 MP
PP
0 sg
-38 0 0 121 38 0 0 -121 5492 4615 5 MP stroke
c8
0 153 39 0 0 -153 5530 4615 4 MP
PP
0 sg
-39 0 0 153 39 0 0 -153 5530 4615 5 MP stroke
c8
0 69 39 0 0 -69 5569 4615 4 MP
PP
0 sg
-39 0 0 69 39 0 0 -69 5569 4615 5 MP stroke
c8
0 52 38 0 0 -52 5608 4615 4 MP
PP
0 sg
-38 0 0 52 38 0 0 -52 5608 4615 5 MP stroke
c8
0 45 39 0 0 -45 5646 4615 4 MP
PP
0 sg
-39 0 0 45 39 0 0 -45 5646 4615 5 MP stroke
c8
0 38 39 0 0 -38 5685 4615 4 MP
PP
0 sg
-39 0 0 38 39 0 0 -38 5685 4615 5 MP stroke
c8
0 23 38 0 0 -23 5724 4615 4 MP
PP
0 sg
-38 0 0 23 38 0 0 -23 5724 4615 5 MP stroke
c8
0 6 39 0 0 -6 5762 4615 4 MP
PP
0 sg
-39 0 0 6 39 0 0 -6 5762 4615 5 MP stroke
c8
0 8 38 0 0 -8 5801 4615 4 MP
PP
0 sg
-38 0 0 8 38 0 0 -8 5801 4615 5 MP stroke
c8
0 8 39 0 0 -8 5839 4615 4 MP
PP
0 sg
-39 0 0 8 39 0 0 -8 5839 4615 5 MP stroke
c8
0 13 39 0 0 -13 5878 4615 4 MP
PP
0 sg
-39 0 0 13 39 0 0 -13 5878 4615 5 MP stroke
c8
0 6 38 0 0 -6 5917 4615 4 MP
PP
0 sg
-38 0 0 6 38 0 0 -6 5917 4615 5 MP stroke
c8
0 6 39 0 0 -6 5955 4615 4 MP
PP
0 sg
-39 0 0 6 39 0 0 -6 5955 4615 5 MP stroke
c8
0 0 39 0 0 0 5994 4615 4 MP
PP
0 sg
-39 0 0 0 39 0 0 0 5994 4615 5 MP stroke
c8
0 9 38 0 0 -9 6033 4615 4 MP
PP
0 sg
-38 0 0 9 38 0 0 -9 6033 4615 5 MP stroke
c8
0 9 39 0 0 -9 6071 4615 4 MP
PP
0 sg
-39 0 0 9 39 0 0 -9 6071 4615 5 MP stroke
gr

%%IncludeResource: font Symbol
/Symbol /ISOLatin1Encoding 120 FMSR

5488 4885 mt 
(s) s
%%IncludeResource: font Helvetica
/Helvetica /ISOLatin1Encoding 96 FMSR

5560 4945 mt 
(n) s
5560 4825 mt 
(2) s
%%IncludeResource: font Helvetica
/Helvetica /ISOLatin1Encoding 120 FMSR

4506 3994 mt  -90 rotate
(frequency) s
90 rotate

end %%Color Dict

eplot
%%EndObject

epage
end

showpage

%%Trailer
%%EOF
