%!PS-Adobe-2.0 EPSF-1.2
%%Creator: MATLAB, The MathWorks, Inc. Version 8.1.0.604 (R2013a). Operating System: Linux 3.13.0-40-generic #69-Ubuntu SMP Thu Nov 13 17:53:56 UTC 2014 x86_64.
%%Title: /home/xiaolin/Documents/model_selection/model_selection_log003new/YH/data_figures/sampleTrace.eps
%%CreationDate: 10/25/2015  06:52:23
%%DocumentNeededFonts: Helvetica
%%DocumentProcessColors: Cyan Magenta Yellow Black
%%Pages: 1
%%BoundingBox:    65   215   549   608
%%EndComments

%%BeginProlog
% MathWorks dictionary
/MathWorks 160 dict begin
% definition operators
/bdef {bind def} bind def
/ldef {load def} bind def
/xdef {exch def} bdef
/xstore {exch store} bdef
% operator abbreviations
/c  /clip ldef
/cc /concat ldef
/cp /closepath ldef
/gr /grestore ldef
/gs /gsave ldef
/mt /moveto ldef
/np /newpath ldef
/cm /currentmatrix ldef
/sm /setmatrix ldef
/rm /rmoveto ldef
/rl /rlineto ldef
/s {show newpath} bdef
/sc {setcmykcolor} bdef
/sr /setrgbcolor ldef
/sg /setgray ldef
/w /setlinewidth ldef
/j /setlinejoin ldef
/cap /setlinecap ldef
/rc {rectclip} bdef
/rf {rectfill} bdef
% page state control
/pgsv () def
/bpage {/pgsv save def} bdef
/epage {pgsv restore} bdef
/bplot /gsave ldef
/eplot {stroke grestore} bdef
% orientation switch
/portraitMode 0 def /landscapeMode 1 def /rotateMode 2 def
% coordinate system mappings
/dpi2point 0 def
% font control
/FontSize 0 def
/FMS {/FontSize xstore findfont [FontSize 0 0 FontSize neg 0 0]
  makefont setfont} bdef
/reencode {exch dup where {pop load} {pop StandardEncoding} ifelse
  exch dup 3 1 roll findfont dup length dict begin
  { 1 index /FID ne {def}{pop pop} ifelse } forall
  /Encoding exch def currentdict end definefont pop} bdef
/isroman {findfont /CharStrings get /Agrave known} bdef
/FMSR {3 1 roll 1 index dup isroman {reencode} {pop pop} ifelse
  exch FMS} bdef
/csm {1 dpi2point div -1 dpi2point div scale neg translate
 dup landscapeMode eq {pop -90 rotate}
  {rotateMode eq {90 rotate} if} ifelse} bdef
% line types: solid, dotted, dashed, dotdash
/SO { [] 0 setdash } bdef
/DO { [.5 dpi2point mul 4 dpi2point mul] 0 setdash } bdef
/DA { [6 dpi2point mul] 0 setdash } bdef
/DD { [.5 dpi2point mul 4 dpi2point mul 6 dpi2point mul 4
  dpi2point mul] 0 setdash } bdef
% macros for lines and objects
/L {lineto stroke} bdef
/MP {3 1 roll moveto 1 sub {rlineto} repeat} bdef
/AP {{rlineto} repeat} bdef
/PDlw -1 def
/W {/PDlw currentlinewidth def setlinewidth} def
/PP {closepath eofill} bdef
/DP {closepath stroke} bdef
/MR {4 -2 roll moveto dup  0 exch rlineto exch 0 rlineto
  neg 0 exch rlineto closepath} bdef
/FR {MR stroke} bdef
/PR {MR fill} bdef
/L1i {{currentfile picstr readhexstring pop} image} bdef
/tMatrix matrix def
/MakeOval {newpath tMatrix currentmatrix pop translate scale
0 0 1 0 360 arc tMatrix setmatrix} bdef
/FO {MakeOval stroke} bdef
/PO {MakeOval fill} bdef
/PD {currentlinewidth 2 div 0 360 arc fill
   PDlw -1 eq not {PDlw w /PDlw -1 def} if} def
/FA {newpath tMatrix currentmatrix pop translate scale
  0 0 1 5 -2 roll arc tMatrix setmatrix stroke} bdef
/PA {newpath tMatrix currentmatrix pop	translate 0 0 moveto scale
  0 0 1 5 -2 roll arc closepath tMatrix setmatrix fill} bdef
/FAn {newpath tMatrix currentmatrix pop translate scale
  0 0 1 5 -2 roll arcn tMatrix setmatrix stroke} bdef
/PAn {newpath tMatrix currentmatrix pop translate 0 0 moveto scale
  0 0 1 5 -2 roll arcn closepath tMatrix setmatrix fill} bdef
/vradius 0 def /hradius 0 def /lry 0 def
/lrx 0 def /uly 0 def /ulx 0 def /rad 0 def
/MRR {/vradius xdef /hradius xdef /lry xdef /lrx xdef /uly xdef
  /ulx xdef newpath tMatrix currentmatrix pop ulx hradius add uly
  vradius add translate hradius vradius scale 0 0 1 180 270 arc 
  tMatrix setmatrix lrx hradius sub uly vradius add translate
  hradius vradius scale 0 0 1 270 360 arc tMatrix setmatrix
  lrx hradius sub lry vradius sub translate hradius vradius scale
  0 0 1 0 90 arc tMatrix setmatrix ulx hradius add lry vradius sub
  translate hradius vradius scale 0 0 1 90 180 arc tMatrix setmatrix
  closepath} bdef
/FRR {MRR stroke } bdef
/PRR {MRR fill } bdef
/MlrRR {/lry xdef /lrx xdef /uly xdef /ulx xdef /rad lry uly sub 2 div def
  newpath tMatrix currentmatrix pop ulx rad add uly rad add translate
  rad rad scale 0 0 1 90 270 arc tMatrix setmatrix lrx rad sub lry rad
  sub translate rad rad scale 0 0 1 270 90 arc tMatrix setmatrix
  closepath} bdef
/FlrRR {MlrRR stroke } bdef
/PlrRR {MlrRR fill } bdef
/MtbRR {/lry xdef /lrx xdef /uly xdef /ulx xdef /rad lrx ulx sub 2 div def
  newpath tMatrix currentmatrix pop ulx rad add uly rad add translate
  rad rad scale 0 0 1 180 360 arc tMatrix setmatrix lrx rad sub lry rad
  sub translate rad rad scale 0 0 1 0 180 arc tMatrix setmatrix
  closepath} bdef
/FtbRR {MtbRR stroke } bdef
/PtbRR {MtbRR fill } bdef
/stri 6 array def /dtri 6 array def
/smat 6 array def /dmat 6 array def
/tmat1 6 array def /tmat2 6 array def /dif 3 array def
/asub {/ind2 exch def /ind1 exch def dup dup
  ind1 get exch ind2 get sub exch } bdef
/tri_to_matrix {
  2 0 asub 3 1 asub 4 0 asub 5 1 asub
  dup 0 get exch 1 get 7 -1 roll astore } bdef
/compute_transform {
  dmat dtri tri_to_matrix tmat1 invertmatrix 
  smat stri tri_to_matrix tmat2 concatmatrix } bdef
/ds {stri astore pop} bdef
/dt {dtri astore pop} bdef
/db {2 copy /cols xdef /rows xdef mul dup string
  currentfile exch readhexstring pop
  /bmap xdef pop pop} bdef
/it {gs np dtri aload pop moveto lineto lineto cp c
  cols rows 8 compute_transform 
  {bmap} image gr}bdef
/il {newpath moveto lineto stroke}bdef
currentdict end def
%%EndProlog

%%BeginSetup
MathWorks begin

0 cap

end
%%EndSetup

%%Page: 1 1
%%BeginPageSetup
%%PageBoundingBox:    65   215   549   608
MathWorks begin
bpage
%%EndPageSetup

%%BeginObject: obj1
bplot

/dpi2point 12 def
portraitMode 0216 7344 csm

  564    46  5817  4715 MR c np
85 dict begin %Colortable dictionary
/c0 { 0.000000 0.000000 0.000000 sr} bdef
/c1 { 1.000000 1.000000 1.000000 sr} bdef
/c2 { 0.900000 0.000000 0.000000 sr} bdef
/c3 { 0.000000 0.820000 0.000000 sr} bdef
/c4 { 0.000000 0.000000 0.800000 sr} bdef
/c5 { 0.910000 0.820000 0.320000 sr} bdef
/c6 { 1.000000 0.260000 0.820000 sr} bdef
/c7 { 0.000000 0.820000 0.820000 sr} bdef
c0
1 j
1 sg
   0    0 6913 5186 PR
6 w
0 1769 1418 0 0 -1769 899 2158 4 MP
PP
-1418 0 0 1769 1418 0 0 -1769 899 2158 5 MP stroke
4 w
DO
SO
6 w
0 sg
 899 2158 mt 2317 2158 L
 899  389 mt 2317  389 L
 899 2158 mt  899  389 L
2317 2158 mt 2317  389 L
 899 2158 mt 2317 2158 L
 899 2158 mt  899  389 L
 899 2158 mt  899 2140 L
 899  389 mt  899  406 L
%%IncludeResource: font Helvetica
/Helvetica /ISOLatin1Encoding 120 FMSR

 866 2303 mt 
(0) s
1371 2158 mt 1371 2140 L
1371  389 mt 1371  406 L
1238 2303 mt 
(2000) s
1844 2158 mt 1844 2140 L
1844  389 mt 1844  406 L
1711 2303 mt 
(4000) s
2317 2158 mt 2317 2140 L
2317  389 mt 2317  406 L
2184 2303 mt 
(6000) s
 899 2158 mt  916 2158 L
2317 2158 mt 2299 2158 L
 564 2202 mt 
(0.785) s
 899 1804 mt  916 1804 L
2317 1804 mt 2299 1804 L
 631 1848 mt 
(0.79) s
 899 1450 mt  916 1450 L
2317 1450 mt 2299 1450 L
 564 1494 mt 
(0.795) s
 899 1096 mt  916 1096 L
2317 1096 mt 2299 1096 L
 698 1140 mt 
(0.8) s
 899  742 mt  916  742 L
2317  742 mt 2299  742 L
 564  786 mt 
(0.805) s
 899  389 mt  916  389 L
2317  389 mt 2299  389 L
 631  433 mt 
(0.81) s
 899 2158 mt 2317 2158 L
 899  389 mt 2317  389 L
 899 2158 mt  899  389 L
2317 2158 mt 2317  389 L
gs 899 389 1419 1770 MR c np
0 -82 1 56 0 -181 0 214 1 -125 0 -10 0 15 1 58 
0 137 1 -180 0 128 1 -5 0 -109 1 0 0 157 0 -11 
1 172 0 10 0 -104 1 0 0 202 0 -188 1 -48 1 183 
0 -261 0 47 1 17 0 -17 1 0 1 0 0 -163 1 43 
0 -123 0 288 1 -162 0 92 0 -19 1 172 0 -93 0 72 
1 0 0 -35 0 4 1 0 1 -201 0 3 0 -162 0 119 
1 0 1 -24 0 3 1 0 0 369 1 -109 0 30 0 -237 
1 167 0 -245 1 186 0 -16 1 -202 0 12 1 -12 0 221 
1 0 0 -223 0 51 1 0 0 -17 0 289 1 -17 0 80 
0 -44 1 0 0 -178 1 127 1 -273 0 -37 1 295 0 15 
0 -15 1 -32 0 46 0 -47 1 74 0 -62 1 36 0 -37 
1 0 0 -267 1 0 0 282 1 -37 0 -182 0 128 1 0 
1 25 0 79 0 -58 2038 1556 100 MP stroke
1 0 0 284 1 185 1 -723 0 104 1 116 0 -263 0 60 
1 0 0 -99 1 0 0 172 1 0 0 -11 0 94 1 102 
0 152 1 29 0 -82 1 0 0 -112 1 12 0 108 1 -6 
0 163 0 -130 1 -297 0 311 0 -109 1 -130 1 -39 0 167 
1 0 0 144 1 0 0 -277 0 277 1 0 0 -284 1 440 
0 -143 0 13 1 -157 0 -431 0 29 1 0 0 118 1 207 
0 132 1 206 0 -420 1 9 0 -92 0 207 1 116 0 -139 
0 10 1 0 0 -100 1 0 0 231 1 0 0 -264 0 46 
1 -46 0 57 0 -199 1 45 0 253 1 4 0 -15 1 15 
0 -47 1 -178 0 433 1 0 0 -403 0 71 1 0 0 13 
0 -19 1 0 0 271 1 -129 0 82 0 -139 1 -42 0 34 
1 0 0 148 1 105 0 -428 0 93 1 0 0 128 1 24 
0 -42 1 140 0 -39 1995 1430 100 MP stroke
1 -236 1 0 0 176 0 -77 1 0 0 -212 0 28 1 0 
1 31 0 -86 0 91 1 0 0 111 1 -47 0 -165 0 325 
1 0 0 -369 1 0 0 184 0 -41 1 0 0 228 1 0 
0 -496 1 50 0 566 0 -76 1 0 0 34 0 -119 1 197 
0 -415 1 -48 0 315 1 -336 0 -63 0 345 1 0 0 -34 
0 3 1 -102 0 270 0 -29 1 -88 0 -130 1 0 0 92 
1 84 0 -189 1 131 0 -41 1 64 0 -101 1 -178 0 370 
1 -198 0 16 0 -83 1 7 0 -7 0 166 1 0 0 -226 
0 283 1 -216 1 0 1 0 0 89 0 -80 1 0 0 -88 
1 0 0 140 1 0 0 -312 0 259 1 -151 0 151 1 0 
0 116 0 -116 1 178 0 -27 0 90 1 133 0 -389 0 7 
1 0 0 -104 1 304 0 -24 1 9 0 86 0 -116 1 0 
0 30 1 0 0 -240 1953 1726 100 MP stroke
1 0 0 73 1 134 0 -54 1 -78 0 197 1 0 0 -114 
1 0 1 45 0 -91 1 0 0 71 1 -189 0 187 1 -92 
0 -63 0 187 1 0 0 -170 0 259 1 -145 0 -2 0 7 
1 0 0 51 1 0 0 -73 1 0 0 -98 1 113 1 0 
0 -64 1 0 0 138 1 0 0 10 1 6 0 14 1 33 
1 -103 0 -69 0 200 1 0 0 118 1 0 0 -44 0 77 
1 53 0 -10 0 2 1 0 0 -225 1 0 0 -253 0 86 
1 -75 0 418 1 0 0 132 0 -89 1 -444 0 -1 1 -55 
0 196 0 -196 1 -31 1 0 1 0 1 148 0 -58 0 181 
1 0 0 -321 1 0 0 531 0 -146 1 -106 0 193 0 -71 
1 0 0 40 1 -433 0 457 1 -231 0 -14 1 -139 1 32 
0 -39 1 184 0 -99 0 22 1 0 0 105 0 -162 1 0 
0 94 0 -36 1 -15 1907 1630 100 MP stroke
0 76 1 0 0 -152 0 62 1 152 0 -152 1 0 0 -94 
0 6 1 -20 0 23 1 0 0 95 0 -44 1 98 0 120 
1 -35 0 44 0 -128 1 0 0 118 1 -5 0 10 0 -58 
1 -80 1 0 0 40 0 -144 1 0 0 106 0 -106 1 0 
0 186 1 0 0 -186 0 218 1 -131 1 -87 1 0 1 310 
0 -89 1 54 0 -333 1 177 1 0 0 18 0 -18 1 0 
0 -137 1 0 0 92 0 -2 1 69 0 -114 1 200 0 45 
0 -56 1 120 0 -326 1 0 0 313 1 0 0 -348 1 0 
0 216 1 0 0 -27 1 59 0 25 0 -78 1 0 0 78 
1 0 1 0 0 24 1 -37 0 -41 1 0 0 43 0 -319 
1 0 0 135 1 397 0 -81 0 60 1 -397 0 -299 0 91 
1 140 0 126 0 -10 1 9 0 -42 1 -226 0 221 0 -324 
1 65 0 475 1 -38 1863 1478 100 MP stroke
0 110 0 -210 0 23 1 -88 0 19 0 -137 1 104 0 -131 
0 57 1 -31 0 -246 1 0 0 565 1 0 0 -263 1 0 
0 -20 1 1 0 38 1 -3 0 -110 0 315 1 0 0 15 
0 -264 1 0 0 391 1 0 0 -276 1 21 0 10 1 -10 
1 -94 0 16 1 -13 0 67 1 -209 0 -8 0 84 1 0 
0 292 1 7 0 -249 1 174 0 -263 1 -16 0 47 0 -48 
1 376 0 -257 1 0 0 153 1 -91 0 -105 1 -50 0 364 
1 0 0 -404 1 113 0 -10 1 93 0 -105 0 251 1 0 
0 -155 1 0 0 138 1 0 0 -104 1 0 1 0 0 90 
1 0 0 -2 1 -136 0 27 1 0 0 -232 0 168 1 39 
0 -104 0 165 1 0 0 206 1 9 0 -427 0 324 1 -113 
1 0 0 161 1 -80 0 189 1 -363 0 211 1 -271 0 24 
1 223 0 -216 1 15 1818 1697 100 MP stroke
0 188 1 -74 0 -122 1 168 0 -152 1 -73 0 176 0 -179 
1 0 0 239 0 -186 1 0 0 233 1 0 0 -98 1 0 
0 -135 1 0 0 51 1 0 0 -74 1 0 0 80 1 -1 
0 4 1 0 0 27 0 -225 1 0 0 233 1 -139 0 -221 
0 203 1 -114 0 401 1 -41 0 187 0 -74 1 0 0 -214 
0 70 1 0 0 -70 1 -83 0 -7 0 58 1 -138 0 87 
1 0 1 0 0 249 1 0 0 -272 0 128 1 0 0 -241 
0 363 1 0 0 171 0 -122 1 -279 0 47 1 0 0 205 
1 -86 0 -153 1 -33 0 -106 0 148 1 63 0 34 0 -50 
1 55 0 68 0 -23 1 -332 0 -19 0 497 1 -28 0 -204 
1 0 0 -54 1 157 1 25 0 -185 0 54 1 -151 1 199 
0 -112 1 -63 0 -56 1 57 0 116 0 -118 1 41 0 -74 
0 239 1 0 0 -63 1776 1620 100 MP stroke
1 -22 0 -173 1 0 0 280 1 0 0 -47 1 0 0 -203 
0 147 1 190 0 67 1 -67 0 111 1 0 0 -204 1 211 
0 55 0 -183 1 0 0 -121 0 274 1 -45 0 179 0 -169 
1 0 0 -212 1 0 0 55 1 0 0 -140 0 66 1 250 
0 121 0 -455 1 119 0 -131 0 44 1 0 0 -80 0 80 
1 59 0 -209 0 243 1 0 0 -110 0 115 1 0 0 185 
1 0 0 -92 1 -110 0 64 1 -105 0 174 1 -118 0 62 
0 -89 1 0 0 -213 1 0 0 134 1 0 0 56 0 -63 
1 0 0 66 1 0 0 -17 1 69 0 -276 0 244 1 -189 
0 243 0 -33 1 0 0 -81 1 0 0 -88 1 75 0 -107 
0 194 1 253 0 -203 0 119 1 -207 0 216 1 0 0 43 
0 -429 1 39 0 56 1 0 0 10 1 0 0 -196 1 219 
0 -97 1 250 0 17 1735 1450 100 MP stroke
0 -67 1 15 0 -374 1 0 0 136 1 358 0 -195 1 66 
0 99 0 -68 1 64 0 -106 0 35 1 -96 0 179 1 -118 
0 -217 1 0 0 168 1 -33 0 -20 0 186 1 0 0 -27 
0 117 1 0 0 -684 0 350 1 100 0 -490 1 634 0 -284 
1 0 0 330 0 -372 1 0 0 29 1 -51 0 338 0 -338 
1 0 0 152 0 -159 1 0 0 145 1 0 0 158 0 -238 
1 90 0 31 1 90 0 -8 1 0 0 9 0 -308 1 357 
1 -213 0 -33 0 60 1 0 0 -14 1 0 0 -104 0 39 
1 24 0 60 0 -125 1 0 0 315 0 -113 1 0 0 -51 
1 0 0 110 0 -6 1 0 0 -216 0 43 1 114 0 -170 
0 355 1 0 0 -54 1 -192 0 -85 0 184 1 0 0 -147 
0 210 1 -482 0 -9 0 373 1 0 0 120 0 -105 1 -65 
0 70 1 277 0 -244 1696 1541 100 MP stroke
0 67 1 124 0 4 1 -111 0 55 1 210 0 -472 1 108 
0 -252 0 16 1 0 0 170 0 -24 1 5 0 -151 0 205 
1 21 0 -97 1 0 0 136 0 -23 1 -78 0 -139 1 0 
0 -91 0 440 1 0 1 210 0 -380 0 13 1 0 0 -26 
1 0 0 300 0 -185 1 -115 1 0 1 268 0 60 1 0 
0 -381 1 0 0 107 0 -99 1 0 0 -182 0 372 1 0 
0 -189 1 180 0 2 1 -2 1 -258 0 207 1 -66 1 69 
0 -101 0 90 1 -22 0 134 1 0 0 -248 1 -38 0 -207 
0 339 1 0 0 -133 1 0 0 130 0 -80 1 115 1 -113 
0 194 0 -56 1 -34 0 -68 1 52 0 -18 0 104 1 0 
0 -226 1 136 0 2 0 -82 1 -67 0 300 1 0 0 -275 
0 66 1 97 0 -134 1 34 0 -352 0 165 1 0 0 -106 
1 223 0 12 1 80 1652 1600 100 MP stroke
0 -324 0 84 1 0 0 65 0 -154 0 60 1 0 0 129 
1 0 0 178 1 -217 0 130 1 0 0 -55 0 92 1 0 
0 -125 1 0 0 218 0 -93 1 -173 0 -42 1 247 0 -247 
0 214 1 0 0 -85 0 39 1 -15 0 -55 0 419 1 54 
0 -319 1 -34 0 51 0 -170 1 -183 0 81 1 153 1 103 
0 241 1 -216 0 15 0 -166 1 317 0 -259 1 -44 0 328 
1 0 0 48 0 -333 1 0 0 186 1 -63 0 -123 1 171 
0 58 1 0 0 -166 1 -1 0 278 0 -335 1 0 0 -75 
1 426 0 -143 1 0 0 -211 1 154 0 -65 1 0 0 59 
0 -162 0 117 1 0 0 -277 1 240 0 46 0 -30 1 0 
0 -243 0 414 1 -106 0 -168 0 57 1 187 0 26 0 -95 
1 69 0 42 0 -244 1 -167 0 37 0 -150 1 433 0 -264 
1 52 0 -45 0 176 1613 1548 100 MP stroke
1 0 0 14 0 -178 0 152 1 -33 0 83 0 -12 1 0 
0 4 1 0 0 -406 0 319 1 -181 0 -167 0 5 1 318 
0 79 1 0 1 -143 1 0 1 0 0 218 0 -255 1 0 
0 162 0 -51 1 0 0 -249 0 633 1 -45 0 -325 1 -18 
0 159 0 -292 0 98 1 194 0 -14 1 -75 0 5 0 -65 
1 0 0 -84 1 0 0 213 0 -214 1 85 0 126 1 0 
0 18 0 -335 1 0 1 55 0 -141 0 235 1 -25 0 51 
0 -72 1 0 0 24 1 0 1 53 0 66 0 -90 1 0 
0 -6 1 -84 0 184 0 -113 1 0 0 86 1 -156 1 0 
1 170 0 93 1 0 0 149 0 -80 1 -131 0 58 1 0 
0 -379 0 95 1 125 0 173 0 -274 1 -99 0 -9 0 45 
1 115 0 147 1 0 0 -63 1 136 0 -43 1 -53 0 -158 
0 122 1 -72 0 -49 1571 1720 100 MP stroke
0 112 1 0 0 110 1 0 0 30 0 -209 1 23 0 139 
1 48 0 -48 1 0 0 -136 1 0 0 211 1 0 0 114 
0 -4 1 0 0 -446 1 -4 0 67 0 -85 1 -75 0 119 
0 -61 1 0 0 267 1 100 0 -193 1 0 0 35 0 -93 
1 85 0 8 1 74 0 18 1 69 0 -184 0 184 1 0 
0 -367 0 314 1 76 0 -451 1 0 0 269 1 0 0 -62 
0 26 1 0 0 -150 1 26 0 -63 1 249 0 -56 1 0 
0 -36 0 150 1 0 0 133 1 0 0 -220 1 24 0 -161 
1 108 0 -317 1 466 1 0 1 38 0 -38 1 0 0 109 
1 0 0 85 0 -375 1 1 0 -21 0 143 1 0 0 -255 
1 245 0 10 0 -164 0 10 1 -1 0 225 0 -46 1 0 
0 -22 1 0 0 -137 0 58 1 168 0 -91 1 46 0 -152 
1 -78 0 241 1 -67 1528 1555 100 MP stroke
0 -31 1 -138 0 157 1 0 0 79 0 -21 1 -184 0 -143 
0 95 1 0 0 148 1 0 0 -148 1 0 0 -69 1 69 
0 160 0 -34 1 4 0 -207 1 172 0 -43 0 139 1 0 
0 -7 1 -160 0 -49 1 -104 0 495 1 0 0 -215 1 -13 
0 134 0 -223 1 0 0 127 1 0 0 4 1 0 0 130 
0 -39 1 -179 1 48 0 53 1 -213 0 187 1 -164 0 167 
0 -57 1 -71 0 -39 0 83 1 -170 0 45 1 0 0 55 
0 -123 1 523 0 -416 1 0 0 -182 1 428 0 -124 0 42 
1 0 0 -55 1 0 0 -106 0 78 1 15 0 -142 1 93 
0 -117 1 0 0 153 0 -41 1 100 0 -97 1 0 0 191 
1 -36 0 -218 1 0 0 176 1 0 0 27 1 -196 0 3 
1 96 0 49 0 -145 1 0 0 -10 0 92 1 0 0 -57 
1 0 0 -113 1 0 1485 1837 100 MP stroke
0 -9 0 9 1 384 0 -411 0 81 1 201 1 0 0 -209 
1 0 0 262 1 0 0 -211 0 362 1 0 0 -380 1 -22 
0 126 0 -124 1 -40 1 48 0 -91 1 0 0 123 1 0 
0 47 1 0 0 -47 1 0 0 55 1 82 0 98 0 -545 
1 0 0 479 1 275 0 -567 1 130 0 -46 1 0 0 30 
1 0 0 263 1 -124 0 143 0 -192 0 117 1 0 0 -207 
0 202 1 -193 0 198 1 -138 0 -31 0 207 1 -260 0 -71 
0 111 1 18 0 -222 0 698 1 -69 0 -253 1 -127 0 -200 
0 109 1 47 0 -64 1 295 1 0 1 -99 1 209 0 -248 
1 -119 0 238 0 -214 1 -156 0 184 1 0 0 108 0 -57 
1 -8 0 80 0 -226 1 0 0 144 0 -338 1 0 0 268 
1 0 0 341 0 -157 1 50 0 -425 1 0 1 309 0 14 
0 -143 1 -40 0 4 1442 1771 100 MP stroke
0 -60 1 302 1 -4 0 -134 1 0 0 256 1 -256 0 -14 
0 111 1 8 0 -357 1 418 0 -237 1 0 1 0 0 104 
1 -164 0 103 1 -71 0 -219 0 202 1 153 0 -67 1 206 
0 -219 0 182 1 -266 0 50 0 -50 1 185 0 -230 0 124 
1 0 0 -94 1 0 0 382 0 -83 1 -47 0 -60 1 209 
0 14 1 -99 0 -185 1 -30 0 -17 0 184 1 -11 1 0 
0 -66 0 190 1 0 0 -8 1 0 0 -195 1 -9 0 72 
0 -10 1 -81 0 61 0 -94 1 106 0 105 1 0 0 -89 
1 282 0 -474 0 120 1 0 0 143 1 98 0 -98 1 0 
1 0 0 -208 1 0 1 208 0 -105 1 0 1 0 0 -156 
1 0 0 120 0 -10 1 0 0 -88 0 66 1 0 0 129 
0 -153 1 -42 0 71 1 0 0 200 0 -268 1 31 0 86 
0 -60 1 131 0 -19 1398 1566 100 MP stroke
1 -88 0 220 1 0 0 -166 1 89 0 73 1 0 0 -413 
1 0 0 121 0 -34 1 118 0 93 0 -114 1 -70 0 108 
0 -161 0 113 1 48 0 -174 1 0 0 -48 1 169 0 47 
0 -134 1 0 0 259 0 -119 1 -214 0 189 1 0 0 -79 
1 0 0 389 1 0 0 -255 1 -6 0 -58 0 154 1 0 
0 26 1 -230 0 48 1 -86 0 58 1 0 0 345 0 -155 
1 0 0 119 0 -461 1 0 0 606 0 -257 1 39 0 55 
0 -151 1 20 0 -74 0 295 1 0 0 -229 1 0 0 -31 
1 45 0 -147 1 0 0 66 1 0 0 79 1 -144 0 -35 
1 28 0 129 0 -146 1 152 0 113 1 0 0 -562 1 345 
0 -173 0 157 1 31 0 -66 1 72 0 -134 0 16 1 0 
0 -61 0 82 1 0 0 -39 1 4 0 18 0 -146 0 64 
1 12 0 -199 0 251 1358 1760 100 MP stroke
1 0 0 44 0 -2 1 147 0 -56 1 -141 0 187 1 -50 
0 -433 0 68 1 686 0 12 0 -40 1 40 0 -298 1 0 
0 206 1 0 1 -127 0 -177 1 54 0 250 1 39 0 -209 
0 25 1 0 0 -35 1 0 0 -19 1 -92 0 16 0 -2 
1 0 0 49 0 -59 1 0 0 -179 1 212 0 -196 1 -4 
0 321 1 -9 0 16 0 -271 0 147 1 80 0 -94 1 0 
0 126 1 -191 0 -30 1 0 0 219 0 -107 1 -142 0 110 
0 -106 1 0 0 555 0 -561 0 332 1 0 0 -319 0 258 
1 5 0 -18 0 153 1 0 0 -247 1 0 0 -187 0 105 
1 0 0 59 1 183 0 -23 1 -8 0 15 0 -156 0 91 
1 6 0 30 1 0 0 -237 1 102 0 -127 0 44 1 -89 
0 89 1 0 0 173 1 -217 0 126 0 -190 1 162 0 472 
1 -409 0 178 0 -234 1318 1659 100 MP stroke
0 201 1 -47 0 -165 1 0 0 195 0 -183 1 67 0 -218 
1 0 0 268 0 -72 1 0 0 -74 1 43 0 72 0 -135 
1 135 0 289 1 0 0 -230 0 171 1 0 0 33 0 -61 
1 -372 0 -94 1 -9 1 0 0 408 1 -148 0 -94 0 341 
1 -80 0 -30 1 0 0 -181 0 87 1 -23 0 57 1 -61 
0 89 1 0 1 -151 0 -68 1 0 0 259 1 -186 0 116 
1 14 0 -79 0 325 1 0 0 -328 1 -36 0 438 1 0 
0 -302 1 0 0 4 0 -99 1 153 0 7 1 0 0 240 
1 -533 1 0 0 -109 0 275 1 215 0 -353 0 367 1 0 
0 -357 1 0 0 -81 1 16 0 262 1 -27 0 -180 1 -31 
0 127 0 -38 1 38 0 22 0 -194 1 0 0 240 0 -474 
1 12 0 320 0 -50 1 0 0 283 0 -177 1 0 0 -129 
0 306 1 -327 1 69 1275 1681 100 MP stroke
0 -120 0 190 1 -14 0 181 1 0 0 -130 0 293 1 -144 
1 -19 0 26 1 -203 0 292 1 -38 0 71 1 -109 0 20 
0 -191 1 86 0 -173 1 0 0 -36 0 329 1 0 0 -167 
0 118 1 0 0 -82 0 223 1 0 0 -5 0 153 1 -97 
0 -186 0 50 1 -98 0 -377 1 0 0 623 1 0 1 -331 
0 -355 0 197 1 -10 0 232 0 -101 1 0 0 86 0 -217 
0 130 1 -130 0 -365 0 63 1 0 0 179 0 -104 1 -107 
0 319 1 -41 0 -133 0 387 1 33 0 95 1 0 0 16 
0 -47 1 -64 0 -90 0 14 1 0 0 -70 1 -66 0 167 
1 -16 0 -49 1 10 1 0 0 -107 1 0 0 83 1 0 
0 330 1 -231 0 -237 1 111 0 126 1 31 0 -133 1 62 
0 -246 1 0 0 101 1 0 0 -150 0 122 1 0 0 -73 
0 94 1 0 0 159 1234 1541 100 MP stroke
1 0 0 -253 1 0 0 340 1 -224 0 115 0 -229 1 -36 
1 -42 0 154 1 134 0 -294 1 162 0 401 0 -99 1 80 
0 -345 1 138 0 164 1 -1 0 -419 1 4 0 73 1 79 
0 28 1 275 0 -7 1 -310 0 117 0 -286 0 165 1 0 
0 -13 1 75 0 71 0 -96 1 -194 0 23 1 206 0 -79 
0 23 1 -81 0 207 1 0 0 -136 0 201 1 0 0 138 
1 0 0 -340 1 90 1 0 0 -48 1 0 0 -36 0 117 
1 0 0 -173 1 0 1 -71 0 71 1 0 0 178 0 -171 
1 106 0 103 0 -450 1 0 0 234 1 -102 0 102 1 -35 
0 74 1 0 0 -65 1 -11 0 -19 0 54 1 0 1 0 
0 134 1 -94 0 5 0 -43 1 0 0 168 0 -261 0 43 
1 0 0 92 1 0 0 -92 1 104 0 91 0 -169 1 0 
0 5 1 139 0 -90 1190 1672 100 MP stroke
1 -22 0 109 0 -103 1 270 0 -163 0 43 1 -52 0 -385 
1 367 1 -203 0 263 0 -230 1 -33 0 553 1 -115 0 -147 
1 -126 0 -52 1 -95 0 -70 0 274 1 -17 0 220 0 -137 
1 150 0 -108 0 79 1 0 0 -106 1 110 0 -24 1 -70 
0 249 0 -171 1 88 0 -213 0 86 1 0 0 -233 1 182 
0 -29 1 -33 0 -158 1 0 0 255 1 0 0 -38 1 0 
0 185 0 -50 1 88 0 -237 1 -125 0 144 0 1 1 -39 
0 68 0 -20 1 -141 0 260 1 -232 0 -178 0 244 1 22 
0 -124 0 136 1 -87 0 -74 0 220 1 0 1 20 0 -62 
1 -268 0 -146 0 221 1 -146 0 395 0 -192 1 113 0 511 
0 -552 1 108 0 -530 0 357 1 0 0 155 1 20 0 -171 
0 100 1 0 0 -53 1 -128 0 375 1 91 0 -255 1 -139 
0 164 1 48 0 -124 1149 1534 100 MP stroke
0 79 1 -5 0 -259 1 0 0 99 1 0 0 18 1 -155 
0 353 0 -405 0 156 1 0 0 85 1 1 0 -207 0 482 
1 -95 0 191 1 0 0 -581 1 -19 0 584 1 0 0 -38 
0 38 1 0 0 -663 0 7 1 0 0 129 1 4 0 189 
1 -144 0 -109 1 -126 0 305 1 0 0 -190 1 -159 0 512 
0 -21 1 17 0 150 0 -24 1 -59 1 0 0 -354 1 0 
0 464 1 0 0 -203 1 0 1 203 0 -77 1 77 0 -183 
1 -149 0 273 1 -155 0 -234 0 149 1 -33 0 -120 1 0 
0 -29 0 254 1 -196 0 161 0 -219 1 -131 0 131 1 12 
0 -52 0 154 1 -10 0 -74 1 -30 0 239 0 -350 1 223 
0 239 0 -272 1 225 0 -457 0 331 1 0 1 18 1 32 
0 -69 0 45 1 0 0 -103 1 0 0 103 0 -89 1 221 
0 2 1 9 0 -9 1106 1427 100 MP stroke
0 67 1 0 0 -200 1 84 0 116 1 0 0 -180 1 0 
0 -291 1 179 0 52 0 -49 1 -58 0 57 1 0 0 -115 
1 0 0 109 1 0 0 -66 0 88 1 0 0 411 1 0 
0 -294 0 49 1 -91 0 -105 0 196 1 -140 0 -214 0 90 
1 0 1 0 0 109 1 -43 0 191 0 -147 1 204 0 -174 
1 0 0 -178 1 0 0 84 0 -19 1 72 1 -155 0 48 
1 -79 0 298 1 -118 0 -76 0 14 1 88 0 -6 1 52 
0 -187 1 0 0 -128 0 239 1 0 0 -46 1 110 1 136 
0 -262 1 0 0 28 0 -302 1 0 0 602 1 -26 0 14 
0 -194 1 -135 0 -55 1 0 0 23 1 7 0 276 0 -144 
1 0 0 102 1 136 1 -256 1 -18 0 -3 0 128 1 0 
0 -10 1 0 0 19 1 0 1 0 1 110 0 53 1 -122 
0 -364 1 0 0 68 1060 1768 100 MP stroke
1 138 0 -120 0 158 1 0 0 -168 0 90 1 70 0 -273 
0 196 1 0 0 125 0 -216 1 214 0 -121 1 -2 0 -74 
0 66 1 92 0 29 1 81 0 -202 0 245 1 0 0 -234 
1 -16 0 182 1 0 0 -204 1 0 0 95 0 -104 1 0 
0 4 0 -7 1 0 0 -108 1 91 0 156 1 0 0 123 
0 -189 1 165 0 114 0 -153 1 -104 0 117 1 -329 0 236 
1 283 0 -152 1 0 0 257 1 0 0 -79 1 -295 0 -100 
0 189 1 -106 0 -154 0 99 1 0 0 -30 0 43 1 12 
0 -17 1 0 0 -37 0 157 1 30 0 -58 0 179 1 -163 
0 -292 1 311 0 -227 0 230 1 252 0 -298 1 148 0 -201 
1 0 0 147 0 -216 1 117 0 -17 1 -109 0 135 1 -68 
0 -89 1 0 0 -66 0 189 1 -143 0 -46 0 183 1 0 
0 -132 0 71 1 148 1020 1520 100 MP stroke
0 -212 0 157 1 52 0 -11 1 0 0 -90 0 148 1 -113 
0 93 0 -93 1 0 0 -132 1 -41 0 116 0 -137 1 0 
0 115 1 0 0 -156 1 410 0 -317 1 332 0 -183 0 97 
1 0 0 -166 1 0 0 -200 0 165 1 19 0 -35 1 0 
0 -101 1 241 0 -16 0 206 1 -247 0 139 1 58 0 -311 
1 -95 0 -138 0 22 1 0 0 277 1 0 0 -20 1 0 
0 198 1 -467 0 502 0 -102 1 -334 0 292 0 -194 1 0 
0 129 1 0 0 142 0 -60 1 0 0 71 0 -128 1 -109 
0 -119 0 55 1 0 0 156 1 -92 0 212 0 -38 1 31 
0 59 0 -84 1 86 1 -77 0 96 0 -192 1 0 0 110 
1 -14 1 57 0 -136 1 4 0 173 0 -98 1 -160 0 -121 
0 129 1 0 0 4 1 1 0 125 1 0 0 -104 0 241 
1 0 0 -96 1 0 979 1539 100 MP stroke
0 -54 1 -88 0 359 0 -339 1 0 0 38 0 -134 1 36 
0 94 0 -108 1 8 0 396 1 -137 0 -166 1 -32 0 174 
0 -391 0 10 1 0 0 334 1 51 0 61 0 -75 1 0 
0 146 0 -216 0 35 1 0 0 41 1 -46 0 72 0 -109 
1 28 0 6 1 0 0 61 1 -183 0 100 1 -39 0 -317 
1 0 0 323 0 -97 1 0 0 -8 0 173 1 -86 0 -129 
0 202 1 -197 0 -5 1 11 0 33 0 -33 1 0 0 353 
1 -145 0 -154 1 -29 0 212 1 -226 -1 0 2 -163 0 427 
0 -86 1 0 0 146 0 -67 1 -19 0 -216 0 42 1 0 
0 279 1 -86 0 -115 1 -314 0 156 1 102 0 -166 0 197 
1 192 1 -314 0 206 0 -111 1 92 0 174 1 0 0 -28 
0 109 1 -145 0 -171 0 144 1 88 0 10 0 -346 0 83 
1 64 0 231 1 -248 940 1578 100 MP stroke
0 248 0 -261 0 27 1 0 0 -61 0 61 1 0 0 -127 
1 9 0 -153 1 0 0 145 0 -99 1 0 0 104 1 0 
0 212 1 -100 0 -258 1 0 0 -159 0 237 1 0 0 248 
0 -6 1 0 0 52 0 -329 1 0 0 288 1 0 0 -285 
1 0 0 133 0 -14 1 0 0 88 0 -26 1 0 0 26 
0 -207 1 41 0 25 1 -2 0 42 0 -95 1 88 0 -137 
0 188 1 0 0 59 1 0 0 95 0 -154 0 46 1 0 
0 52 0 -101 1 200 0 -21 1 -176 0 9 0 -1 1 34 
0 -292 0 100 1 0 0 203 1 -113 0 -130 1 -73 0 256 
1 -222 0 130 1 0 0 525 0 -264 1 0 0 -312 0 531 
1 -46 0 -280 1 0 0 -331 0 341 1 0 0 115 1 0 
0 -348 0 57 1 93 0 -82 1 0 0 388 1 -234 0 41 
0 -288 0 24 1 276 902 1528 100 MP stroke
0 -254 1 177 0 -208 1 0 0 -28 0 28 1 0 0 -26 
0 56 899 1783 10 MP stroke
gr

1484  286 mt 
(\(a\) ) s
%%IncludeResource: font Symbol
/Symbol /ISOLatin1Encoding 120 FMSR

1664  286 mt 
(u) s
1 sg
0 1769 1419 0 0 -1769 2839 2158 4 MP
PP
-1419 0 0 1769 1419 0 0 -1769 2839 2158 5 MP stroke
4 w
DO
SO
6 w
0 sg
2839 2158 mt 4258 2158 L
2839  389 mt 4258  389 L
2839 2158 mt 2839  389 L
4258 2158 mt 4258  389 L
2839 2158 mt 4258 2158 L
2839 2158 mt 2839  389 L
2839 2158 mt 2839 2140 L
2839  389 mt 2839  406 L
%%IncludeResource: font Helvetica
/Helvetica /ISOLatin1Encoding 120 FMSR

2806 2303 mt 
(0) s
3312 2158 mt 3312 2140 L
3312  389 mt 3312  406 L
3179 2303 mt 
(2000) s
3785 2158 mt 3785 2140 L
3785  389 mt 3785  406 L
3652 2303 mt 
(4000) s
4258 2158 mt 4258 2140 L
4258  389 mt 4258  406 L
4125 2303 mt 
(6000) s
2839 2158 mt 2856 2158 L
4258 2158 mt 4240 2158 L
2571 2202 mt 
(0.09) s
2839 1905 mt 2856 1905 L
4258 1905 mt 4240 1905 L
2504 1949 mt 
(0.095) s
2839 1652 mt 2856 1652 L
4258 1652 mt 4240 1652 L
2638 1696 mt 
(0.1) s
2839 1399 mt 2856 1399 L
4258 1399 mt 4240 1399 L
2504 1443 mt 
(0.105) s
2839 1147 mt 2856 1147 L
4258 1147 mt 4240 1147 L
2571 1191 mt 
(0.11) s
2839  894 mt 2856  894 L
4258  894 mt 4240  894 L
2504  938 mt 
(0.115) s
2839  641 mt 2856  641 L
4258  641 mt 4240  641 L
2571  685 mt 
(0.12) s
2839  389 mt 2856  389 L
4258  389 mt 4240  389 L
2504  433 mt 
(0.125) s
2839 2158 mt 4258 2158 L
2839  389 mt 4258  389 L
2839 2158 mt 2839  389 L
4258 2158 mt 4258  389 L
gs 2839 389 1420 1770 MR c np
0 26 1 -93 0 343 0 -66 1 -168 0 285 0 -148 1 0 
0 -235 1 0 0 261 0 -134 1 -12 0 122 1 0 0 1 
0 -106 1 9 0 -395 1 204 0 -317 1 174 0 45 1 -333 
0 546 0 -161 1 119 0 -35 1 35 1 0 0 130 1 -73 
0 119 0 -187 1 0 0 201 0 -96 1 -140 0 -118 0 13 
1 -126 0 70 1 87 1 309 0 179 0 -133 1 101 0 -12 
1 0 0 25 1 0 0 -662 1 150 0 363 0 -365 0 314 
1 0 0 -359 0 359 1 72 0 -305 1 0 0 307 0 -100 
1 100 0 -204 1 0 0 238 1 -95 0 59 1 -266 0 26 
0 -282 0 105 1 0 0 250 1 -135 1 0 0 435 1 63 
0 -523 1 0 0 99 0 -47 1 -46 0 89 1 8 0 -17 
1 34 1 373 0 -285 1 107 0 -62 0 190 1 -275 1 0 
0 4 0 -75 1 106 3978 1211 100 MP stroke
0 -495 1 0 0 -327 1 909 0 -13 0 62 1 15 0 -136 
0 421 1 -267 0 28 1 73 0 -71 1 0 0 -101 1 -184 
0 -162 1 0 0 -121 1 0 0 113 1 0 0 -83 0 102 
1 33 0 -503 1 289 0 381 0 -151 1 -53 0 253 1 0 
0 -25 1 -111 0 -280 1 0 0 358 1 -358 0 250 1 4 
0 -280 0 137 1 302 0 398 1 -80 0 -167 0 5 1 0 
0 -208 1 -184 0 -420 0 588 1 0 0 97 0 -254 1 0 
0 -174 0 188 1 50 0 52 1 37 0 -387 1 0 0 478 
0 -11 1 28 0 -220 0 347 1 236 0 -206 1 -420 0 71 
1 88 0 -88 0 49 1 212 0 -366 0 80 1 -349 0 524 
1 -148 0 46 1 81 0 35 0 -289 1 0 0 160 0 -131 
1 215 0 59 1 -50 0 -408 1 0 0 -104 0 549 1 -6 
0 -185 2 128 0 -286 3936 1542 100 MP stroke
1 71 0 179 1 0 0 37 1 -45 0 250 1 -60 1 0 
0 -10 0 182 1 -332 0 -114 1 0 0 276 0 -360 1 0 
0 210 0 -32 1 434 0 -323 1 87 0 -318 0 318 1 -273 
0 450 1 207 0 -1066 0 192 1 96 0 -96 1 202 0 -279 
0 120 1 410 0 138 0 -7 1 -563 0 589 1 -342 0 -85 
1 70 0 91 0 -425 0 83 1 -42 0 319 1 0 0 -112 
1 0 0 -124 0 223 1 12 0 -56 0 44 1 0 0 -14 
0 110 1 -52 0 202 0 -258 0 58 1 -263 0 263 1 0 
0 103 0 -286 1 0 0 473 0 -394 1 0 0 277 1 0 
1 0 0 -24 1 16 0 125 1 0 0 -326 1 0 0 478 
0 -450 1 0 0 327 1 -327 0 -48 1 48 0 -394 1 0 
0 -118 1 606 0 -98 0 108 1 159 0 -416 0 56 1 0 
0 47 0 -224 1 110 3895 1442 100 MP stroke
0 108 1 0 0 136 1 90 0 -83 1 0 0 -115 1 -32 
0 151 1 -356 0 217 1 0 1 0 0 -120 1 195 0 -111 
1 -81 0 376 0 -372 1 237 0 114 0 -264 0 238 1 -238 
0 233 0 -354 1 0 0 130 0 -34 1 36 0 -55 1 0 
0 167 1 0 0 -84 1 0 0 -64 1 0 0 97 1 0 
0 -97 1 -96 0 66 1 0 0 47 1 0 0 -51 1 0 
0 196 1 -24 0 -554 1 146 0 25 1 -154 0 -133 0 69 
1 12 1 251 0 421 1 -99 0 83 0 -596 1 0 0 -159 
0 67 1 0 0 896 0 -210 1 0 0 10 0 -168 1 168 
0 47 1 0 1 0 1 0 0 -298 1 97 0 -124 0 508 
1 0 0 -897 1 297 0 80 0 -240 1 308 1 -58 0 534 
0 -437 1 -257 0 185 1 26 0 200 1 0 0 -41 0 239 
1 0 0 -360 0 186 3851 1169 100 MP stroke
1 0 0 -108 1 160 0 -62 1 -7 0 59 0 -148 1 14 
0 232 1 -151 0 -284 0 85 1 137 0 130 1 0 0 51 
1 2 0 -220 1 111 0 -291 1 -55 0 15 0 -112 1 281 
0 -197 1 0 0 302 0 -77 1 0 0 27 1 0 0 160 
1 0 0 -180 1 158 0 22 0 -204 1 -75 0 279 0 -3 
1 -196 0 -43 0 105 1 0 0 137 1 0 1 0 0 -539 
0 121 1 0 0 -45 1 0 0 589 0 -328 1 0 0 14 
1 -14 1 148 0 -106 1 0 0 -136 0 38 1 147 0 -226 
0 104 1 97 0 -217 1 506 0 -121 1 -468 0 416 1 0 
0 -2 1 -297 0 14 1 0 0 -79 0 103 1 0 1 0 
0 -103 1 0 1 66 0 43 1 86 0 -65 1 0 0 368 
1 -89 0 -865 0 373 1 0 0 675 1 -67 0 -128 1 -206 
0 -58 0 26 1 25 3806 1315 100 MP stroke
0 416 0 -306 1 391 0 -631 1 -163 0 159 0 -279 1 252 
0 210 0 -52 1 94 0 158 0 -210 0 135 1 -30 0 290 
1 367 0 -891 1 11 0 41 1 0 0 414 1 0 0 -109 
1 0 0 -50 0 61 1 -280 0 -181 0 203 1 404 1 -218 
0 -348 0 367 1 0 0 -206 1 86 0 -86 1 0 0 131 
1 0 0 75 0 -163 1 0 0 288 1 -201 0 -310 1 0 
0 217 1 158 0 -222 0 303 1 0 0 -105 1 50 0 -445 
0 305 1 -6 0 -196 1 0 0 221 1 104 0 87 0 -492 
1 0 0 271 1 205 0 -66 0 21 1 0 0 -140 0 132 
1 -292 0 105 1 0 0 -212 1 0 0 230 1 0 1 0 
1 36 0 -122 1 0 0 281 0 -156 1 0 0 231 1 0 
0 -235 0 73 1 0 0 -237 1 -235 0 610 1 -446 0 50 
1 0 1 0 0 9 3763 1384 100 MP stroke
0 -271 0 7 1 0 0 370 0 -155 1 0 0 352 1 -52 
0 -270 1 277 0 -92 1 -217 0 275 1 0 0 -296 1 234 
0 299 0 -148 1 -109 0 209 0 -339 1 0 0 226 1 -376 
0 213 1 0 0 163 1 0 1 0 0 -79 0 66 1 13 
0 -54 1 -94 1 8 0 47 1 0 0 256 1 0 0 -351 
0 631 1 -201 0 -1 1 -638 0 139 1 -51 0 301 1 -224 
0 -38 0 92 1 0 0 178 0 -39 1 -28 0 165 0 -98 
1 0 1 0 1 -309 0 346 0 -291 1 0 0 352 1 -459 
0 -212 1 178 0 343 1 0 0 -319 1 0 0 439 1 0 
0 164 1 -314 0 -93 1 31 0 28 0 -200 0 31 1 -4 
0 509 0 -622 1 0 0 -186 0 294 1 0 0 32 1 250 
0 -250 1 0 0 -104 0 297 1 -130 0 263 1 0 0 -308 
0 98 1 0 0 60 3720 1170 100 MP stroke
1 77 0 -275 0 202 1 0 0 -120 0 71 1 -144 0 98 
1 0 0 12 1 0 0 155 0 -133 1 -226 0 158 1 0 
0 188 1 35 0 -297 1 0 0 -217 0 217 1 -129 0 331 
1 0 0 -522 0 232 1 0 0 160 0 -160 1 114 0 -474 
1 -217 0 690 1 0 0 6 1 0 0 178 1 0 0 -576 
0 183 1 -310 0 794 0 -63 1 -96 0 116 1 -116 0 -84 
0 292 1 -218 0 47 1 57 0 -240 0 86 1 -17 0 -318 
0 156 1 0 0 169 0 -6 1 0 0 -32 1 -116 0 157 
0 -137 1 91 0 260 1 0 0 -215 1 0 0 -143 1 77 
1 0 0 -154 1 136 0 -164 0 486 1 -326 0 211 0 -296 
1 42 0 115 1 0 0 63 1 0 0 171 1 -366 0 -188 
0 231 1 -98 0 162 1 -209 0 -148 1 357 0 243 0 -112 
1 0 1 -100 0 300 3678 1006 100 MP stroke
1 0 0 -224 1 -59 0 229 0 -461 0 34 1 -51 0 624 
1 90 0 -189 1 0 0 -664 0 102 1 113 0 -48 1 -111 
0 387 0 -256 1 10 0 153 0 -272 1 0 0 188 1 0 
0 374 1 -247 0 -140 0 98 1 -264 0 -6 1 -225 0 1185 
1 -1076 0 586 0 -149 1 366 0 278 0 -900 1 301 0 146 
0 -522 0 181 1 300 0 -49 1 11 0 143 1 -476 0 476 
0 -109 1 -129 0 192 1 -305 0 -50 1 0 0 280 0 -203 
1 0 0 34 0 -75 1 36 0 7 1 314 0 -235 1 0 
0 390 1 -194 1 -178 0 199 1 -18 0 -190 0 300 1 0 
0 -514 1 174 0 -71 1 -31 0 43 0 -87 1 0 0 327 
1 -27 0 24 1 4 0 -463 0 122 1 0 0 228 1 22 
0 -87 1 51 0 -285 0 771 1 -454 1 -265 0 285 1 0 
0 -559 1 386 0 -228 3636 1588 100 MP stroke
0 71 1 0 0 30 1 -1 0 -525 0 278 1 228 0 512 
1 -216 0 -129 1 -32 0 103 1 58 0 -205 1 203 0 44 
0 -139 1 0 0 -7 0 359 1 -193 0 105 1 -426 1 0 
0 -469 0 774 1 -87 1 0 0 82 1 -454 0 454 1 0 
1 0 0 -432 1 0 0 -13 1 40 0 358 0 -78 1 0 
0 409 1 -437 0 -104 0 236 1 0 0 -330 1 0 0 -64 
0 64 1 0 0 416 1 0 0 -309 0 166 1 0 0 -162 
1 215 0 -247 0 76 1 -111 0 -12 0 337 1 0 0 33 
1 176 0 -211 1 0 0 153 0 -326 1 0 0 137 0 -116 
1 0 0 90 0 -184 1 0 0 -36 0 88 1 0 0 24 
1 -26 0 -128 0 123 1 171 0 -299 1 0 0 537 0 -45 
1 0 0 -411 0 203 1 70 0 -374 1 222 0 -26 0 164 
1 383 0 -349 1 0 3594 1109 100 MP stroke
0 138 0 -284 1 0 0 -164 1 511 0 -179 0 76 1 31 
0 -47 0 135 1 0 0 -125 1 0 0 -294 1 69 0 37 
1 -143 0 47 1 287 0 -261 1 26 0 169 1 76 0 -337 
1 337 0 -252 1 76 0 48 0 -118 0 91 1 -372 0 -187 
1 0 0 392 0 -43 1 80 0 346 1 -100 0 -215 1 0 
0 -254 1 3 0 380 1 -107 0 9 0 -309 1 84 0 204 
0 -385 1 0 0 -98 1 505 1 -24 0 -206 0 165 1 173 
0 -387 0 60 1 0 0 41 1 446 0 -364 1 -222 0 306 
1 1 0 101 0 -500 1 0 0 235 1 0 0 191 0 -191 
1 0 0 105 0 -149 1 223 0 -89 0 411 1 0 0 -446 
1 15 1 315 0 -659 0 508 1 5 0 -280 1 -16 0 -92 
1 0 0 509 1 -102 0 182 0 -388 0 30 1 10 0 73 
0 -15 1 0 0 -167 3553 1418 100 MP stroke
1 93 0 189 0 -289 0 5 1 -179 0 116 1 0 0 635 
1 -236 0 -173 0 225 1 219 0 42 0 -715 1 0 1 0 
0 342 1 0 1 0 0 -425 1 370 0 86 0 -280 1 4 
0 -16 0 427 1 -185 0 -500 0 20 1 335 0 -10 0 208 
1 -270 0 210 0 -210 1 -63 0 83 1 -14 0 150 0 -44 
1 148 0 -148 1 -198 0 398 0 -200 1 0 0 -87 0 97 
1 -130 0 485 1 0 0 -110 0 191 1 0 0 -426 1 10 
0 247 1 0 1 0 0 -238 1 6 0 230 1 0 0 -409 
1 70 0 203 0 -88 1 0 0 110 1 0 1 0 0 -235 
1 -3 1 -381 0 298 1 -73 0 536 1 37 0 -265 1 -232 
0 407 0 -1 1 5 0 -350 1 0 1 45 0 -222 0 294 
1 0 0 -42 0 111 1 0 0 -250 0 155 1 0 0 -163 
1 0 0 31 0 -24 3510 1429 100 MP stroke
1 278 0 -235 1 0 0 -140 1 140 1 206 1 0 0 -336 
1 -172 0 36 0 -133 0 18 1 841 0 35 0 -112 1 -96 
0 201 0 -84 1 51 0 -95 1 18 0 -603 0 480 1 0 
0 -89 1 50 0 -61 1 0 0 11 0 -44 1 0 0 -140 
1 0 0 483 1 -8 0 -449 0 312 1 -402 0 479 1 0 
0 -282 0 156 1 -110 1 231 0 -73 0 10 1 0 0 -294 
1 0 0 93 1 0 0 89 0 -356 1 52 0 -137 1 179 
0 -10 1 0 0 359 0 -87 1 0 0 425 0 -646 1 0 
1 0 0 -83 0 83 1 0 0 29 1 -45 0 25 1 -265 
0 528 0 -44 1 0 0 -209 1 208 0 153 0 -361 1 73 
0 -24 0 98 1 -131 0 -77 0 14 1 200 0 65 1 0 
0 -175 0 174 1 0 0 -166 1 62 0 245 1 0 0 -324 
0 116 1 54 0 -173 3468 1340 100 MP stroke
1 64 0 -206 1 0 0 259 1 258 0 -45 1 0 0 -170 
1 170 0 103 1 56 0 -407 1 248 0 -239 1 0 0 211 
0 -201 1 -263 1 -20 0 458 1 77 0 -302 0 115 1 0 
0 -362 1 193 0 136 1 -208 0 224 0 -198 1 -1 1 -11 
0 -49 1 -55 0 230 1 0 0 -60 1 29 0 -106 0 446 
1 -141 0 -228 0 228 1 -148 0 153 0 -5 1 0 0 -112 
0 190 1 0 0 -265 1 0 0 219 0 -515 1 24 0 534 
1 181 0 -638 0 118 1 -5 1 118 1 151 0 -83 1 115 
0 -165 0 187 1 87 0 -153 1 3 0 -120 0 86 1 0 
0 107 1 -132 0 -131 1 0 0 126 1 0 0 -257 1 72 
0 294 1 0 0 -125 1 -97 0 296 1 -89 0 -91 0 58 
1 0 0 97 1 -12 0 35 1 0 0 187 0 -621 0 365 
1 0 0 -210 1 0 3423 1278 100 MP stroke
0 324 1 0 0 55 1 0 0 -295 0 174 1 96 0 -722 
0 511 1 0 0 68 0 -225 1 254 0 -49 1 0 0 -39 
1 289 1 -196 0 -74 1 0 0 -57 0 57 1 0 1 -10 
0 -381 1 573 0 196 0 -332 1 0 0 -666 1 0 0 683 
0 -73 1 0 0 -6 0 77 1 0 0 -333 1 0 0 235 
1 73 0 -372 0 116 1 281 0 -334 0 273 1 -253 0 150 
1 -213 0 -48 0 522 1 -62 0 217 0 -391 1 0 0 278 
0 -847 0 13 1 118 0 284 1 417 0 -216 0 68 1 0 
0 23 0 -301 1 0 1 0 0 30 1 0 0 -350 1 350 
0 244 1 -251 0 463 1 -168 0 -92 1 -85 0 149 0 -147 
1 269 0 -240 1 0 0 476 1 -162 0 -234 1 -569 0 397 
1 484 1 0 0 -412 1 0 0 206 1 0 0 119 0 -606 
1 0 0 -11 1 255 3380 1233 100 MP stroke
0 -323 1 0 0 323 1 0 0 53 0 -337 1 231 0 217 
0 -296 1 150 0 108 1 0 1 0 0 -186 0 250 1 0 
0 -143 0 475 1 -231 0 -258 1 84 0 -367 1 344 0 -264 
0 373 1 -80 0 80 0 -238 1 113 0 351 0 -362 0 209 
1 0 0 -598 1 0 0 268 1 52 0 -307 1 0 0 198 
1 0 0 274 0 -238 1 197 0 -251 0 68 1 0 1 189 
0 -360 1 -61 0 281 1 -6 0 79 0 -104 1 0 0 174 
1 -121 0 143 0 -163 1 -67 0 -65 1 0 0 96 0 -381 
1 504 0 -102 1 -89 0 -65 1 0 0 65 1 0 1 0 
0 263 1 0 0 -263 1 168 1 0 0 229 1 0 0 -179 
1 -97 0 -31 1 0 0 150 0 -216 1 -94 0 319 0 -101 
1 0 0 -284 1 82 0 330 0 -61 1 -61 0 117 0 -191 
1 46 0 156 1 -421 3337 1486 100 MP stroke
0 -55 0 273 1 -37 0 -64 1 0 0 -121 1 573 0 115 
1 -234 0 -181 1 -50 0 262 0 -25 1 -166 0 91 0 -91 
1 211 1 111 0 -408 0 88 1 0 0 124 0 -213 1 -226 
0 666 1 0 0 -344 1 150 0 -468 1 0 0 -87 0 21 
1 0 0 379 0 -1 1 -37 0 -131 1 0 0 -94 0 290 
1 0 0 -54 0 132 1 0 0 -504 1 -84 0 300 1 -235 
0 553 1 -818 0 578 0 -89 1 -42 0 367 1 -126 0 -423 
1 271 1 23 0 -59 0 202 1 0 0 -83 1 0 1 0 
0 -51 0 200 1 0 0 -104 0 96 1 -255 0 163 0 -55 
1 -105 0 -63 1 0 0 780 0 -509 1 0 0 282 0 -396 
1 0 0 123 0 -69 1 193 0 -54 1 -89 0 92 0 -91 
1 0 0 160 1 226 0 -256 0 183 1 200 0 -353 1 -50 
0 19 0 -179 1 0 3296 1218 100 MP stroke
0 183 1 0 0 -164 0 18 1 537 0 -981 0 72 1 -140 
0 23 0 -23 1 166 0 142 0 -5 1 0 0 -162 1 0 
0 220 1 0 0 184 0 -404 1 0 0 63 1 -63 0 168 
0 -42 1 64 1 -2 0 243 0 -128 1 -15 1 0 0 213 
1 29 0 191 0 -272 1 266 0 -119 1 -484 0 134 1 105 
0 242 0 -242 1 0 0 111 1 -245 0 348 1 -56 1 -347 
0 370 1 0 0 204 1 -201 0 -715 0 307 1 368 0 -384 
0 10 1 100 0 -254 1 0 0 285 1 0 0 394 0 -90 
1 -38 0 -443 1 0 0 181 1 147 0 -107 1 0 0 65 
1 0 0 197 0 -187 1 54 0 174 0 -230 0 178 1 -178 
0 126 0 -126 1 0 0 -70 0 300 1 -238 0 194 0 -305 
1 -401 0 -194 0 500 1 211 0 -366 0 76 1 0 0 390 
1 -359 0 269 0 -138 3256 1314 100 MP stroke
1 67 0 223 0 -258 1 0 0 153 1 0 0 25 0 -6 
1 0 0 125 0 -197 1 -289 0 -312 1 534 0 -353 1 -92 
0 523 1 0 0 198 0 -78 1 0 1 -496 0 301 1 -9 
0 -528 0 178 1 0 0 145 1 175 0 -122 0 16 1 0 
0 -91 0 81 1 0 0 -139 1 0 0 214 1 81 0 4 
1 0 0 -179 0 146 1 0 0 -249 0 132 1 67 0 -370 
1 575 0 20 1 -754 0 -99 1 491 0 3 1 0 0 95 
0 -201 1 0 0 -2 1 -165 0 -173 0 769 1 0 1 0 
0 219 0 -819 1 514 0 -434 1 0 0 471 1 0 0 124 
1 -191 0 -143 1 1 0 372 1 -230 0 54 0 -54 1 0 
0 -127 0 274 1 -249 0 729 1 -443 0 -165 0 97 1 -321 
0 182 1 189 0 -371 0 365 1 0 0 -126 1 238 0 -283 
0 155 1 -163 0 -122 3214 1392 100 MP stroke
1 202 0 -525 0 261 1 0 0 50 1 21 0 -5 0 95 
1 0 0 -350 1 0 0 227 1 -78 0 112 0 -24 1 0 
0 345 1 67 0 -622 1 309 0 -358 1 179 0 -385 1 -66 
0 -155 0 265 1 173 0 172 1 0 0 511 1 0 0 -783 
1 0 0 320 1 505 0 -193 1 0 0 -334 0 159 1 175 
0 -302 0 302 1 594 0 -99 1 -28 0 -306 0 386 1 0 
0 -484 0 53 1 102 0 -469 1 0 0 -116 1 -11 0 127 
1 28 0 100 1 0 0 154 1 0 0 -184 1 -70 0 67 
1 0 1 161 1 0 0 -102 1 0 0 -342 0 193 1 71 
0 192 0 -84 1 -108 0 -66 0 22 1 68 0 -24 1 -76 
0 415 1 0 0 -65 1 144 0 -137 1 58 0 -155 1 0 
0 -225 1 208 0 172 1 -465 0 -130 0 373 1 -106 0 383 
1 0 0 120 1 -235 3169 1018 100 MP stroke
0 -165 1 0 0 226 0 -193 1 0 0 -449 1 0 0 580 
0 -248 1 0 0 -331 1 569 0 -43 1 0 0 -222 1 -17 
0 -284 1 0 0 -10 0 385 1 -71 0 366 0 -148 1 -157 
0 -141 1 -32 0 368 1 0 0 66 0 -337 1 0 0 185 
0 -17 1 -227 1 55 0 58 0 -258 1 -179 1 149 0 342 
0 -144 1 0 1 0 0 164 1 0 0 127 0 -214 1 186 
1 0 0 147 1 0 0 -147 1 -367 0 410 0 -279 1 -31 
0 600 1 -333 0 121 1 0 0 -121 0 32 1 0 0 -184 
1 0 0 168 0 -45 1 0 0 149 0 -211 1 0 1 0 
0 -33 1 76 0 82 0 -172 1 -161 0 443 0 -51 1 0 
0 -176 1 0 0 176 0 -299 1 -97 0 315 1 -53 0 -160 
1 0 0 192 0 -16 1 0 0 26 0 -504 1 371 0 -159 
0 213 1 329 0 123 3127 705 100 MP stroke
0 -650 1 0 0 416 1 0 0 80 0 -425 0 345 1 -403 
0 -496 1 189 0 613 1 -226 0 93 1 77 0 -364 0 70 
1 0 0 -312 0 262 1 -160 0 143 0 -211 1 0 0 370 
0 -277 1 0 0 110 1 3 0 -444 0 260 1 216 0 143 
0 -131 1 0 0 385 0 -320 1 -119 0 16 1 0 0 406 
0 -70 1 0 0 -424 1 0 0 253 1 0 0 -370 1 128 
0 353 1 0 0 -283 1 0 0 145 0 -154 0 75 1 -281 
0 -14 0 370 1 0 0 242 0 -334 0 1 1 330 0 -245 
0 108 1 0 0 53 0 -274 1 0 0 -19 1 -29 0 433 
1 144 0 -113 0 11 1 -157 0 -152 1 -87 0 64 0 -785 
0 704 1 308 0 333 0 -530 1 -197 0 161 0 -247 1 267 
0 -98 1 0 0 240 1 -150 0 115 0 -593 1 258 0 294 
1 -198 0 -129 1 178 3089 1411 100 MP stroke
0 -187 1 59 0 339 1 149 0 -164 1 0 0 -9 0 159 
1 -455 0 567 0 -144 1 0 0 -235 0 57 1 0 0 263 
0 -567 0 130 1 -283 0 -48 1 0 0 845 1 -60 0 -620 
1 0 0 -33 0 33 1 701 0 -43 1 -191 0 -16 1 -80 
0 -85 1 264 0 277 1 -166 0 -251 1 0 0 418 1 -78 
0 -481 0 75 1 -37 0 -262 0 151 1 0 1 0 0 355 
1 0 0 -540 1 0 0 179 1 0 0 -179 1 0 0 73 
0 -73 1 -36 0 360 1 0 0 -594 1 200 0 653 0 -201 
1 0 0 142 1 45 0 -238 0 327 1 -467 0 433 1 274 
0 -274 1 -263 0 -62 0 206 1 0 0 121 0 -2 1 -429 
0 533 1 -386 0 -224 0 273 1 -202 0 586 0 -477 1 0 
0 7 1 0 0 -67 1 135 0 -65 1 0 0 137 1 -137 
0 179 0 -305 1 0 3047 1422 100 MP stroke
0 -94 1 0 0 86 0 -166 1 0 0 266 1 -168 0 -154 
0 56 1 0 0 233 1 0 0 390 1 -162 0 -3 1 130 
0 -127 1 0 0 155 1 0 0 -138 1 0 0 45 0 -109 
1 0 0 -620 1 0 0 356 0 -84 1 217 0 -207 0 204 
1 0 0 346 0 -103 1 0 1 0 0 -160 0 113 1 -312 
0 137 0 -359 1 0 0 397 1 0 0 204 1 0 0 -178 
1 0 0 303 1 0 0 -114 0 34 1 -34 0 -191 1 -95 
0 49 1 3 0 102 0 -85 1 0 0 101 1 387 0 -464 
1 0 0 -90 1 -124 0 -156 1 581 0 -61 1 -58 0 390 
1 0 0 -820 1 -9 0 -34 0 452 1 0 0 168 1 0 
0 24 0 -41 0 24 1 -569 0 381 0 -10 1 0 0 -304 
1 -149 0 370 1 0 0 62 1 -77 0 -134 1 0 0 25 
1 0 0 36 1 0 3004 1358 100 MP stroke
1 0 1 -194 0 44 1 -13 0 481 1 0 0 -187 1 44 
0 40 0 -202 1 121 0 -172 1 235 0 253 0 -331 1 0 
0 62 0 -304 1 113 0 231 0 -102 1 242 0 -139 1 -124 
0 -95 1 -63 0 282 0 -175 1 73 0 262 0 -66 1 0 
0 -254 0 31 1 0 0 161 1 0 0 -59 0 188 1 0 
0 -43 1 141 0 -326 1 0 0 -71 1 0 0 -128 0 156 
1 -105 0 -214 0 252 1 -85 0 409 1 -207 0 -111 1 -419 
0 335 1 0 0 -361 0 77 1 0 0 -60 0 379 1 43 
0 59 0 -238 1 179 0 265 0 -178 1 0 0 165 0 -198 
0 43 1 -47 0 55 1 0 0 -143 1 -105 0 86 0 -198 
1 270 0 581 0 -28 1 -620 0 254 0 -530 1 289 0 72 
0 -248 1 248 0 165 1 0 0 -322 0 344 1 -179 0 -7 
0 142 1 0 0 133 2965 1004 100 MP stroke
0 -250 1 0 0 123 1 0 0 83 0 -125 1 136 0 -192 
1 0 0 158 0 -237 1 278 0 62 0 -215 1 -129 0 -3 
1 0 0 83 0 -217 1 186 0 -184 0 184 1 52 0 264 
1 -264 0 116 1 0 0 -132 1 0 0 435 1 -685 0 367 
0 -366 1 0 0 121 0 -166 1 0 0 415 1 0 0 302 
0 -358 1 -96 0 145 1 -47 0 166 1 -363 0 201 0 -397 
1 282 0 -362 1 59 0 538 1 262 0 -2 1 0 0 -472 
1 0 0 105 1 0 0 -330 1 712 0 -818 0 658 1 0 
0 -408 0 314 1 0 0 -117 0 16 1 0 0 -217 1 0 
0 -57 0 225 1 192 0 -192 0 121 1 0 0 -147 1 -106 
0 -235 1 6 0 -84 0 246 1 -190 0 142 1 2 0 146 
1 0 0 -148 0 45 1 -45 1 -21 0 199 0 -89 1 -168 
0 -37 0 116 1 88 2924 1324 100 MP stroke
0 431 0 -220 1 0 0 -97 1 0 0 -24 1 -118 0 273 
0 -414 1 0 0 185 1 0 0 -44 1 257 0 -635 0 495 
1 0 0 102 0 -235 0 187 1 0 0 79 0 -190 0 170 
1 40 0 -617 1 176 0 358 1 32 0 171 0 -399 0 387 
1 -445 0 143 0 -148 1 -51 0 -63 0 24 1 0 0 -228 
0 341 1 0 0 55 0 -6 1 -138 0 235 1 -71 0 -23 
1 0 0 10 1 366 0 -128 1 82 0 391 1 -481 0 108 
0 -164 1 0 0 1 0 -162 1 83 0 244 0 -282 1 158 
0 98 1 0 0 60 0 -134 0 74 1 0 0 -606 1 115 
0 383 1 90 0 -354 0 399 1 0 0 -34 1 172 0 -500 
0 167 1 0 0 -163 0 92 1 -22 0 215 0 -123 1 0 
0 -393 0 114 1 0 0 122 1 479 0 -166 1 -261 0 361 
0 -274 1 -223 0 464 2887 971 100 MP stroke
1 -304 0 -68 0 254 1 -153 0 -170 1 0 0 -266 1 186 
0 148 0 -212 1 -120 0 476 0 -501 0 388 1 -157 0 -207 
1 266 0 238 0 -504 0 435 1 0 0 131 0 -131 1 0 
0 156 1 0 0 170 1 0 0 -158 0 94 1 0 0 -126 
1 0 0 -358 1 0 0 493 1 0 0 220 0 -452 1 0 
0 -172 1 0 0 -135 0 458 1 0 0 -389 1 0 0 412 
1 0 0 -366 0 133 1 0 0 -38 0 73 1 0 0 198 
0 -271 0 173 1 0 0 -115 1 73 0 49 1 49 0 131 
0 -268 1 0 0 -85 1 0 0 85 0 -136 0 111 1 0 
0 174 1 -405 0 11 1 245 0 129 1 -124 0 351 0 -177 
1 0 0 -206 1 174 0 156 1 164 0 -570 1 407 0 -217 
1 -510 0 316 0 -523 0 408 1 0 0 360 0 -680 1 15 
0 385 1 0 0 445 2848 905 100 MP stroke
0 -366 1 0 0 -338 1 0 0 523 0 -50 1 -152 0 -32 
0 336 1 0 0 -621 1 329 0 -148 0 334 1 -338 0 322 
1 -183 0 296 1 0 0 -68 0 68 1 0 0 26 0 -177 
2839 1144 25 MP stroke
gr

3395  240 mt 
(\(b\) ) s
%%IncludeResource: font Symbol
/Symbol /ISOLatin1Encoding 120 FMSR

3575  240 mt 
(a) s
%%IncludeResource: font Helvetica
/Helvetica /ISOLatin1Encoding 96 FMSR

3650  300 mt 
(1) s
1 sg
0 1769 1419 0 0 -1769 4780 2158 4 MP
PP
-1419 0 0 1769 1419 0 0 -1769 4780 2158 5 MP stroke
4 w
DO
SO
6 w
0 sg
4780 2158 mt 6199 2158 L
4780  389 mt 6199  389 L
4780 2158 mt 4780  389 L
6199 2158 mt 6199  389 L
4780 2158 mt 6199 2158 L
4780 2158 mt 4780  389 L
4780 2158 mt 4780 2140 L
4780  389 mt 4780  406 L
%%IncludeResource: font Helvetica
/Helvetica /ISOLatin1Encoding 120 FMSR

4747 2303 mt 
(0) s
5253 2158 mt 5253 2140 L
5253  389 mt 5253  406 L
5120 2303 mt 
(2000) s
5726 2158 mt 5726 2140 L
5726  389 mt 5726  406 L
5593 2303 mt 
(4000) s
6199 2158 mt 6199 2140 L
6199  389 mt 6199  406 L
6066 2303 mt 
(6000) s
4780 2158 mt 4797 2158 L
6199 2158 mt 6181 2158 L
4512 2202 mt 
(0.27) s
4780 1905 mt 4797 1905 L
6199 1905 mt 6181 1905 L
4512 1949 mt 
(0.28) s
4780 1652 mt 4797 1652 L
6199 1652 mt 6181 1652 L
4512 1696 mt 
(0.29) s
4780 1399 mt 4797 1399 L
6199 1399 mt 6181 1399 L
4579 1443 mt 
(0.3) s
4780 1147 mt 4797 1147 L
6199 1147 mt 6181 1147 L
4512 1191 mt 
(0.31) s
4780  894 mt 4797  894 L
6199  894 mt 6181  894 L
4512  938 mt 
(0.32) s
4780  641 mt 4797  641 L
6199  641 mt 6181  641 L
4512  685 mt 
(0.33) s
4780  389 mt 4797  389 L
6199  389 mt 6181  389 L
4512  433 mt 
(0.34) s
4780 2158 mt 6199 2158 L
4780  389 mt 6199  389 L
4780 2158 mt 4780  389 L
6199 2158 mt 6199  389 L
gs 4780 389 1420 1770 MR c np
0 123 1 -66 0 155 0 -9 1 -173 0 219 0 -143 1 0 
0 -95 1 0 0 93 0 -89 1 63 0 135 1 0 0 -133 
1 7 0 -340 1 164 0 -321 1 180 0 29 1 -269 0 503 
0 -126 1 113 0 -30 1 30 1 0 0 129 1 -54 0 66 
1 -226 0 159 0 -107 1 -45 0 -182 0 45 1 -54 0 41 
1 99 1 195 0 217 0 -143 1 38 0 -33 1 0 0 39 
1 -1 0 -405 1 58 0 209 0 -326 0 301 1 0 0 -183 
0 183 1 129 0 -251 1 0 0 243 0 -3 1 3 0 8 
0 -233 1 0 0 208 1 -11 0 36 1 -289 0 28 0 -168 
0 45 1 0 0 265 1 -190 1 0 0 333 1 70 0 -403 
0 107 1 0 0 -66 1 -78 0 112 1 82 0 -101 1 71 
1 322 0 -332 1 137 0 17 1 -195 1 0 0 47 0 -95 
1 115 0 -334 1 0 5918 1491 100 MP stroke
0 -300 1 827 0 31 0 -127 1 -41 0 -74 0 429 1 -137 
0 -8 1 74 0 -186 1 0 0 28 0 -63 1 -106 0 -290 
1 0 0 44 0 -64 1 0 0 139 1 0 0 39 0 -76 
0 64 1 -57 0 12 0 -314 1 324 0 275 0 -96 1 -69 
0 211 1 0 0 4 1 -241 0 -182 1 0 0 346 1 -346 
0 295 1 25 0 -400 0 69 1 164 0 481 1 13 0 -131 
0 36 1 0 0 -188 1 -207 0 -455 0 469 1 0 0 130 
0 -254 1 0 0 -173 0 326 1 -137 0 54 1 98 0 -275 
1 0 0 415 1 11 0 -143 0 265 1 149 0 -94 1 -399 
0 107 1 86 0 -109 1 184 0 -193 0 86 1 -268 0 255 
1 -101 0 44 1 -3 0 -83 1 0 0 61 0 -233 1 171 
0 153 1 -31 0 -341 1 0 0 -101 0 523 1 -128 0 -124 
1 0 0 102 1 -13 5877 1233 100 MP stroke
0 -188 1 -6 0 310 1 0 0 -38 1 -3 0 201 1 -39 
1 0 0 153 1 -309 0 -59 1 0 0 190 0 -331 1 0 
0 286 0 -161 1 346 0 -242 1 139 0 -152 0 152 1 -138 
0 -42 0 240 1 126 0 -792 0 133 1 140 0 -140 1 199 
0 -251 0 65 1 343 0 90 0 -21 1 -413 0 584 1 -299 
0 3 1 -72 0 107 0 -381 0 96 1 11 0 261 1 0 
0 -42 1 0 0 -167 0 212 1 -17 0 -122 0 139 1 0 
0 -116 0 100 1 78 0 154 0 -269 0 86 1 -277 0 277 
1 0 0 90 0 -348 1 0 0 425 0 -317 1 0 0 242 
1 0 1 0 0 -92 1 102 0 109 1 0 0 -289 1 0 
0 419 0 -420 1 0 0 247 1 -247 0 -105 1 105 0 -284 
1 0 0 -48 1 430 0 -20 0 53 1 140 0 -450 0 104 
1 0 0 -229 1 140 5836 1342 100 MP stroke
0 54 1 0 0 176 1 60 0 -97 1 0 0 -130 1 112 
0 143 1 -305 0 -33 0 156 1 0 1 0 0 -19 1 105 
0 10 1 -58 0 257 0 -259 1 198 0 -202 0 201 1 -201 
0 162 0 -330 1 0 0 96 1 104 0 -131 1 0 0 66 
1 0 0 47 1 0 0 -86 1 0 0 135 1 0 0 -135 
1 -50 0 40 1 0 0 64 1 0 0 -65 1 0 0 178 
1 -52 0 -389 1 61 0 -63 1 -114 0 -80 0 108 1 -21 
1 114 0 413 1 -82 0 108 0 -472 1 0 0 -251 0 115 
1 0 0 700 0 -76 1 0 0 11 0 -127 0 15 1 112 
0 60 1 0 1 0 1 0 0 -214 1 88 0 -170 0 348 
1 0 0 -691 1 336 0 73 0 -328 1 172 1 13 0 430 
0 -384 1 -211 0 300 1 56 0 154 1 0 0 -35 0 178 
1 0 0 -456 0 205 5792 1125 100 MP stroke
1 0 0 -35 1 133 0 -65 1 22 0 30 0 -88 1 -153 
0 232 1 -89 0 -261 0 95 1 142 0 82 1 0 0 58 
1 -11 0 -232 1 127 0 -169 1 -24 0 89 0 -123 1 272 
0 -201 1 0 0 -14 0 84 1 0 0 52 1 0 0 -14 
0 151 1 0 0 -123 1 144 0 -169 1 -13 0 256 1 -184 
0 -130 0 120 1 0 0 99 1 0 1 0 0 -364 0 86 
1 0 0 -21 1 0 0 321 0 -233 1 0 0 79 1 -79 
1 243 0 -89 1 0 0 -120 0 56 1 130 0 -368 1 190 
0 -258 1 445 0 -36 1 -231 0 246 1 0 0 25 1 -328 
0 109 1 0 0 -162 0 144 1 0 1 0 0 -144 1 0 
1 138 0 -48 1 68 0 -62 1 0 0 365 1 -147 0 -578 
0 97 1 0 0 751 1 -155 0 -108 1 -195 0 -2 0 59 
1 93 0 270 0 -369 5747 1217 100 MP stroke
1 446 0 -544 1 -98 0 174 0 -270 1 187 0 127 0 -56 
1 155 0 99 0 -229 0 117 1 -31 0 439 1 271 0 -982 
1 131 0 33 1 0 0 295 1 0 0 -16 1 0 0 -60 
0 1 1 -227 0 -97 0 107 1 300 1 -133 0 -228 0 272 
1 0 0 -112 1 25 0 -25 1 0 0 -23 1 0 0 203 
0 -212 0 88 1 0 0 222 1 -165 0 -281 1 0 0 -75 
0 213 1 77 0 -86 0 150 1 0 0 -11 0 5 1 77 
0 -547 0 343 1 42 0 -132 1 0 0 110 1 156 0 62 
0 -467 1 0 0 262 1 227 0 -148 1 0 0 -82 0 114 
1 -238 0 191 1 0 0 -184 1 0 0 125 1 0 1 0 
1 42 0 -84 1 0 0 161 0 -187 1 0 0 363 1 0 
0 -186 0 89 1 0 0 -297 1 -274 0 595 1 -465 0 179 
1 0 1 0 0 -271 5704 1465 100 MP stroke
1 0 0 413 0 -215 1 0 0 228 1 18 0 -260 1 241 
0 -19 1 -180 0 281 1 0 0 -342 1 253 0 114 0 -117 
1 -110 0 166 0 -248 1 0 0 201 1 -262 0 98 1 0 
0 164 1 0 1 0 0 51 1 -51 0 -49 0 2 1 30 
1 -99 0 36 1 0 0 263 1 0 0 -392 0 604 1 -142 
0 -3 1 -500 0 109 0 -212 0 192 1 -18 0 -95 0 259 
1 -168 0 -14 0 80 1 0 0 117 0 -21 1 -15 0 174 
0 -138 1 0 1 0 1 -281 0 305 0 -184 1 0 0 403 
1 -484 0 -179 1 154 0 273 1 0 0 -193 1 0 0 325 
1 0 0 48 0 -89 1 -106 0 -137 1 5 0 -124 0 99 
1 -39 0 320 0 -396 1 0 0 -194 0 284 1 0 0 108 
1 85 0 -231 1 0 0 -10 0 230 1 -151 0 292 1 0 
0 -201 0 87 1 0 5661 1022 100 MP stroke
0 32 1 16 0 -222 0 239 1 0 0 -126 0 22 1 -118 
0 86 1 0 0 -16 1 0 0 166 0 -117 1 -251 0 124 
1 0 0 179 1 -42 0 -230 1 0 0 -93 0 93 1 -119 
0 186 1 0 0 -233 0 213 1 0 0 12 0 -12 1 62 
0 -496 1 -145 0 503 1 0 0 131 1 0 1 1 0 -405 
0 156 1 -250 0 729 1 -74 0 132 1 -132 0 -126 0 244 
1 -187 0 -1 1 70 0 -116 1 -62 0 -233 0 158 1 0 
0 152 0 -269 0 95 1 0 0 131 1 -119 0 65 0 -79 
0 45 1 43 0 255 1 0 0 -128 1 0 0 -116 1 106 
1 0 0 -175 1 41 0 -104 0 490 1 -441 0 240 0 -185 
1 17 0 111 1 0 0 28 1 0 0 29 0 -13 1 -279 
0 -60 0 227 1 -137 0 18 1 -189 0 -67 1 256 0 283 
0 -49 1 0 1 -60 5619 1112 100 MP stroke
0 235 1 0 0 -267 1 26 0 201 0 -484 0 59 1 -38 
0 497 1 159 0 -203 1 0 0 -496 0 83 1 104 0 -27 
1 -187 0 226 0 -249 0 185 1 -9 0 109 0 -253 1 0 
0 162 1 0 0 349 1 -253 0 28 0 -32 1 -280 0 100 
1 -174 0 985 1 -1053 0 660 0 -158 1 352 0 188 0 -829 
1 284 0 162 0 -425 0 219 1 238 0 -7 1 -110 0 -100 
0 141 1 -369 0 369 0 -103 1 -85 0 215 1 -179 0 -154 
1 0 0 252 0 -181 1 0 0 -4 0 14 1 -12 0 -43 
1 229 0 -220 1 0 0 402 1 -100 1 -135 0 182 1 -6 
0 58 0 -236 0 204 1 0 0 -383 1 132 0 -23 1 14 
0 8 0 -256 1 0 0 307 1 -28 0 124 1 47 0 -444 
0 57 1 0 0 262 1 58 0 -118 0 31 1 3 0 -177 
0 561 1 -387 1 -169 5579 1277 100 MP stroke
0 131 1 0 0 -378 1 281 0 -157 0 84 1 0 0 101 
0 -28 1 0 0 -546 0 212 1 233 0 400 1 -110 0 -104 
1 -43 0 84 1 63 0 -297 1 218 0 20 0 -95 1 0 
0 -26 0 252 1 11 0 -50 0 111 1 -501 1 0 0 -139 
0 545 1 -56 1 0 0 28 1 -453 0 453 1 0 1 0 
0 -317 1 0 0 -57 1 31 0 255 0 -23 1 0 0 206 
1 -367 0 -56 0 217 1 0 0 -197 1 0 0 22 0 -22 
1 0 0 296 1 0 0 -206 0 116 1 0 0 -175 1 233 
0 -147 1 -117 0 -21 0 183 1 0 0 81 1 301 0 -333 
0 99 1 0 0 154 0 -433 1 0 0 123 0 -79 1 0 
0 80 0 -35 1 0 0 -54 0 87 1 0 0 46 1 -21 
0 -261 0 170 1 79 0 -172 1 0 0 374 0 -30 1 0 
0 -353 0 242 1 24 5538 1090 100 MP stroke
0 -255 1 66 0 188 1 324 0 -306 1 0 0 127 0 -171 
1 0 0 -151 1 431 0 -185 0 119 1 3 0 -23 0 100 
1 0 0 -148 1 0 0 -284 1 65 0 59 1 -88 0 132 
1 135 0 -208 1 59 0 68 1 79 0 -288 1 288 0 -198 
1 68 0 -88 0 245 1 -394 0 -204 1 0 0 348 1 -72 
0 355 1 -109 0 -56 1 0 0 -241 1 -154 0 280 1 -140 
0 162 0 -274 1 89 0 175 0 -304 1 0 0 -99 1 407 
1 64 0 -151 0 19 1 177 0 -283 0 6 1 1 0 46 
1 238 0 -248 1 -92 0 162 1 0 0 125 0 -462 1 0 
0 250 1 0 0 143 0 -143 1 0 0 101 0 -81 1 164 
0 -121 0 392 1 0 0 -398 1 35 1 240 0 -549 0 490 
1 -13 0 -246 1 -58 0 75 0 -81 1 0 0 421 1 -27 
0 107 0 -425 0 55 5496 1225 100 MP stroke
1 59 0 126 0 -34 1 0 0 -235 0 136 1 78 0 15 
0 -229 0 52 1 -142 0 98 1 0 0 439 1 -234 0 -146 
0 184 1 229 0 -484 1 0 1 0 0 242 1 0 1 0 
0 -287 1 310 0 110 0 -227 1 -48 0 348 1 -163 0 -458 
1 205 0 293 1 -244 0 121 0 -121 1 -35 0 87 1 -14 
0 136 0 -30 1 114 0 -114 1 -212 0 339 0 -127 1 0 
0 -161 0 128 1 -105 0 311 1 0 0 -72 0 195 1 0 
0 -375 1 -27 0 201 1 0 1 0 0 -187 1 8 0 193 
1 0 0 6 0 -311 1 67 0 164 0 -8 1 0 0 -11 
1 0 1 0 0 -188 1 15 1 -274 0 260 1 -107 0 396 
1 2 0 -226 1 -175 0 506 1 -81 0 -269 1 0 1 41 
0 -140 0 179 1 0 0 -1 0 1 1 119 0 -258 0 92 
1 0 0 11 0 -72 5452 1241 100 MP stroke
1 0 0 72 0 -127 1 278 0 -240 1 0 0 -99 1 99 
1 261 1 0 0 -332 1 -195 0 32 0 -77 0 3 1 748 
0 4 0 -17 1 -85 0 85 0 -172 1 186 0 -67 1 -42 
0 -475 0 358 1 0 0 -132 1 55 0 -73 1 0 0 18 
0 -70 1 0 0 -49 0 27 1 0 0 399 1 -27 0 -415 
0 357 1 -413 0 506 1 0 0 -396 0 208 1 -87 1 292 
0 -8 1 0 0 -361 1 0 0 135 1 0 0 28 0 -257 
0 13 1 63 0 -154 1 151 0 12 1 0 0 207 0 -35 
1 0 0 185 0 -372 1 0 1 0 0 -121 0 121 1 0 
0 64 1 -99 0 72 1 -245 0 364 1 -1 0 -195 1 218 
0 117 0 -335 1 173 0 -30 1 -88 0 28 0 -48 1 113 
0 114 1 0 0 -142 0 79 1 0 0 -80 1 18 0 194 
1 0 0 -305 0 127 5410 1123 100 MP stroke
1 9 0 -148 1 111 0 -172 1 0 0 196 1 194 0 -15 
1 0 0 -131 1 131 0 66 1 31 0 -356 1 259 0 -185 
1 0 0 242 0 -200 1 -211 1 24 0 397 1 -40 0 40 
0 -307 0 185 1 0 0 -452 1 217 0 78 1 -92 0 147 
0 -157 1 55 1 -73 0 11 1 -59 0 135 1 0 0 -67 
1 31 0 -26 0 335 1 -28 0 -271 0 271 1 -202 0 202 
1 0 0 -136 0 209 1 0 0 -261 1 0 0 211 0 -563 
1 -13 0 528 1 247 0 -564 0 112 1 -52 1 110 1 172 
0 -172 0 36 1 116 0 -170 0 105 1 101 0 -137 1 60 
0 -108 0 15 1 0 0 122 1 -118 0 -133 1 0 0 237 
1 0 0 -260 1 42 0 260 1 0 0 -62 0 14 1 -149 
0 268 1 -133 0 27 1 0 0 118 1 -28 0 15 1 0 
0 51 0 -537 0 429 5366 939 100 MP stroke
1 0 0 -231 1 0 0 230 1 0 0 102 1 0 0 -306 
0 136 1 64 0 -436 0 349 1 0 0 33 0 -109 1 176 
0 -52 1 0 0 -14 1 207 1 -192 0 34 1 0 0 -47 
0 47 1 0 1 -91 0 -210 1 518 0 149 0 -300 1 0 
0 -616 1 0 0 620 0 -147 1 0 0 64 1 0 0 -322 
1 0 0 197 1 50 0 -289 0 92 1 272 0 -277 0 290 
1 -310 0 257 1 -168 0 -83 0 263 1 -92 0 211 0 -278 
1 0 0 211 0 -662 0 8 1 89 0 322 1 270 0 -190 
0 74 1 0 0 45 0 -254 1 0 1 0 0 78 1 0 
0 -303 1 303 0 140 1 -97 0 283 1 -91 0 -121 1 -74 
0 109 0 -91 1 169 0 -222 1 0 0 487 1 -186 0 -269 
1 -377 0 275 0 -24 1 459 1 0 0 -351 0 58 1 0 
0 146 1 0 0 126 5323 808 100 MP stroke
0 -501 1 0 0 -94 1 269 0 -233 1 0 0 233 1 0 
0 1 0 -167 0 44 1 194 0 184 0 -355 1 137 0 148 
1 0 1 0 0 -270 0 212 1 0 0 -157 0 391 1 -102 
0 -265 1 154 0 -298 1 285 0 -250 0 356 1 -84 0 84 
0 -239 1 133 0 238 0 -257 0 207 1 0 0 -611 1 0 
0 211 1 57 0 -178 1 0 0 162 1 0 0 197 0 -135 
1 145 0 -246 0 70 1 0 1 119 0 -275 1 -46 0 176 
1 17 0 121 0 -112 1 0 0 -61 0 92 1 -77 0 280 
0 -182 1 -115 0 -23 1 0 0 121 0 -281 1 352 0 -53 
1 -141 0 -55 1 0 0 55 1 0 1 0 0 250 1 0 
0 -250 1 191 1 0 0 147 1 0 0 -95 1 -108 0 -17 
1 0 0 160 0 -175 1 -34 0 213 0 -79 1 0 0 -221 
1 48 0 242 0 -45 5281 999 100 MP stroke
1 -65 0 80 0 -179 1 50 0 2 1 -218 0 -16 0 244 
1 -40 0 -124 1 0 0 -94 1 468 0 44 1 -166 0 42 
0 -15 1 -143 0 160 0 -38 1 -143 0 75 0 -75 1 206 
1 156 0 -390 0 2 1 0 0 262 0 -191 1 -220 0 414 
1 0 0 -253 1 139 0 -344 1 0 0 -81 0 22 1 0 
0 245 1 56 0 -126 1 0 0 -42 0 180 1 0 0 204 
1 0 0 -496 1 -86 0 273 1 -206 0 459 1 -639 0 428 
0 -31 1 -59 0 258 1 15 0 -362 1 140 1 22 0 -37 
0 221 1 0 0 -132 1 0 1 0 0 -83 0 133 1 0 
0 84 0 -24 1 -176 0 119 0 -20 1 -23 0 -228 1 0 
0 665 0 -342 1 0 0 160 0 -304 1 0 0 151 0 -58 
1 125 0 54 1 -140 0 135 0 -120 1 0 0 137 1 174 
0 -182 0 67 1 189 5239 650 100 MP stroke
0 -248 1 -140 0 16 0 -192 1 0 0 189 1 0 0 -181 
0 85 1 523 0 -903 0 1 1 -113 0 69 0 -69 1 158 
0 172 0 -46 1 0 0 -51 1 0 0 169 1 34 0 140 
0 -343 1 0 0 -59 1 59 0 150 1 0 1 -55 0 233 
0 -51 1 25 1 0 0 -118 0 140 1 134 0 87 0 -186 
1 162 0 -72 0 2 1 -440 0 165 0 -72 1 112 0 295 
0 -295 1 0 0 162 1 -180 0 266 1 6 1 -394 0 355 
1 0 0 123 1 -189 0 -514 0 327 1 266 0 -350 1 42 
0 -215 1 0 0 286 1 0 0 291 0 -152 1 -15 0 -323 
1 0 0 111 1 171 0 44 0 -13 1 0 0 4 1 0 
0 108 0 -168 0 60 1 -18 0 141 0 -161 0 129 1 -129 
0 44 0 -44 1 0 0 -100 0 261 1 -221 0 121 0 -209 
0 43 1 -387 0 -124 5200 1709 100 MP stroke
0 427 1 69 0 -304 0 108 1 0 0 330 1 -231 0 263 
0 -94 1 -31 0 199 0 -138 1 0 0 96 0 -5 1 0 
0 97 0 -15 1 0 0 25 0 -151 1 -213 0 -305 1 415 
0 -263 1 -49 0 400 1 0 0 170 1 0 1 -315 0 232 
1 -146 0 -423 0 149 1 0 0 96 1 205 0 -80 1 0 
0 -137 0 63 1 0 0 29 0 -131 1 0 0 212 1 95 
0 -32 1 0 0 -181 0 136 1 0 0 -118 0 64 1 57 
0 -322 1 432 0 -25 1 -609 0 -27 1 364 0 18 1 0 
0 36 0 -157 1 0 0 128 1 -256 0 -167 0 733 1 0 
1 0 0 76 0 -595 1 498 0 -377 1 0 0 357 1 0 
0 46 1 -151 0 -111 0 39 1 0 0 252 1 -180 0 62 
0 -62 1 0 0 -82 0 241 1 -251 0 616 1 -288 0 -222 
0 132 1 -290 0 201 5159 1075 100 MP stroke
1 89 0 -290 0 341 1 0 0 -74 1 117 0 -245 0 67 
1 -128 0 -116 1 259 0 -480 0 167 1 0 0 100 1 -13 
0 -62 0 184 1 0 0 -304 1 0 0 83 1 -47 0 157 
1 0 0 313 1 7 0 -471 1 221 0 -157 1 91 0 -264 
1 -113 0 -210 0 284 1 133 0 82 1 0 0 458 1 0 
0 -687 1 0 0 280 1 481 0 -195 0 15 1 0 0 -325 
0 160 1 165 0 -257 0 257 1 486 0 -70 1 -68 0 -262 
0 315 1 0 0 -314 0 15 1 125 0 -474 0 42 1 0 
0 -197 1 82 0 115 1 -44 0 46 0 -3 1 0 0 154 
1 0 0 -202 0 18 1 -13 0 70 1 0 1 152 1 0 
0 -85 1 0 0 -355 0 195 1 94 0 166 0 -131 1 -35 
0 -106 1 132 0 -26 1 -105 0 325 1 0 0 -35 1 61 
0 -129 1 103 0 -144 5116 1104 100 MP stroke
1 0 0 -103 1 132 0 156 0 -41 1 -417 0 -55 0 290 
1 -130 0 423 1 0 0 56 1 -141 0 -180 1 0 0 332 
0 -250 1 0 0 -341 0 48 1 0 0 456 0 -212 1 0 
0 -326 1 503 0 39 0 -106 1 0 0 -273 1 90 0 -296 
1 0 0 365 1 -133 0 286 0 -128 1 -86 0 -176 1 -10 
0 361 1 0 0 30 0 -340 1 0 0 228 0 -61 1 -114 
1 -8 0 83 0 -175 1 -71 1 99 0 277 0 -161 1 0 
1 0 0 12 0 -5 1 0 0 145 0 -234 1 229 1 0 
0 122 1 0 0 -122 1 -303 0 339 0 -273 1 -31 0 545 
1 -277 0 98 1 0 0 -98 0 5 1 0 0 -164 1 0 
0 215 1 0 0 66 0 -116 1 0 1 0 0 -74 1 124 
0 10 0 -340 0 327 1 -193 0 287 0 -59 1 0 0 -172 
1 0 0 172 0 -249 5074 1198 100 MP stroke
1 -39 0 198 1 -11 0 -161 1 0 0 208 1 0 0 -375 
1 280 0 -230 0 252 1 245 0 116 0 -632 1 0 0 387 
1 0 0 50 0 -348 0 298 1 -243 0 -387 1 206 0 -42 
0 360 1 -218 0 155 1 152 0 -370 0 59 1 0 0 -212 
0 271 1 -114 0 118 0 -266 1 0 0 210 0 -176 1 0 
0 110 0 -30 1 46 0 -326 0 191 1 211 0 91 0 -137 
1 0 0 290 0 -290 1 112 0 -4 1 0 0 169 0 -99 
1 0 0 -324 1 0 0 284 1 0 0 -356 1 131 0 321 
1 0 0 -178 0 7 1 0 0 -94 0 143 1 -240 0 -49 
0 346 1 0 0 229 0 -368 1 306 0 -256 0 163 1 0 
0 49 0 -263 1 0 0 -23 1 5 0 199 1 141 0 -118 
0 43 1 -108 0 -88 0 51 1 -104 0 -653 0 465 1 505 
0 250 0 -449 1 -112 5036 1268 100 MP stroke
0 68 0 -161 1 188 0 -27 1 0 0 208 1 -181 0 165 
0 -591 1 230 0 166 1 -117 0 59 0 -131 1 111 0 -89 
1 31 0 269 1 35 0 -57 1 0 0 -24 0 118 1 -450 
0 416 0 -35 1 0 0 -102 0 23 1 0 0 221 0 -429 
0 112 1 -182 0 -74 1 0 0 754 1 8 0 -805 1 0 
0 44 0 -44 1 664 0 25 1 -180 0 94 0 -88 1 -135 
0 -106 1 226 0 261 1 -111 0 -267 1 0 0 406 0 -39 
1 -35 0 -449 1 39 0 -216 0 108 1 0 1 0 0 413 
1 0 0 -514 1 0 0 136 1 0 0 -136 1 0 0 -45 
0 45 1 46 0 270 1 0 0 -383 1 112 0 469 0 -170 
1 0 0 16 1 110 0 -217 0 283 1 -335 0 404 1 102 
0 -102 1 -87 0 76 0 -157 0 69 1 0 0 99 1 -499 
0 612 1 -307 0 -251 4995 1285 100 MP stroke
0 238 1 -286 0 513 0 -401 1 0 0 31 1 0 0 -106 
1 180 0 -86 1 0 0 131 1 -131 0 245 0 -295 1 0 
0 -139 1 0 0 65 0 -99 1 0 0 192 1 -124 0 -68 
1 0 0 236 1 0 0 297 1 -172 0 173 1 11 0 -137 
1 0 0 177 1 0 0 -124 1 0 0 2 0 -53 1 0 
0 -657 1 0 0 471 1 169 0 -219 0 180 1 0 0 114 
0 -25 1 0 1 0 0 -138 0 102 1 -251 0 109 0 -227 
1 0 0 283 1 0 0 129 1 0 0 44 0 -225 1 0 
0 277 1 0 0 -134 0 88 1 -88 0 -114 1 -81 0 70 
0 -7 1 -65 0 120 0 -10 1 0 0 65 1 244 0 -293 
1 0 0 -65 1 -75 0 -126 1 355 0 42 1 -82 0 310 
1 0 0 -698 1 39 0 370 1 0 0 41 1 0 0 -11 
0 40 1 -392 0 295 4952 1041 100 MP stroke
0 -27 1 0 0 -259 1 -100 0 306 1 0 0 -19 1 -41 
0 -49 1 0 0 10 1 0 0 9 1 0 1 0 1 -83 
0 -74 1 74 0 452 1 0 0 -248 1 92 0 30 0 -194 
1 154 0 -164 1 72 0 193 0 -263 1 0 0 101 0 -245 
1 130 0 100 0 -86 1 215 0 -122 1 -180 0 -22 1 -81 
0 283 0 -216 1 169 0 238 0 -38 1 0 0 -284 1 0 
0 174 1 0 0 -58 0 178 1 0 0 25 0 -70 1 35 
0 -131 1 0 0 -87 1 0 0 -18 0 148 1 -153 0 -259 
0 349 1 -66 0 183 1 -121 0 -19 1 -387 0 269 1 0 
0 -312 0 44 1 0 0 396 1 -15 0 4 0 -298 1 184 
0 213 0 -137 1 0 0 171 0 -190 0 96 1 -6 0 -28 
1 -13 0 -107 1 -97 0 79 0 -215 1 223 0 534 1 -608 
0 347 0 -492 1 236 4910 1207 100 MP stroke
0 11 0 -162 1 162 0 193 1 0 0 -212 0 233 1 -143 
0 160 1 0 0 43 0 -230 1 0 0 176 1 0 0 35 
0 -137 1 115 0 22 0 -154 1 0 0 203 0 -227 1 162 
0 10 0 -115 1 -125 0 -2 1 0 0 138 0 -196 1 162 
0 -76 0 76 1 97 0 205 1 -205 0 -138 1 0 0 -10 
0 105 1 0 0 208 1 -607 0 408 0 -405 1 0 0 149 
1 0 0 -48 0 199 1 0 0 277 0 -246 1 -86 0 116 
1 13 0 121 1 -265 0 140 0 -196 1 240 0 -357 1 19 
0 427 1 217 0 -50 1 0 0 -349 1 0 0 8 1 0 
0 -309 1 615 0 -619 0 456 1 0 0 -338 0 278 1 0 
0 -50 0 65 1 0 0 -190 1 0 0 -13 0 142 1 182 
0 -182 0 134 1 0 0 -73 0 7 1 -212 0 -137 1 -37 
0 -39 0 183 1 -143 4871 1378 100 MP stroke
0 80 1 -82 0 195 1 0 0 -113 0 20 1 -20 1 -10 
0 163 1 -157 0 -148 0 152 1 149 0 399 0 -245 1 0 
0 47 0 -174 1 0 0 -38 1 78 0 132 0 -350 1 0 
0 110 1 0 0 86 1 159 0 -484 0 1 1 332 0 129 
0 -247 0 173 1 0 0 -50 0 262 1 -4 0 -606 1 213 
0 -1 0 213 1 38 0 118 0 -262 0 258 1 -498 0 141 
0 -136 1 80 0 -69 1 0 0 117 0 -362 0 292 1 0 
0 -63 0 72 1 -65 0 197 1 71 0 -54 1 0 0 -25 
1 330 0 -83 1 -10 0 236 1 -332 0 55 0 -39 1 0 
0 -155 1 72 0 175 0 -243 1 137 0 -33 0 49 1 0 
0 107 0 -107 1 0 0 -373 1 95 0 240 1 187 0 -292 
0 309 1 0 0 -218 1 256 0 -463 0 133 1 0 0 -160 
0 59 1 9 0 123 4833 1100 100 MP stroke
0 -87 1 0 0 -266 0 42 1 0 0 210 1 410 0 -202 
1 -205 0 391 0 -318 1 -42 0 381 1 -248 0 -197 0 270 
1 -143 0 -167 1 0 0 64 0 -152 1 150 0 75 0 -173 
1 -237 0 420 0 -21 1 -87 0 -224 1 234 0 34 0 -268 
0 252 1 0 0 136 0 -136 1 0 0 147 1 0 0 281 
1 0 0 -140 0 114 1 0 0 -323 1 0 0 -205 0 31 
1 0 0 357 1 0 0 223 0 -425 1 0 0 -128 1 0 
0 -29 0 339 1 0 0 -295 1 0 0 347 1 0 0 -196 
0 47 1 0 0 -107 0 96 1 0 0 160 0 -256 0 128 
1 0 0 -45 1 82 0 -55 0 31 1 39 0 90 0 -190 
1 0 0 -73 1 0 0 73 0 -268 0 106 1 0 0 166 
1 -206 0 -58 1 260 0 -44 0 55 1 -83 0 386 0 -138 
1 0 0 -209 1 147 4795 972 100 MP stroke
0 160 1 145 0 -417 1 274 0 -162 1 -359 0 156 0 -346 
0 331 1 0 0 181 0 -588 1 79 0 311 1 0 0 497 
0 -369 1 0 0 -270 1 0 0 295 0 -4 1 -155 0 310 
1 0 0 -624 1 323 0 206 0 -365 0 320 1 -268 0 283 
1 -132 0 113 1 0 0 2 0 -2 1 0 0 147 4780 900 40 MP stroke
gr

5344  240 mt 
(\(c\) ) s
%%IncludeResource: font Symbol
/Symbol /ISOLatin1Encoding 120 FMSR

5517  240 mt 
(b) s
%%IncludeResource: font Helvetica
/Helvetica /ISOLatin1Encoding 96 FMSR

5582  300 mt 
(2) s
1 sg
0 1769 1418 0 0 -1769 899 4615 4 MP
PP
-1418 0 0 1769 1418 0 0 -1769 899 4615 5 MP stroke
4 w
DO
SO
6 w
0 sg
 899 4615 mt 2317 4615 L
 899 2846 mt 2317 2846 L
 899 4615 mt  899 2846 L
2317 4615 mt 2317 2846 L
 899 4615 mt 2317 4615 L
 899 4615 mt  899 2846 L
 899 4615 mt  899 4597 L
 899 2846 mt  899 2863 L
%%IncludeResource: font Helvetica
/Helvetica /ISOLatin1Encoding 120 FMSR

 866 4760 mt 
(0) s
1371 4615 mt 1371 4597 L
1371 2846 mt 1371 2863 L
1238 4760 mt 
(2000) s
1844 4615 mt 1844 4597 L
1844 2846 mt 1844 2863 L
1711 4760 mt 
(4000) s
2317 4615 mt 2317 4597 L
2317 2846 mt 2317 2863 L
2184 4760 mt 
(6000) s
 899 4615 mt  916 4615 L
2317 4615 mt 2299 4615 L
 798 4659 mt 
(0) s
 899 4172 mt  916 4172 L
2317 4172 mt 2299 4172 L
 564 4216 mt 
(0.005) s
 899 3730 mt  916 3730 L
2317 3730 mt 2299 3730 L
 631 3774 mt 
(0.01) s
 899 3288 mt  916 3288 L
2317 3288 mt 2299 3288 L
 564 3332 mt 
(0.015) s
 899 2846 mt  916 2846 L
2317 2846 mt 2299 2846 L
 631 2890 mt 
(0.02) s
 899 4615 mt 2317 4615 L
 899 2846 mt 2317 2846 L
 899 4615 mt  899 2846 L
2317 4615 mt 2317 2846 L
gs 899 2846 1419 1770 MR c np
0 -110 1 -260 0 -295 0 27 1 199 0 50 0 -94 1 153 
0 276 1 -295 0 81 1 87 0 -162 0 38 1 0 0 -65 
0 114 1 -136 0 122 0 -3 1 0 0 84 0 -271 1 202 
1 130 0 -538 0 138 1 -11 0 11 1 0 1 0 0 -198 
1 171 0 60 0 -239 0 149 1 -90 0 303 1 -79 0 101 
0 -115 1 0 0 150 0 -242 1 0 1 -87 0 118 0 -41 
1 128 1 48 0 -313 1 0 0 -12 0 254 1 -82 0 164 
0 -360 0 210 1 -20 0 40 1 -12 0 -200 1 190 0 -74 
1 74 0 22 0 -8 1 0 0 -278 0 110 1 0 0 176 
0 -27 1 133 0 -209 0 148 1 0 0 -167 1 93 1 -137 
0 59 1 -83 0 161 0 -55 1 267 0 -258 0 275 1 -108 
0 -167 0 122 1 -10 0 -95 1 0 0 279 1 0 0 104 
0 -187 0 1 1 -101 2040 3970 100 MP stroke
0 -280 0 231 1 0 1 -54 0 252 0 -99 1 0 0 3 
1 -106 1 -159 0 423 0 -407 1 356 0 225 1 0 0 18 
0 -356 1 0 0 191 0 -234 1 0 0 187 0 -433 0 83 
1 130 0 -31 1 25 0 -7 1 0 0 -174 1 223 0 -177 
0 498 1 -123 0 -429 0 101 1 46 0 -99 0 135 1 -210 
1 55 0 -88 1 0 0 24 1 0 0 97 0 -97 1 0 
0 199 1 406 0 94 0 -243 1 157 0 -385 1 0 0 -91 
0 1 1 66 0 -47 1 -6 0 -68 0 237 1 -94 0 -217 
0 370 1 -108 0 -153 0 231 1 0 0 84 0 -182 1 0 
0 -100 1 0 0 52 0 -176 0 2 1 -2 0 344 1 113 
0 -366 1 -51 0 179 1 -179 0 66 1 -69 0 -101 0 100 
1 0 0 -67 0 35 1 0 0 305 1 0 0 -124 1 87 
0 -160 0 82 1 183 2000 3826 100 MP stroke
0 33 1 0 0 -75 1 -43 0 -190 0 24 1 0 0 -186 
1 61 0 62 1 -192 0 167 1 3 1 0 0 201 0 -189 
1 0 0 -12 0 177 1 0 1 -136 0 -46 1 0 0 107 
1 -90 0 142 0 -248 1 0 0 271 1 0 0 17 0 -97 
1 0 0 -27 1 0 0 275 0 -301 0 146 1 210 0 -375 
0 53 1 0 0 -53 0 237 1 -150 0 -87 0 64 1 24 
0 -231 1 198 0 -36 1 0 0 -168 0 416 1 -4 0 -201 
0 72 1 -128 0 284 1 0 0 -77 1 -161 0 160 0 -68 
1 -153 0 221 1 -223 0 116 0 -98 1 265 0 -20 0 202 
1 -133 0 50 0 -110 1 -125 0 125 0 -281 1 0 0 -46 
0 136 1 -32 1 0 1 0 0 -24 0 47 1 0 0 -127 
0 198 1 0 0 -182 1 0 0 109 0 -107 1 -25 0 25 
1 0 0 -34 0 34 1960 4185 100 MP stroke
1 76 0 -76 0 312 1 28 0 -451 0 55 1 0 0 70 
1 235 1 -47 0 37 0 -226 1 0 0 66 1 0 0 -144 
0 23 1 0 0 -47 1 240 0 -246 1 64 0 276 1 0 
0 -18 1 0 1 -265 0 -128 1 0 0 530 1 -99 0 60 
0 -165 1 -1 0 -34 1 0 0 -45 1 1 0 119 1 0 
0 -83 1 0 0 -10 1 0 0 191 1 -126 1 0 0 -64 
1 0 0 64 0 -202 1 0 0 222 1 -62 0 89 1 -108 
1 57 0 -123 0 497 1 0 0 -375 1 0 0 -33 1 -139 
0 162 0 -98 1 0 0 -60 1 0 0 5 0 -55 0 2 
1 -56 0 253 1 0 0 471 1 -345 0 185 1 -46 0 -53 
0 53 1 -303 1 0 1 0 1 2 0 17 0 -223 1 0 
0 145 1 0 0 205 0 -94 1 -85 0 133 0 -41 1 0 
0 -181 1 69 0 -143 1914 4271 100 MP stroke
0 422 1 -330 0 41 1 -16 1 46 0 141 0 -166 1 102 
0 -210 0 62 1 0 0 113 0 -30 1 0 0 32 0 -132 
1 134 0 40 0 -131 1 0 0 632 1 -302 0 302 1 0 
0 -547 1 27 0 -19 1 0 0 -85 1 11 0 36 0 -13 
1 201 0 -259 1 1 0 -36 1 35 0 52 1 138 1 0 
0 -76 1 0 0 40 1 -40 0 -35 0 95 1 0 0 -79 
0 49 1 75 1 -105 1 0 1 -172 0 -26 1 117 0 -107 
1 202 1 0 0 -7 0 7 1 0 0 8 1 0 0 36 
0 -35 1 -82 0 -140 1 85 0 94 1 -191 0 48 1 0 
0 -22 0 273 1 0 0 217 1 0 0 -336 0 96 1 0 
0 -34 1 -8 0 -101 1 0 0 77 1 0 1 0 0 -18 
1 0 0 26 1 0 0 -126 1 -1 0 30 1 -43 0 -99 
0 492 1 -235 0 86 1868 3944 100 MP stroke
0 -9 1 -113 0 -152 0 263 1 -55 0 -68 1 314 0 -450 
0 100 1 -47 0 524 0 -425 1 363 0 -302 0 92 1 -296 
0 355 1 -50 0 -226 1 684 0 -74 1 -179 0 -522 1 0 
0 -23 0 85 1 0 0 245 1 -293 0 -61 1 194 0 101 
0 -241 1 0 0 -71 0 199 1 0 0 23 0 -169 1 0 
0 120 1 -39 0 -39 1 39 1 184 0 -147 1 11 0 104 
1 40 0 -243 0 5 1 0 0 100 1 104 0 90 0 -179 
0 79 1 146 0 -227 1 60 0 -10 0 203 1 -10 0 -212 
1 0 0 12 0 -96 1 205 0 136 1 -54 0 -98 1 0 
0 73 0 -79 1 -20 0 188 1 -215 0 103 0 -258 1 0 
0 76 1 0 0 4 1 0 0 135 1 0 1 0 0 37 
1 0 0 67 1 -62 0 -215 1 0 0 178 1 -50 0 -134 
0 12 1 0 0 -82 1826 4186 100 MP stroke
0 117 1 -52 0 -36 0 218 1 -201 1 0 0 -68 1 -38 
0 178 1 76 0 -232 1 75 0 27 1 91 0 -195 1 309 
0 406 1 -1 0 62 1 -480 0 -318 1 75 0 206 1 1 
0 39 1 0 0 411 1 0 0 -207 1 0 0 -349 0 145 
1 0 0 -178 1 0 0 178 0 -245 1 0 0 196 0 -81 
1 0 0 234 1 0 0 -186 0 44 1 0 0 -144 1 176 
0 -142 0 114 1 -5 0 7 1 129 0 65 0 -167 0 74 
1 0 0 -255 1 0 0 189 1 -3 0 -192 0 88 1 141 
0 -37 1 0 1 0 0 39 1 0 0 -110 1 0 0 -118 
0 329 1 0 0 -63 1 -187 0 168 1 0 0 -257 1 3 
0 211 1 -200 0 167 0 -107 1 39 0 -95 0 54 1 -139 
0 47 0 -55 1 440 0 121 0 -45 1 -412 0 162 1 0 
0 -3 1 -310 1 110 1782 4138 100 MP stroke
0 -6 0 161 1 -26 1 270 0 24 1 27 0 -93 1 -23 
0 -62 0 157 1 -232 0 147 0 -260 0 36 1 0 0 -51 
1 -190 0 116 1 0 0 230 1 0 0 -265 1 0 0 426 
1 -26 0 -3 1 3 0 -104 1 0 0 94 1 -330 0 -65 
1 0 0 209 1 75 0 -137 1 0 0 127 1 0 0 -78 
1 0 0 529 0 -341 1 -195 0 -198 0 163 1 77 0 -150 
0 190 1 0 0 25 0 -25 1 128 0 -411 0 54 1 0 
0 -145 0 121 1 0 0 280 0 -169 1 0 0 85 1 103 
0 58 1 -178 0 91 1 -55 0 340 0 -340 1 0 0 -228 
1 0 0 222 1 0 0 112 0 -102 1 0 0 -44 1 0 
0 30 1 32 0 -193 0 210 1 -86 0 65 0 -131 1 0 
0 166 1 0 0 109 1 -81 0 -142 1 102 0 31 0 -164 
1 -122 0 159 1 0 1740 4005 100 MP stroke
0 -159 0 298 1 -86 0 18 1 0 0 -43 1 0 0 -201 
1 365 0 -231 0 146 1 -254 0 539 0 -22 1 -268 0 46 
0 -166 1 0 0 155 1 -346 0 -84 0 32 1 -64 0 73 
1 143 0 54 0 -85 1 15 0 20 1 -71 0 114 1 0 
0 167 1 42 0 78 0 -171 1 0 0 -182 0 204 1 0 
0 -223 0 474 1 -246 0 178 0 -240 1 -134 0 243 0 -41 
1 0 0 -238 0 504 1 0 0 -269 1 113 0 33 0 -33 
1 0 0 -58 0 89 1 1 0 118 1 0 0 -69 0 56 
1 -83 0 -289 1 15 0 -160 1 0 0 292 1 9 1 -12 
0 -296 1 0 0 44 1 0 0 267 0 -175 1 363 0 -180 
0 7 1 0 0 -120 0 80 1 0 0 -261 0 62 1 0 
0 88 0 -54 1 0 0 217 1 -317 0 246 0 -218 1 0 
0 57 1 199 0 -234 1701 4124 100 MP stroke
1 0 0 334 1 -68 0 -334 0 422 1 0 0 -90 1 62 
0 -1 1 -94 0 -204 1 67 0 -19 1 263 0 -96 1 -26 
0 -254 0 266 1 -47 0 -81 0 14 1 0 0 237 0 -84 
1 -316 0 163 0 -108 1 -2 0 74 1 0 0 163 1 -283 
0 319 1 0 0 -348 0 466 1 0 1 1 0 -487 1 0 
0 170 1 0 0 -78 0 76 1 2 1 0 1 -117 0 -28 
1 0 0 217 1 0 0 32 0 -91 1 0 0 143 1 0 
0 -160 1 480 0 -110 1 110 1 -386 0 76 1 -47 1 39 
0 -115 0 153 1 -181 0 181 0 -236 0 191 1 0 0 -85 
1 269 0 -459 1 0 0 65 1 0 0 214 0 -233 1 82 
1 18 0 -66 0 4 1 -97 0 27 1 -108 0 -21 0 224 
1 0 0 1 0 -52 1 40 0 244 0 -146 1 -116 0 -90 
0 88 1 0 0 179 1657 3912 100 MP stroke
1 -209 0 102 1 -26 0 13 0 -1 1 -116 0 97 1 -119 
0 -142 1 52 0 293 1 0 0 -172 0 201 1 0 0 -110 
0 24 1 0 0 326 1 -34 0 -154 1 0 0 246 0 -140 
1 0 0 -245 1 0 0 410 1 -118 0 24 1 94 0 -100 
1 0 0 -54 0 129 1 -429 0 122 0 -313 1 2 0 458 
1 -140 0 148 1 -175 0 101 1 -101 1 121 0 -118 1 -108 
0 501 1 259 0 -174 1 -30 0 -356 1 0 0 -61 1 0 
0 -232 0 56 1 192 0 -130 1 -93 0 348 0 -196 1 0 
0 -170 1 0 0 346 1 0 0 -217 1 -12 0 98 1 0 
0 -209 0 47 1 -47 0 119 1 0 0 -64 0 124 1 0 
0 -241 1 39 0 88 0 -187 1 0 0 129 1 -120 0 145 
1 7 0 -120 0 162 1 212 0 -149 0 24 1 -233 0 330 
0 -62 1 413 0 -261 1614 3798 100 MP stroke
0 66 1 -7 0 87 0 -133 1 0 0 92 0 -433 1 -125 
0 167 1 0 0 -31 1 0 0 249 0 -58 1 -114 0 -211 
0 50 1 148 0 30 1 0 1 -36 1 0 1 0 0 42 
0 -178 1 0 0 462 0 -489 0 236 1 0 0 -327 0 266 
1 38 0 -99 1 180 0 3 0 -187 1 169 0 10 1 258 
0 -431 0 193 1 -109 0 22 1 0 0 90 0 -112 0 32 
1 -32 0 133 1 0 0 -242 0 91 1 0 1 137 0 -273 
1 -108 0 364 1 0 0 -40 1 0 1 -274 0 587 1 0 
0 -368 1 -99 0 175 0 -194 1 0 0 152 1 62 1 0 
1 -63 0 40 0 -87 1 0 0 311 1 -30 0 266 1 0 
0 -342 0 231 1 87 0 -791 1 162 0 273 1 -119 0 -83 
1 0 0 4 1 177 0 -285 1 189 0 124 0 -220 1 29 
0 -96 0 158 1 0 1570 3982 100 MP stroke
0 -128 0 70 1 0 0 -199 0 170 1 -81 0 299 1 -309 
0 309 1 0 0 71 1 0 0 21 1 0 0 -320 0 129 
1 0 0 143 0 -309 1 -20 0 369 0 -111 1 76 0 -238 
1 0 0 52 0 -226 1 37 0 123 1 0 0 414 1 74 
0 -358 1 235 0 -274 1 191 0 -259 0 259 1 0 0 -392 
1 52 0 273 0 -323 0 13 1 0 0 130 1 0 0 103 
0 -18 1 0 0 62 1 -239 0 -72 1 282 0 25 1 0 
0 -222 1 0 0 243 1 0 0 -239 1 114 0 -67 1 -7 
0 -3 0 100 1 257 1 0 1 -117 0 117 1 0 0 -161 
0 59 1 0 0 -336 0 118 1 0 0 -108 1 0 0 161 
1 -119 0 -137 0 75 1 197 0 669 1 0 0 43 0 -1036 
1 0 0 242 1 -169 0 -23 1 189 0 -95 0 61 1 28 
0 2 1 -64 0 50 1528 4054 100 MP stroke
1 56 0 -130 0 74 1 0 0 431 0 -79 1 -120 0 -201 
1 0 0 -32 1 0 0 32 1 0 0 72 1 -72 0 -115 
0 102 1 12 0 -9 1 54 0 -94 1 0 0 -122 1 190 
0 -71 0 136 1 -4 0 120 0 -285 1 0 0 -6 1 24 
0 -59 0 214 1 0 0 63 0 -166 1 0 0 -66 1 0 
0 227 0 -163 1 486 1 -562 0 -94 1 130 0 -103 1 50 
0 205 0 -155 1 -52 0 209 1 -160 0 -45 1 0 0 -2 
0 127 1 -48 0 46 0 -178 1 0 0 67 0 -117 1 148 
0 -79 1 0 0 -77 1 0 0 188 1 4 0 -10 1 105 
0 -203 1 0 0 142 1 -128 0 -64 0 251 1 0 0 -65 
0 1 1 -20 0 82 1 0 0 173 1 0 0 -346 1 96 
0 -62 1 112 0 98 0 -210 1 0 0 43 0 -9 1 0 
0 -60 1 0 0 262 1486 3865 100 MP stroke
0 -397 1 0 0 555 0 -97 1 -99 0 -199 0 59 1 154 
1 0 0 -234 0 118 1 0 0 -89 0 70 1 0 0 -70 
0 43 1 0 0 151 1 -24 0 -323 0 212 1 -129 1 17 
0 44 1 0 0 57 0 -88 1 0 0 132 1 0 0 -132 
1 0 0 308 1 -138 0 -135 0 96 1 0 0 -214 0 140 
1 175 0 183 1 -236 0 -120 1 0 0 -125 1 0 0 95 
1 -17 0 106 0 -123 0 13 1 0 0 -146 1 138 0 212 
1 -228 0 -53 1 32 0 -82 1 89 0 107 0 -144 1 134 
0 -145 1 102 0 43 0 -72 1 -25 0 133 1 -143 1 0 
1 143 1 136 0 -137 1 -9 0 25 0 -78 1 -151 0 246 
1 0 0 290 0 -236 1 -201 0 -29 0 65 1 0 0 264 
0 -254 1 0 0 34 0 -34 1 0 0 -9 0 41 1 -36 
0 70 0 -6 1 0 1444 4040 100 MP stroke
1 -52 0 -93 0 10 1 -94 0 -17 0 282 1 -106 1 20 
0 157 1 0 0 -44 1 44 0 137 0 -128 1 -39 0 50 
0 -99 1 120 0 -286 0 44 1 0 1 0 0 327 0 -90 
1 -145 0 117 1 2 0 -269 0 156 1 -161 0 46 1 -36 
0 -13 0 80 1 37 0 -11 0 11 1 -157 0 346 0 -20 
1 0 0 -21 1 0 0 -108 0 36 1 -156 0 40 1 115 
0 -60 1 8 0 -132 1 306 0 -157 0 309 1 -386 1 0 
0 -61 0 90 1 0 0 16 1 0 0 62 1 -201 0 257 
0 -24 1 101 0 -208 1 -34 0 -12 0 175 1 0 0 -154 
1 147 0 225 1 0 0 -219 1 -124 0 124 1 0 1 0 
0 -61 1 0 1 61 0 -187 1 0 1 0 0 153 1 0 
0 117 0 -182 1 0 0 -190 1 0 0 -53 0 101 1 67 
0 655 0 -228 1 0 1400 3707 100 MP stroke
0 -587 1 167 0 122 0 -180 1 73 0 -19 1 172 0 -326 
0 23 1 0 0 178 1 245 0 -83 1 0 0 -282 0 243 
1 0 0 162 1 -375 0 243 1 82 0 28 0 -86 0 70 
1 -70 0 -191 1 0 0 217 1 -250 0 530 1 0 0 -415 
1 182 0 -358 1 0 0 90 1 0 0 10 0 -36 1 -13 
0 136 1 -74 0 146 0 -269 1 0 0 134 1 103 0 -103 
1 56 1 1 0 44 0 -63 0 41 1 0 0 167 1 0 
0 -391 0 230 1 -16 0 -74 0 128 1 138 0 -191 1 1 
0 -174 1 0 0 208 1 -17 0 -86 1 0 0 52 1 0 
0 -76 1 29 0 64 1 -60 0 22 0 -138 1 95 0 -130 
1 0 0 -32 1 80 0 -40 0 273 1 -42 0 -4 1 4 
0 -133 0 78 1 0 0 43 0 -160 0 1 1 0 0 172 
1 33 0 205 0 -353 1359 4083 100 MP stroke
0 185 1 -62 0 -232 0 257 1 0 0 68 0 -161 1 -38 
0 248 1 -126 0 -177 1 48 0 350 1 -254 0 54 0 -65 
0 58 1 7 0 -223 0 380 1 0 0 -32 1 0 1 -113 
0 77 0 -56 1 30 0 62 1 -110 0 110 0 -329 0 159 
1 0 0 -66 1 0 0 -122 1 -28 0 105 0 -75 1 0 
0 262 0 -52 1 0 0 -297 0 274 1 260 0 -451 1 54 
0 127 1 214 0 -241 0 147 1 -140 0 -196 1 0 0 74 
1 113 0 -143 1 0 0 321 1 -101 0 251 1 0 0 -518 
0 100 1 0 0 -99 0 88 1 208 0 -250 1 0 0 -65 
1 0 0 215 1 0 0 -67 0 36 1 -95 0 201 1 -128 
0 -130 0 179 1 20 0 -45 1 0 0 -192 1 -2 0 311 
0 -327 0 217 1 -44 0 44 1 0 0 19 0 -256 1 20 
0 336 0 -92 1 -50 1319 4044 100 MP stroke
0 106 0 -246 1 -67 0 129 1 137 0 -75 1 0 0 51 
1 16 0 -187 1 0 0 322 0 -255 1 0 0 -113 1 10 
0 -27 0 121 1 -121 0 193 0 -107 1 0 0 140 0 -138 
1 0 0 -7 0 70 1 133 0 31 1 41 1 0 0 -257 
1 264 0 176 0 -352 1 167 0 -408 1 0 0 419 0 -144 
1 -136 0 -71 1 74 0 -52 0 135 1 0 1 -31 0 -168 
0 247 1 0 0 -65 1 83 0 55 1 -209 0 666 0 -709 
0 323 1 0 0 -275 1 213 0 -66 0 27 1 0 0 -92 
0 14 1 0 0 -37 1 54 0 -161 1 0 0 -21 0 75 
1 35 1 0 0 151 1 -4 0 -81 0 47 1 0 0 155 
1 0 0 -70 1 -43 0 -43 0 171 1 14 0 61 1 -227 
0 -19 0 66 1 -66 0 247 0 -268 1 0 0 -16 0 82 
1 -126 0 -73 0 42 1279 4114 100 MP stroke
1 0 0 92 1 0 0 -218 0 177 1 -134 1 41 0 104 
0 -135 0 109 1 174 0 -186 1 0 0 457 1 -13 1 -197 
0 122 0 -225 1 -14 0 41 1 -67 0 169 1 -323 0 -69 
0 273 1 100 0 -152 1 0 0 202 0 -129 1 0 0 55 
0 -191 0 83 1 0 0 17 0 -281 0 136 1 0 0 455 
1 -621 0 205 1 -58 0 207 1 0 0 13 0 -202 1 0 
1 609 0 -539 1 60 0 -147 0 129 1 0 0 349 0 -210 
1 -121 0 142 0 -282 1 0 0 367 1 -184 0 189 1 -19 
0 -96 1 135 0 143 0 -358 1 0 0 272 0 -4 1 -53 
0 -442 0 101 1 0 0 -56 1 -8 0 -73 1 109 0 -73 
0 264 1 -271 1 0 0 -32 1 0 0 5 1 0 0 -73 
1 190 0 -72 0 156 1 -67 0 -231 1 253 0 -135 1 24 
0 -71 0 210 1 0 1237 4007 100 MP stroke
0 47 1 0 0 -209 1 0 0 187 1 0 0 142 1 0 
0 30 0 -197 1 0 0 -211 0 21 1 8 0 162 1 -162 
1 161 0 -328 1 530 0 -256 1 -56 0 -1 0 90 1 -141 
0 71 1 -94 0 -22 0 70 1 -105 0 490 0 -77 1 -199 
0 113 0 -116 1 118 0 -105 1 83 0 -45 1 -97 0 335 
0 -90 1 0 0 -198 1 313 0 -114 0 122 1 -47 0 -29 
1 -211 0 250 1 -113 0 -60 1 0 0 -224 1 0 0 102 
1 0 0 181 0 -299 1 134 1 0 0 140 0 -3 1 0 
0 182 0 -72 1 0 0 -45 1 0 1 -278 0 278 1 0 
0 -186 0 21 1 64 0 87 0 -8 1 0 0 22 1 26 
0 -26 1 -60 0 109 1 21 0 -205 1 23 0 -10 0 53 
1 0 1 0 0 -108 1 70 0 -242 0 362 1 0 0 -214 
0 2 1 0 0 -4 1194 4054 100 MP stroke
1 0 0 4 1 153 0 9 0 -103 1 0 0 102 1 -37 
0 -66 1 16 0 -93 0 40 1 59 0 -100 0 478 1 -174 
0 -351 0 76 1 28 1 104 0 -57 0 41 1 16 0 -352 
0 230 1 46 0 -14 0 195 1 -335 0 396 1 46 0 -201 
0 224 1 49 0 72 0 -429 1 339 0 -191 1 0 0 -157 
1 74 0 -212 1 -59 0 247 1 62 0 482 0 -54 1 0 
0 -310 1 155 0 -182 1 -398 0 375 1 0 0 -326 1 0 
0 -105 0 569 1 0 0 -468 1 0 0 460 1 192 0 -258 
1 0 0 213 0 -9 1 -189 0 -157 1 119 0 2 0 -202 
1 -187 0 82 0 -70 1 -89 0 209 1 0 1 463 0 12 
0 -194 1 -232 0 -100 0 258 1 -136 0 44 0 -229 1 38 
0 272 0 -237 1 96 0 -131 0 341 1 0 0 -193 1 -167 
0 -48 0 278 1 0 1153 3890 100 MP stroke
0 149 1 -41 0 -353 1 165 0 104 1 72 0 82 0 -224 
1 47 0 -223 1 -151 0 261 1 0 0 73 0 -142 1 0 
0 -97 1 -136 0 470 0 -265 1 0 0 -126 1 182 0 -218 
1 78 0 18 0 -84 1 0 0 359 1 -198 0 -6 0 63 
1 0 0 21 0 -21 1 0 0 65 0 -195 1 0 0 242 
1 -186 0 97 0 -133 1 -18 0 -51 1 13 0 -16 1 0 
0 -20 0 141 1 -30 0 -156 0 510 1 -254 0 53 0 -198 
1 109 1 0 0 -157 1 0 0 -2 0 43 1 0 0 124 
1 0 1 -124 0 29 1 -29 0 238 0 -176 1 -79 0 161 
1 -12 0 -224 0 373 1 10 0 -146 1 0 0 -105 0 58 
1 15 0 -95 0 99 1 29 0 -29 1 33 0 -63 0 200 
1 -214 0 -58 1 102 0 312 0 -188 1 -30 0 -270 1 70 
0 118 0 -56 1 0 1112 4101 100 MP stroke
1 -43 1 112 0 -104 0 264 1 0 0 -115 1 0 0 115 
0 -13 1 -120 0 -73 1 193 0 -193 0 25 1 0 0 87 
1 104 0 -191 1 0 0 71 1 0 0 -172 1 -14 0 334 
1 -344 0 102 1 0 0 19 1 0 0 -196 1 0 0 278 
1 0 0 -162 1 0 0 171 0 -272 1 118 0 23 0 -141 
1 108 0 223 0 -182 1 0 1 0 0 22 1 104 0 -182 
0 53 1 188 0 -315 1 0 0 132 0 -99 1 0 0 52 
0 -55 1 94 1 36 0 -88 1 -9 0 65 1 51 0 168 
0 -123 1 55 0 29 1 -196 0 66 1 0 0 180 0 -360 
0 106 1 0 0 261 1 -130 1 104 0 64 1 0 0 148 
0 -559 1 0 0 313 1 -37 0 160 0 -324 1 52 0 -78 
1 0 0 151 0 -174 1 96 0 111 0 -150 0 51 1 0 
0 188 1 -102 1 385 1068 3585 100 MP stroke
1 -4 0 8 0 -577 1 0 0 80 1 0 0 147 1 0 
1 0 1 64 0 -149 1 54 0 298 1 0 0 -113 1 74 
0 197 0 -41 1 0 0 -54 0 32 1 -211 0 274 1 0 
0 273 0 -51 1 -401 0 297 0 -70 1 -48 0 -155 0 22 
1 -252 0 77 1 216 0 -273 1 0 0 -57 0 56 1 38 
0 358 0 -113 1 0 0 -195 1 0 0 -202 0 -1 1 49 
0 450 1 0 0 -509 1 -226 0 300 1 0 0 -110 0 39 
1 171 0 -183 0 192 1 -60 0 222 1 -246 0 90 0 -231 
1 59 0 266 1 0 0 -227 0 98 1 0 0 260 1 -5 
0 -715 0 311 1 25 0 256 0 -58 1 0 0 -235 0 272 
1 12 0 -157 1 0 0 -202 1 -96 0 451 1 31 0 -206 
0 96 1 162 0 99 0 -105 1 -331 0 263 1 -79 0 79 
0 -385 1 0 0 347 1027 3753 100 MP stroke
0 -124 1 124 0 38 1 -86 0 -269 0 202 1 -67 0 -105 
1 0 0 150 0 -234 1 79 0 155 0 -129 1 0 0 75 
0 -99 1 -10 0 188 0 -148 1 -1 0 226 1 0 0 -22 
0 157 1 -260 0 -77 0 77 1 0 0 141 0 -316 1 57 
0 259 0 -295 1 0 0 87 1 0 0 72 1 -78 0 51 
1 0 0 -180 0 74 1 0 0 -156 1 0 0 571 1 -200 
0 -37 1 0 0 -118 1 153 0 44 0 -135 1 76 0 55 
0 -29 1 306 0 -572 1 67 0 -78 1 0 0 139 1 0 
0 -196 1 0 0 -111 1 238 0 -177 1 44 0 -50 0 81 
1 0 0 132 1 0 0 -20 0 380 1 0 0 -527 1 61 
0 215 0 -253 0 70 1 0 0 -29 0 471 1 192 0 -207 
0 139 1 29 0 186 0 -88 1 -91 1 109 0 -122 0 225 
1 0 0 -103 0 222 988 3135 100 MP stroke
1 -222 1 321 0 -402 1 51 0 351 0 -321 1 -651 0 351 
0 -222 1 0 0 -147 0 133 1 0 0 331 1 0 0 -653 
0 151 1 0 0 128 1 0 0 -127 1 136 0 -245 1 0 
0 23 0 -129 1 341 0 224 0 -514 0 121 1 -33 0 232 
0 -91 1 133 0 -126 0 14 1 24 0 -272 1 0 0 380 
0 -63 1 180 0 -219 1 0 0 32 0 -237 0 33 1 0 
0 120 1 -51 0 -115 0 193 1 -238 0 110 1 0 0 30 
1 -113 0 155 1 -152 0 74 1 0 0 256 1 0 0 133 
1 -187 0 415 0 -29 1 -55 0 -18 1 72 0 -318 0 318 
1 0 0 -542 0 16 1 22 0 410 1 -255 0 -89 0 129 
1 0 0 253 1 141 0 27 0 -500 0 54 1 0 0 283 
1 -53 0 267 0 -293 1 0 0 -364 1 372 0 53 1 -82 
0 115 1 -227 0 -128 948 3910 100 MP stroke
0 169 1 154 1 82 0 -613 0 225 1 -36 0 53 0 -241 
1 0 0 -98 0 293 1 -151 0 269 1 -171 0 35 0 -274 
1 163 0 -35 0 7 1 135 0 -188 1 0 0 -165 0 165 
1 0 0 216 1 -72 0 -252 0 98 1 0 0 178 1 0 
0 -128 1 0 0 -36 0 179 1 -41 0 9 1 0 0 -196 
0 13 1 0 0 123 0 -128 1 0 0 -63 0 178 1 0 
0 -56 0 62 1 0 0 -49 1 0 0 67 0 -45 1 0 
0 225 0 -6 1 0 0 6 0 -247 1 -93 0 -14 1 -32 
0 96 0 -14 1 15 0 -91 0 271 1 0 0 233 1 0 
0 -538 1 0 0 193 1 117 0 167 1 -172 0 -144 1 -92 
0 213 0 -115 1 0 0 53 1 -46 0 -97 1 196 0 -207 
0 191 1 -57 0 48 1 0 0 371 0 -544 0 411 1 0 
0 -394 0 148 1 -84 909 4108 100 MP stroke
0 -51 0 141 1 0 0 -143 0 59 1 0 0 -136 0 49 
1 0 0 360 0 -44 1 -203 0 -198 1 0 0 156 0 -80 
1 41 0 -24 0 260 1 105 0 -135 1 -151 0 -118 0 430 
1 0 0 -61 0 61 1 0 0 -262 899 4052 30 MP stroke
gr

 840 2751 mt 
(\(d\) sigma2 for hyphal density) s
1 sg
0 1769 1419 0 0 -1769 2839 4615 4 MP
PP
-1419 0 0 1769 1419 0 0 -1769 2839 4615 5 MP stroke
4 w
DO
SO
6 w
0 sg
2839 4615 mt 4258 4615 L
2839 2846 mt 4258 2846 L
2839 4615 mt 2839 2846 L
4258 4615 mt 4258 2846 L
2839 4615 mt 4258 4615 L
2839 4615 mt 2839 2846 L
2839 4615 mt 2839 4597 L
2839 2846 mt 2839 2863 L
2806 4760 mt 
(0) s
3312 4615 mt 3312 4597 L
3312 2846 mt 3312 2863 L
3179 4760 mt 
(2000) s
3785 4615 mt 3785 4597 L
3785 2846 mt 3785 2863 L
3652 4760 mt 
(4000) s
4258 4615 mt 4258 4597 L
4258 2846 mt 4258 2863 L
4125 4760 mt 
(6000) s
2839 4615 mt 2856 4615 L
4258 4615 mt 4240 4615 L
2738 4659 mt 
(0) s
2839 4320 mt 2856 4320 L
4258 4320 mt 4240 4320 L
2738 4364 mt 
(1) s
2839 4025 mt 2856 4025 L
4258 4025 mt 4240 4025 L
2738 4069 mt 
(2) s
2839 3730 mt 2856 3730 L
4258 3730 mt 4240 3730 L
2738 3774 mt 
(3) s
2839 3435 mt 2856 3435 L
4258 3435 mt 4240 3435 L
2738 3479 mt 
(4) s
2839 3140 mt 2856 3140 L
4258 3140 mt 4240 3140 L
2738 3184 mt 
(5) s
2839 2846 mt 2856 2846 L
4258 2846 mt 4240 2846 L
2738 2890 mt 
(6) s
2839 2792 mt 
(x 10) s
%%IncludeResource: font Helvetica
/Helvetica /ISOLatin1Encoding 80 FMSR

3065 2718 mt 
(-4) s
2839 4615 mt 4258 4615 L
2839 2846 mt 4258 2846 L
2839 4615 mt 2839 2846 L
4258 4615 mt 4258 2846 L
gs 2839 2846 1420 1770 MR c np
0 -4 1 -51 0 433 0 -88 1 145 0 -203 0 19 1 0 
0 -239 0 79 1 0 0 -41 0 118 1 -232 0 -77 0 168 
1 0 0 166 0 -96 1 -114 0 18 0 -131 1 28 0 -8 
0 117 1 -16 0 -117 1 113 0 89 0 -37 1 -30 0 106 
1 -106 1 0 0 107 1 9 0 203 0 -144 1 -127 0 118 
1 -104 0 23 0 -132 1 42 0 -60 1 -107 1 230 0 -62 
0 44 1 29 0 39 1 0 0 108 0 -277 1 0 0 314 
1 35 0 -259 0 61 1 0 0 -303 0 303 1 -145 0 203 
0 -250 1 0 0 218 1 -86 0 -85 0 39 1 0 0 100 
1 -75 0 -64 1 18 0 184 0 -263 1 0 0 289 1 -90 
1 0 0 -17 1 36 0 -74 1 0 0 141 0 -213 1 -30 
0 122 1 -65 0 15 1 0 1 687 0 263 0 -221 1 142 
0 -904 0 372 1 -44 3980 3831 100 MP stroke
1 0 0 -371 0 198 1 -119 0 697 1 0 0 -432 1 -159 
0 -76 0 353 1 -92 0 178 0 -13 1 -271 0 35 1 -25 
0 -143 1 0 0 235 0 -15 1 -63 0 125 0 -99 1 0 
0 -25 0 39 1 0 0 -18 1 0 0 42 0 -91 1 -194 
0 63 0 -8 1 -78 0 397 0 -11 1 135 0 -417 1 0 
0 84 1 -284 0 52 1 0 0 160 1 -160 0 151 1 -124 
0 517 0 -99 1 -148 0 10 1 -56 0 -64 1 0 0 51 
1 -115 0 220 1 0 0 247 0 -452 1 0 0 315 1 -182 
0 46 1 138 0 -298 1 0 0 323 1 -349 0 261 0 -279 
1 1214 0 -413 1 -474 0 58 1 -227 0 227 0 -498 1 196 
0 -20 0 91 1 172 0 -388 1 452 0 -362 1 -255 0 -20 
0 401 1 0 0 -153 0 102 1 -118 0 -243 1 269 0 159 
1 0 0 -213 0 3 3939 4129 100 MP stroke
1 86 0 -68 1 0 0 -17 1 323 0 -292 1 -176 0 194 
1 0 0 -11 1 70 0 -93 1 -12 1 0 0 441 0 -203 
1 -30 0 -354 1 0 0 328 0 -226 1 0 0 -32 1 418 
0 -26 0 135 1 182 0 -195 0 195 1 -329 0 142 0 -51 
1 56 0 148 0 -325 1 -8 0 8 1 -107 0 107 0 -247 
0 245 1 112 0 -139 0 24 1 178 0 -411 0 206 1 -219 
0 171 1 266 0 -158 0 17 1 227 0 119 0 -153 1 0 
0 -286 1 0 0 -63 0 48 1 -165 0 -137 0 302 1 0 
0 -190 0 300 1 -455 0 106 0 -186 0 129 1 92 0 65 
0 -223 0 66 1 0 0 -63 0 163 1 0 0 91 0 -110 
1 0 0 21 1 0 1 0 0 299 1 -38 0 -172 0 13 
1 0 0 -75 1 0 0 170 0 -84 1 0 0 -85 1 85 
0 -195 1 195 0 3 3900 3992 100 MP stroke
0 -304 0 249 1 0 0 115 1 -279 0 124 0 -104 1 134 
0 -179 0 141 1 0 0 192 0 -274 1 -46 0 242 1 0 
0 -112 1 -68 0 -145 1 0 0 2 1 51 0 -2 1 95 
0 45 0 -57 1 0 1 0 0 220 1 -3 0 78 1 -149 
0 -123 0 335 1 -144 0 -279 0 275 1 -53 0 -147 0 100 
1 0 0 -212 0 194 1 -146 0 157 1 0 0 -163 1 0 
0 166 1 0 0 -14 1 0 0 -90 1 0 0 90 1 -50 
0 137 1 0 0 144 1 0 0 -178 1 0 0 11 0 -128 
1 78 0 212 0 -73 1 -99 0 119 1 -34 0 -137 1 62 
1 -15 0 -61 0 222 1 -21 0 -82 0 14 1 0 0 -18 
0 8 1 0 0 -297 1 0 0 117 0 -70 1 70 0 -43 
1 0 1 0 1 0 0 -30 1 60 0 193 0 -118 1 0 
0 243 1 -109 0 190 3857 3763 100 MP stroke
0 -259 0 111 1 93 1 -61 0 16 0 -320 1 22 0 -4 
1 24 0 64 1 0 0 772 1 0 0 -993 1 0 0 156 
1 11 0 17 1 -180 0 12 1 291 0 -169 1 50 0 -26 
0 193 1 -193 0 445 0 -323 1 0 0 -60 1 2 0 -14 
1 -54 0 -54 0 251 1 -122 0 -170 0 8 1 90 0 167 
1 0 0 147 0 -283 1 0 0 -7 1 0 0 219 0 -209 
1 0 0 -43 1 -34 0 77 0 -221 1 362 0 -141 0 86 
1 -6 0 100 1 0 0 -180 1 0 1 0 0 -97 0 4 
1 0 0 -120 1 0 0 294 0 -68 1 0 0 -61 1 61 
1 85 0 -5 1 0 0 40 0 -156 0 27 1 136 0 -195 
1 37 0 -80 1 37 0 265 1 -159 0 -8 1 0 0 45 
1 -231 0 178 1 0 0 -112 0 181 1 0 1 0 0 -181 
1 0 1 126 0 -83 3813 4143 100 MP stroke
1 103 0 -88 1 0 0 4 1 305 0 382 0 -298 1 0 
0 -327 0 65 1 178 0 -300 1 32 0 41 0 -313 1 75 
0 347 0 -104 1 -194 0 303 0 -334 0 301 1 58 0 302 
0 -249 1 -173 0 -145 1 384 0 -278 1 -74 0 536 1 -101 
0 119 0 -587 1 484 0 -365 1 0 0 125 1 0 0 -57 
1 0 0 30 0 -117 1 32 0 -21 0 60 1 -34 1 -282 
0 286 0 -83 1 0 0 59 1 -137 0 137 1 0 0 -13 
1 0 0 -181 0 111 1 0 0 -48 0 120 1 -36 0 16 
1 0 0 75 0 -47 1 -70 0 -53 0 294 1 0 0 -175 
0 139 1 -306 0 223 1 123 0 46 0 -201 1 0 0 168 
1 58 0 51 0 -146 1 0 0 183 1 -327 0 414 1 0 
0 -121 1 -265 0 -162 1 0 0 114 1 0 0 85 1 0 
1 0 1 -117 0 -19 3771 4123 100 MP stroke
1 0 0 -30 0 42 1 0 0 84 1 0 0 -169 0 132 
1 1 0 -80 0 12 1 -70 0 132 0 -156 1 121 0 -17 
1 0 1 0 0 -146 0 369 1 0 0 8 0 -127 1 0 
0 -215 1 -47 0 265 1 48 0 -110 1 -75 0 245 0 -84 
1 0 0 -207 1 13 0 177 0 -176 1 -111 0 128 1 0 
0 -36 1 7 0 46 1 0 0 -53 1 0 1 0 0 -8 
0 146 1 -138 0 254 0 -7 1 -261 1 104 0 139 1 0 
0 -103 1 0 0 343 0 -169 1 -29 0 130 1 -227 0 255 
1 -370 0 -37 0 43 1 28 0 119 0 -64 1 0 0 -148 
0 65 1 -102 0 218 0 -181 1 0 1 0 1 136 0 -79 
0 44 1 0 0 64 1 53 0 -73 1 -169 0 142 1 0 
0 -26 1 0 0 148 1 0 0 46 0 -91 1 20 0 -11 
1 112 0 -223 1 -171 3727 4280 100 MP stroke
0 326 1 0 0 -310 1 0 0 146 1 88 0 -274 1 0 
0 217 0 -126 1 65 0 93 1 0 0 103 0 -25 1 0 
0 -53 1 -99 0 238 0 -148 1 0 0 211 0 -250 1 42 
0 -117 1 0 0 -64 1 0 0 274 0 -87 1 -2 0 -156 
1 0 0 108 1 149 0 -88 1 0 0 43 0 -43 1 -52 
0 22 1 0 0 -132 1 0 0 95 0 -95 1 268 0 279 
1 -330 0 239 0 -391 1 0 0 164 1 0 0 -3 1 0 
0 192 0 -17 1 -56 0 -122 0 254 1 -19 0 -53 1 53 
0 -466 1 241 0 63 1 -212 0 88 0 -43 1 144 0 148 
0 -3 1 0 0 108 0 -355 0 19 1 0 0 -140 1 316 
0 -486 0 243 1 44 0 38 0 -118 1 0 0 200 0 -135 
1 0 0 -19 0 170 1 -170 1 0 0 -39 1 30 0 -237 
0 131 1 122 0 -115 3687 4156 100 MP stroke
0 39 1 -125 0 159 1 0 0 -142 1 0 0 241 1 -83 
0 -139 1 359 0 -376 1 63 0 40 1 -103 0 171 0 -147 
1 0 1 -31 0 278 1 0 0 -114 1 131 0 -271 0 160 
1 -176 0 245 0 -210 1 0 0 22 1 0 0 205 0 -203 
1 199 0 -35 1 2 0 -91 1 -99 0 -4 0 49 1 0 
0 -64 2 -13 0 698 1 -152 0 -331 1 106 0 -89 1 -48 
0 -289 1 632 0 -286 1 102 0 -59 0 62 1 -58 0 3 
1 -26 0 -65 1 -102 0 102 0 -77 1 -50 0 224 1 -3 
0 -228 1 0 0 -58 0 7 1 0 0 298 0 -90 1 -153 
0 89 1 5 0 170 1 0 0 135 0 -90 1 -162 1 -77 
0 13 1 155 0 -383 0 312 1 0 0 -243 1 16 0 73 
1 -145 0 98 0 -26 1 0 0 91 0 -15 1 -54 0 559 
1 -592 0 237 1 0 3642 3983 100 MP stroke
0 -112 1 49 0 55 0 -27 1 -176 0 279 0 -5 1 -21 
1 -228 0 313 1 0 0 -240 0 167 1 -149 0 101 0 -145 
0 131 1 0 0 32 0 -77 1 0 0 533 0 -283 1 -179 
0 302 0 -455 1 354 0 -325 1 -64 0 430 0 -108 1 67 
0 -380 0 62 1 -178 0 382 1 0 0 58 0 -169 0 74 
1 194 0 -439 1 55 1 0 0 253 0 -13 1 -58 1 0 
0 -322 1 561 0 -561 1 0 1 0 0 42 1 0 0 273 
1 -124 0 -169 0 100 1 0 0 36 0 -189 1 46 0 143 
0 -38 1 0 0 91 1 0 0 44 0 -44 1 0 0 -39 
1 0 0 64 0 -76 1 0 0 12 1 114 0 103 0 -55 
1 46 0 -267 0 181 1 0 0 -150 1 131 0 -313 1 0 
0 418 1 0 0 -249 0 71 1 0 0 -30 0 92 1 0 
0 -66 0 183 1 0 3602 3864 100 MP stroke
0 -207 1 -193 0 257 0 -70 1 122 0 -76 1 0 0 -100 
0 146 1 0 0 -120 0 212 1 -24 0 -46 0 317 1 -133 
0 193 0 -112 1 -426 0 157 1 0 0 294 0 -372 0 53 
1 0 0 85 1 -88 0 710 0 -709 1 47 0 55 1 0 
0 169 1 0 0 -452 1 316 0 -241 1 227 0 -107 1 22 
0 79 1 125 0 -123 1 3 0 -96 1 96 0 -154 1 161 
0 79 0 -181 1 304 0 -409 1 0 0 145 0 -25 1 143 
0 -153 1 -55 0 54 1 0 0 8 0 -173 1 93 0 138 
1 -111 0 -230 0 233 1 -300 0 280 1 0 0 -26 1 131 
1 8 0 134 0 -269 1 -219 0 -58 0 107 1 0 0 40 
1 354 0 -376 1 237 0 -169 0 145 1 0 0 -218 1 0 
0 91 1 0 0 -135 0 135 1 0 0 302 1 61 0 -244 
0 40 1 0 0 -95 3561 4051 100 MP stroke
0 188 1 -244 1 -111 0 272 0 -84 1 162 0 -296 0 200 
1 -45 0 123 0 -134 1 0 0 340 0 -405 0 72 1 281 
0 -47 0 54 1 237 0 -618 0 225 1 0 0 188 0 -125 
1 149 0 -328 0 174 1 -146 0 119 1 0 0 -269 0 788 
1 -265 0 114 0 -65 1 -203 0 80 0 -541 0 68 1 0 
1 0 0 15 1 0 1 0 0 255 0 -149 1 60 0 -276 
0 86 1 1069 0 35 1 -40 0 -913 1 -107 0 240 0 -73 
1 -157 0 -184 0 184 1 -130 0 126 1 -125 0 234 1 -45 
0 45 1 -156 0 156 1 0 0 135 0 -123 1 -23 0 -153 
1 0 0 147 0 -24 1 0 0 -182 0 330 1 -23 0 -203 
1 0 1 0 0 94 1 62 0 -165 0 112 1 0 0 227 
0 -79 1 -207 0 -139 0 67 1 0 0 -24 1 0 1 0 
0 260 1 -274 1 131 3520 4047 100 MP stroke
0 18 0 -88 1 145 0 113 1 -60 0 69 0 -114 1 -240 
0 241 0 -79 1 -17 0 94 0 -26 1 0 1 -74 0 -52 
0 10 1 0 0 -21 0 380 1 0 0 -213 0 285 1 0 
0 -585 1 0 0 47 0 -128 1 67 0 -13 0 76 1 0 
0 22 1 -22 1 79 1 0 0 102 1 -59 0 103 0 -179 
0 38 1 44 0 271 1 -213 0 314 1 -275 0 11 1 97 
0 291 0 -283 1 0 0 -37 1 23 0 23 1 0 0 -217 
1 0 0 39 0 -41 1 0 0 -64 1 206 0 -303 0 104 
1 471 0 -419 1 0 0 -222 0 203 1 74 1 163 0 -197 
0 138 1 0 0 42 1 0 0 -270 1 0 0 189 0 -197 
1 107 0 -65 1 97 0 83 1 0 0 -192 0 167 1 0 
0 -189 1 0 1 0 0 17 0 -17 1 0 0 316 1 -137 
0 131 1 -201 0 25 3478 4021 100 MP stroke
0 -241 1 0 0 75 1 246 0 -246 1 355 0 208 0 -421 
1 -110 0 -153 1 517 0 -221 1 0 0 123 0 -207 1 0 
0 349 1 -348 0 -141 0 23 1 0 0 154 0 -86 1 61 
0 154 1 -13 0 -105 0 126 1 0 0 -139 1 18 0 -49 
1 0 0 -62 1 62 0 19 1 150 0 -358 1 189 0 -75 
0 225 1 0 0 -169 0 124 1 -234 1 187 0 137 1 163 
0 -163 0 625 1 1 0 -850 1 80 0 164 1 180 0 -564 
0 129 1 14 1 8 0 41 1 26 0 -26 0 84 1 0 
0 -236 1 37 0 130 1 -14 0 -68 0 68 1 87 0 136 
0 -223 1 0 0 358 0 -26 1 0 0 -351 0 273 1 0 
0 45 0 -328 1 52 0 69 0 -31 1 -95 0 9 0 -50 
1 -57 1 13 1 119 0 162 0 -32 1 -251 0 107 0 -14 
1 -8 0 140 1 -157 3436 4121 100 MP stroke
0 -94 0 86 1 0 0 81 1 265 0 -380 1 0 0 192 
1 0 0 -30 1 -119 0 -3 1 0 0 -54 0 136 1 39 
0 -192 1 17 0 133 0 -90 1 0 0 86 1 -47 0 39 
1 0 0 301 0 -398 0 121 1 0 0 -92 0 202 1 0 
0 -250 1 0 0 -67 1 0 0 323 1 -198 0 172 0 -144 
1 0 0 -154 0 153 1 215 0 -374 1 0 0 -63 1 179 
1 -24 0 86 1 0 0 8 0 -8 1 0 1 168 0 171 
0 -94 1 186 0 -228 1 0 0 -310 1 0 0 57 0 -6 
1 0 0 -55 0 58 1 0 0 -143 1 0 0 109 1 69 
0 -50 1 15 0 131 0 -78 1 -82 0 216 0 -144 1 143 
0 -174 1 315 0 -128 0 188 1 0 0 204 0 -293 0 109 
1 42 0 85 0 -106 1 45 0 -267 0 29 1 0 0 -400 
1 0 1 0 0 362 3395 3924 100 MP stroke
1 0 0 -242 1 242 0 182 1 121 0 43 0 -296 1 109 
0 -31 1 -408 0 297 0 -198 1 100 0 -139 1 0 0 -134 
0 565 1 -251 0 -142 1 94 0 -23 0 146 1 -113 1 0 
0 265 1 0 0 48 0 -98 1 0 0 13 0 -154 1 0 
0 -21 1 -4 0 213 1 0 0 -213 1 0 0 -252 0 45 
1 61 0 209 0 -436 1 271 0 -13 1 0 1 0 0 348 
1 0 0 -372 1 62 0 60 0 -149 1 -83 0 121 1 -42 
0 136 0 -131 1 -100 0 100 0 -41 1 96 0 -93 0 173 
1 0 0 112 1 0 0 91 0 -338 1 -125 0 112 1 0 
0 -37 0 398 1 0 0 -192 1 10 0 -194 1 0 1 141 
0 -46 1 -77 0 -39 1 118 0 -28 0 227 1 0 0 191 
0 -206 1 23 0 -187 0 42 1 210 0 -186 1 0 0 69 
0 -55 1 37 0 -140 3353 4052 100 MP stroke
1 -8 0 -4 1 0 0 4 1 0 1 0 0 -19 1 0 
0 19 1 -4 1 0 0 70 1 0 0 -87 1 -41 0 13 
1 0 0 41 0 -29 1 53 0 202 0 -317 1 0 0 44 
0 -63 1 -87 0 348 1 92 0 -389 0 177 1 -73 0 368 
1 -187 0 52 0 -155 1 -84 1 0 0 -54 1 437 0 -44 
1 -47 0 -296 1 -209 0 341 0 -167 1 -92 0 117 0 -117 
1 192 1 -27 0 169 0 -376 0 190 1 0 0 224 1 -188 
0 -26 0 45 1 0 0 -112 0 120 1 -88 0 85 1 0 
0 115 1 0 0 -276 0 150 1 204 0 -178 1 0 0 -50 
0 83 1 0 0 315 0 -286 1 0 0 84 0 -3 1 -22 
0 10 1 -31 0 -29 1 -62 0 142 1 80 0 -394 0 239 
1 57 0 -152 0 215 1 353 1 -688 0 -38 0 218 1 0 
0 -140 1 0 1 0 3309 4123 100 MP stroke
0 -91 0 135 1 0 0 -80 1 331 0 48 0 -346 0 246 
1 -281 0 -12 1 0 0 278 1 -1 0 -127 1 0 0 85 
1 -98 0 174 1 -305 0 197 1 0 0 119 1 -142 0 36 
0 -101 1 47 0 160 1 -82 0 -114 0 197 1 0 0 -44 
0 55 1 0 0 -189 0 210 1 -225 0 236 0 -55 1 -169 
0 77 0 -77 1 -226 0 516 0 -271 1 0 0 -111 1 0 
0 79 1 -56 0 49 0 -72 1 0 0 107 1 -107 0 5 
0 -16 1 -146 1 225 0 -45 1 -172 1 0 0 204 0 -181 
1 141 0 -55 0 73 1 -93 0 167 1 41 0 -220 1 225 
0 2 0 -25 0 23 1 0 0 -183 1 -127 0 177 1 68 
1 39 0 38 0 -184 1 0 0 362 0 -110 1 -291 0 425 
0 -115 1 116 0 97 0 -444 1 97 0 23 1 0 0 161 
0 -252 1 0 0 -141 3269 4214 100 MP stroke
1 10 0 -23 0 132 1 0 0 -126 0 22 1 -114 0 405 
0 -92 1 0 0 97 1 0 0 -425 1 -18 0 345 1 -72 
0 12 0 -12 1 0 0 31 0 -87 1 227 0 204 0 -84 
1 -46 0 182 1 -72 0 -58 0 46 1 0 0 -315 1 252 
0 99 0 -151 1 -268 0 -89 0 190 1 0 0 176 0 -65 
1 0 0 -211 1 0 0 259 0 -39 1 80 0 -312 1 -81 
0 -47 1 369 0 109 0 -433 1 0 0 42 0 -70 1 0 
1 154 0 256 1 245 0 -305 0 140 1 0 0 -378 1 121 
0 178 0 -78 1 0 0 -74 1 0 0 65 1 0 0 -200 
1 -270 0 374 1 0 0 -230 1 0 0 384 0 -49 1 -214 
0 36 0 -83 1 135 0 -7 1 243 0 -4 1 -415 0 83 
1 0 0 -83 0 538 1 0 0 112 1 -293 0 -90 0 86 
1 0 1 0 0 60 3228 3798 100 MP stroke
0 -149 1 -6 0 -78 1 0 0 -2 1 0 0 72 0 -65 
1 -22 0 -192 1 0 0 -25 0 294 1 -77 0 118 0 -118 
1 0 0 142 1 30 0 -167 0 114 1 77 0 -29 0 23 
1 -210 0 -146 1 27 0 212 1 0 0 42 1 -106 0 350 
0 -419 0 135 1 66 0 -43 1 -129 0 440 0 -69 1 0 
0 41 1 48 0 -296 0 187 1 0 0 -304 1 0 0 148 
0 -325 1 -46 0 318 0 -53 1 0 0 99 1 -121 0 22 
0 -118 1 -118 0 354 1 -244 0 -72 0 277 1 311 0 344 
1 -777 0 -85 0 99 1 0 0 -154 1 0 0 501 1 0 
0 -516 1 198 0 -304 1 0 0 143 0 -75 1 -68 0 233 
0 -233 1 236 0 128 1 155 0 62 0 -136 1 0 0 -296 
0 140 1 178 0 -432 0 34 1 0 0 -40 0 149 1 96 
0 52 0 -257 1 235 3189 3990 100 MP stroke
0 42 0 -111 1 0 0 -159 1 0 0 132 1 96 0 -305 
0 52 1 0 1 205 1 0 0 24 1 0 0 231 0 -403 
1 120 0 -24 0 102 1 -78 0 -114 0 106 1 240 0 -232 
1 -37 0 92 1 0 0 -148 1 168 0 -57 1 37 0 12 
1 0 0 -92 1 -2 0 -82 0 164 1 66 0 -266 0 138 
1 -16 0 398 1 0 0 -26 1 -278 0 218 1 0 0 -280 
1 0 0 74 0 -171 0 83 1 0 0 267 1 0 0 -313 
1 2 0 286 0 -360 1 0 0 -133 0 147 1 101 0 69 
1 0 0 -162 0 353 1 82 0 -262 0 148 1 126 0 -112 
1 -107 0 -139 1 0 0 338 1 0 0 -261 1 -147 1 9 
0 329 1 -220 1 -9 0 -93 0 58 1 0 1 0 0 14 
0 -48 1 0 0 174 0 -55 1 -84 1 0 0 57 1 0 
0 -57 1 -55 0 84 3145 4044 100 MP stroke
0 -159 0 112 1 53 0 162 1 -197 0 89 1 0 0 -204 
1 0 0 248 0 -189 1 0 0 -49 1 -1 0 52 1 0 
1 0 0 11 1 -113 0 692 0 -171 1 -93 0 -386 0 118 
1 0 0 78 1 0 0 -148 1 -127 0 81 1 10 0 15 
1 0 0 -45 0 137 1 0 0 -152 0 325 1 19 0 -223 
0 17 1 -62 0 -9 1 0 0 -59 1 0 0 112 0 -112 
1 411 0 130 0 -210 1 117 0 -165 0 31 1 137 0 112 
1 -88 0 -538 0 196 1 0 0 -47 0 409 1 16 0 274 
1 0 0 -103 1 0 0 -474 0 95 1 239 0 297 0 -664 
0 492 1 -457 0 -81 0 175 1 0 0 91 1 95 0 -292 
1 0 0 -101 0 43 1 0 0 196 1 0 0 58 0 -137 
1 0 0 -300 0 263 1 29 0 216 0 -186 1 0 0 -1 
0 143 1 0 0 -221 3106 4012 100 MP stroke
0 11 1 166 0 -319 1 0 0 215 0 -247 0 124 1 -143 
0 -95 0 38 1 0 0 466 1 0 0 -340 1 -87 0 381 
1 -94 0 282 1 -133 0 132 0 -63 1 -151 0 232 0 -384 
0 225 1 293 0 13 0 -493 1 2 0 -201 1 251 0 37 
1 0 0 311 1 -137 0 -158 1 22 0 -19 1 -73 0 151 
1 -212 0 -96 1 73 0 -119 0 80 1 -128 0 -120 1 0 
0 174 1 234 0 71 0 -255 1 0 0 -12 0 14 1 0 
0 -46 0 719 1 -84 0 -187 1 0 0 -68 0 455 1 -167 
0 -310 0 291 1 0 0 59 0 -59 1 -700 0 54 1 77 
0 78 1 -116 0 -192 0 112 1 160 0 -124 0 170 1 -170 
0 26 1 0 0 180 1 -134 0 -89 0 218 1 326 0 -460 
0 49 1 0 1 0 0 10 1 0 0 37 0 -157 1 0 
0 56 1 0 0 -56 3066 4135 100 MP stroke
1 0 0 -69 0 69 1 73 0 142 0 -45 1 0 0 -132 
0 547 1 8 0 -551 0 143 1 0 0 77 1 -20 0 230 
1 102 0 -500 1 149 0 -149 1 134 0 142 0 -268 1 0 
0 -20 0 12 1 106 0 127 0 -174 0 56 1 118 0 -187 
1 -121 0 234 1 0 0 -250 1 0 0 14 1 239 0 -149 
1 0 0 -158 1 158 0 24 0 -32 1 0 0 -97 1 0 
0 81 0 -218 1 0 0 89 1 -67 0 38 0 -60 1 0 
0 250 1 0 0 184 1 -105 0 -60 0 15 1 -155 0 153 
1 0 0 -53 1 0 0 -124 1 0 0 254 1 0 0 186 
1 0 0 -453 0 457 1 18 0 -119 0 66 1 0 0 -261 
0 3 1 0 1 0 0 -178 0 71 1 -74 0 415 1 0 
0 -292 0 14 1 0 0 87 1 0 0 142 0 -149 1 0 
0 -166 1 0 0 -88 3025 4252 100 MP stroke
0 55 1 -55 0 120 1 141 0 -197 1 -111 0 207 1 0 
0 -99 1 10 0 312 1 0 0 -253 1 14 0 8 1 -74 
0 48 1 -15 0 255 1 0 0 -237 1 184 0 -217 1 0 
0 -116 1 0 0 302 0 -233 1 -37 0 171 1 0 0 -136 
1 104 0 -109 1 0 0 -114 1 159 0 85 0 -103 1 0 
0 -48 1 0 0 74 1 0 1 0 1 -1 0 253 1 -155 
0 -86 1 0 0 24 0 -146 1 71 0 31 0 -2 1 11 
0 91 1 191 0 -246 1 0 0 -121 0 119 1 18 0 81 
0 -97 1 108 0 52 1 -126 0 46 1 -150 0 230 0 -204 
1 38 0 147 0 -223 0 219 1 0 0 152 0 -264 1 0 
0 101 1 0 0 -122 0 221 1 0 0 -265 1 90 0 112 
1 0 0 -104 1 0 0 57 0 -128 1 237 0 -109 1 141 
0 -53 1 -70 0 130 2981 3858 100 MP stroke
1 146 0 -141 1 0 0 24 0 -93 1 0 0 -107 0 41 
1 -28 0 -230 1 26 0 82 0 -137 1 0 0 132 1 13 
0 -66 1 43 0 75 1 21 0 165 0 -367 1 -113 0 681 
1 -381 0 285 0 -295 0 98 1 136 0 54 0 -93 0 54 
1 -54 0 -50 1 0 0 -209 1 86 0 285 0 -279 1 0 
0 -35 0 116 1 0 0 -86 1 0 0 34 0 -123 1 74 
0 49 0 -211 1 0 0 269 0 -132 1 117 0 302 0 -115 
1 -373 0 42 1 0 0 92 0 -87 1 -163 0 181 0 -181 
1 231 0 -50 1 50 0 455 1 0 0 243 1 0 0 -720 
1 243 0 155 0 -136 1 0 0 -304 0 277 1 0 0 -162 
1 0 0 -95 1 -138 0 337 1 -57 0 11 1 -39 0 -294 
0 264 1 58 0 -148 1 -145 0 383 1 -4 0 -19 1 0 
0 -301 1 0 0 76 2941 4113 100 MP stroke
1 0 0 490 1 -352 0 233 0 -7 1 0 0 66 0 -144 
1 0 0 -280 1 0 0 118 0 -321 1 0 0 386 1 -86 
0 86 0 -298 1 0 0 178 1 108 0 -268 0 15 1 126 
0 -82 1 32 0 -47 1 6 1 1 0 -7 0 137 1 -137 
1 95 0 149 0 -72 1 -96 0 30 0 -106 1 384 0 -275 
0 94 1 0 0 -174 0 15 1 0 0 22 1 7 0 -189 
0 138 1 0 0 23 1 0 0 279 1 19 0 -380 1 0 
0 236 0 -9 1 0 0 70 0 -166 1 65 0 296 0 -80 
1 16 0 -157 0 196 1 125 0 -706 1 155 0 -119 1 334 
0 -129 1 0 0 52 0 -189 1 0 0 265 0 -246 1 240 
0 93 1 -126 0 -84 1 0 0 -220 1 669 0 -115 1 129 
0 -198 0 89 1 -154 0 -323 1 0 0 137 0 -13 1 164 
0 -149 1 131 0 -186 2900 4104 100 MP stroke
1 0 0 173 0 -173 1 0 0 170 1 33 0 -42 1 211 
0 97 0 -196 1 0 0 -77 1 -50 0 217 0 -329 0 271 
1 0 0 -309 1 339 0 12 0 -453 0 281 1 0 0 122 
0 -207 1 0 0 -15 1 -62 0 16 1 309 0 -338 0 200 
1 -14 0 665 1 -263 0 444 0 -596 1 104 0 262 0 -63 
1 0 0 10 0 -71 0 41 1 -174 0 105 0 -4 1 -696 
0 -20 0 36 1 163 0 -171 0 56 1 124 0 -190 1 0 
0 195 0 -195 1 0 0 3 0 -73 1 0 0 564 0 -406 
1 0 0 314 0 -44 1 0 0 163 1 0 0 -517 0 276 
1 0 0 182 1 0 0 -408 0 344 1 0 0 -542 0 56 
1 0 0 241 0 -145 1 0 0 343 1 0 0 -205 1 0 
0 210 0 -135 1 0 0 -257 0 14 1 0 0 168 0 -182 
0 136 1 0 0 -57 2864 4113 100 MP stroke
1 -99 0 226 1 -78 0 90 1 0 0 -233 1 0 0 233 
0 -134 1 0 0 192 1 -95 0 63 1 -26 0 -128 1 -151 
0 243 2 -186 0 93 1 107 0 93 1 -73 0 92 1 32 
0 32 0 -91 1 0 0 -1 0 32 1 70 0 -423 1 0 
0 -11 0 197 1 0 0 100 1 0 0 108 0 -207 0 76 
1 16 0 -152 1 0 0 182 1 -11 0 117 0 -243 1 -63 
0 216 1 -84 0 -40 0 325 1 0 0 13 0 -13 1 0 
0 -429 2839 4136 58 MP stroke
gr

%%IncludeResource: font Helvetica
/Helvetica /ISOLatin1Encoding 120 FMSR

2893 2751 mt 
(\(e\) sigma2 for tip density) s

end %%Color Dict

eplot
%%EndObject

epage
end

showpage

%%Trailer
%%EOF
